src/rtl/asa/test/la0_waveform.vcd
#0 $dumpon
$date today $end
$timescale 1 ns $end
$scope module top $end
$var wire 76 0 south_ff/o_data $end
$var wire 4 1 south_ff/i_read_enable $end
$var wire 4 2 south_ff/i_write_enable $end
$var wire 76 3 south_ff/i_data $end
$upscope $end
$enddefinitions $end
#0
$dumpvars
b0000000000000000000000000000000000000000000000000000000000000000000000000000 0
b0000 1
b1111 2
b1111100011100001111000011011111101000111111000111000011111111010010100110110 3
$end
#1
b1111111110010101000111110011001110101011111111100101010000000001111011011001 3
#2
b1111 1
b0000010000101000000000001011101110110000000100001010000001111110110010100100 3
#3
b1111100011100001111000011011111101000111111000111000011111111010010100110110 0
b0000 1
b0000110011111000100111111011110110100100001100111110001000000000000100000100 3
#4
b1111110101010110000000001010001101100011111101010101100000000001011111000011 3
#5
b0000101010011101001000001010010000110100001010100111010010000011000100111100 3
#6
b1111101000111001011111111011010011100111111010001110010111111110010010001101 3
#7
b0000110011000100011000011010000101010000001100110001000111111101110000101010 3
#8
b0000011111101101010111111011110101001000000111111011010101111100000101000111 3
#9
b1111110011010010101111110101000100110111111100110100101010000010100111101100 3
#10
b0000111100110100100111111001011110000100001111001101001000000010100111100111 3
#11
b0000010101011010000111100001100100001100000101010110100000000000001001111011 3
#12
b1111100000000000001000001001101001111111111000000000000010000110001010001101 3
#13
b1111111001000111010000000101100010000111111110010001110101111111101111100010 3
#14
b0000011111010110010000000111000100111000000111110101100101111001101111100000 3
#15
b1111100011101101000000001011100010101111111000111011010001111101101101000010 3
#16
b1111101101001010110111111011110111000111111011010010101101111100100000111111 3
#17
b1111101011001011010000000111001100011111111010110010110101111111111000001010 3
#18
b0000101010011110010000001001011111010100001010100111100100000011000001100011 3
#19
b0000010010100111100000100010110100010100000100101001111001111111011110011100 3
#20
b1111111011010110101000001111010110001011111110110101101011111011101111001011 3
#21
b0000011011011010000111011100110001010000000110110110100000000010111001111110 3
#22
b1111101110010111100111110100001000101011111011100101111000000001001000101010 3
#23
b0000001010100010001111101111000000010100000010101000100011111101101011111111 3
#24
b1111011011000100111111111001111101101111110110110001001110000100101011110001 3
#25
b0000110110100011100111101110111110101000001101101000111001111100001000110100 3
#26
b1111110000000001000111111110011010001011111100000000010001111111100100001011 3
#27
b0000011010101010111111110100011110010000000110101010101110000011000101000011 3
#28
b1111111001101100001111111001100101101011111110011011000011111010100110011110 3
#29
b1111110001101111111111110000110111011111111100011011111111111100110100010001 3
#30
b1111100001011000010111111100000101011111111000010110000100000100000101111101 3
#31
b1111110110001100100111101110001001011011111101100011001001111100010010101001 3
#32
b1111011111000110001111111101100011001011110111110001100011111100101100101110 3
#33
b1111010010110110010111100111110100111111110100101101100100000001000110000110 3
#34
b1111011110000011001111111111000011011111110111100000110011111111000111001000 3
#35
b1111010000001011001000010000101101100111110100000010110011111100101101010111 3
#36
b0000001001111000111000100101110111011100000010011110001111111110011010000011 3
#37
b1111111111011111110111110100101011000111111111110111111100000000101111000101 3
#38
b1110111110010111100111110101111011000011101111100101111001111110110101111010 3
#39
b1111011101100011010000011000001100101111110111011000110101111110000100101011 3
#40
b0000011001100100000111110111111101110100000110011001000001111100100011010000 3
#41
b1111111000100111001111110001110110010111111110001001110011111011010001001001 3
#42
b1111100000011111110111110010100010101011111000000111111100000011111000111011 3
#43
b1111001101101111000111111111001001001011110011011011110001111110111101111110 3
#44
b0000011111010000101000001110011101010100000111110100001011111100000111010110 3
#45
b1111001011001001000111100110001000001111110010110010010000000000010000111000 3
#46
b1111110000010111100111011001000100111011111100000101111000000011001000010011 3
#47
b1111110000101110010111111101000010101011111100001011100101111111101000000001 3
#48
b0000100100000001010111110100111010110000001001000000010100000010011011111110 3
#49
b0000000000010010110111101100010010001000000000000100101101111100001101111011 3
#50
b0000110000001000100111111011010011010000001100000010001001111101001100101100 3
#51
b1111011000000111110111110000011110110011110110000001111101111010110000111100 3
#52
b0000010001001011011111111011010010110000000100010010110110000101100011101011 3
#53
b0000000000010010100000001011000011100000000000000100101001111111011000111011 3
#54
b0000001101001000000000010110100001010100000011010010000001111110011110010111 3
#55
b0000001100011001111111111101011101100100000011000110011111111100001110000111 3
#56
b1111100111010001100000000100101100110011111001110100011001111111010010110110 3
#57
b1111101111001000111111101001011100011011111011110010001110000000100001110001 3
#58
b0000000011111000010111101000000111100100000000111110000100000010001001111011 3
#59
b0000110110101101010111111000101011110000001101101011010100000100101011110111 3
#60
b0000100000010000110111111111111001010100001000000100001100000001001001100010 3
#61
b1111111101110001001111110000100110110011111111011100010010000000111111111000 3
#62
b1111110000001110000000000110010011100111111100000011100000000000100100111111 3
#63
b1111100101000010111000000010000100010111111001010000101110000100001110111110 3
#64
b0000011101111010011000010000010001010000000111011110100111111001100011011110 3
#65
b1111111000110101000111111101111101000011111110001101010001111101011100100101 3
#66
b0000001011110111101111110010101110110100000010111101111010000000000100001010 3
#67
b1111111111011111110111111000111001101111111111110111111101110110000110011010 3
#68
b1111111010001010000111101111101110001011111110100010100001111111001010001000 3
#69
b0000001101110100001000000100110010100000000011011101000011111110111111000100 3
#70
b0000011010000001000000001010101110101000000110100000010001111110100000100000 3
#71
b1111101100010110011111111100010001101011111011000101100111111101110010110000 3
#72
b0000001111100110010111110110001000011000000011111001100100000100110100001101 3
#73
b1111101110010010111000000100010011100011111011100100101110000000100010011000 3
#74
b0000000010011101010000011000110011110100000000100111010100000000101010010010 3
#75
b1111110111000000010000101000000100111111111101110000000101111011111110011000 3
#76
b0000011000100101100000000001010011000000000110001001011000000100101000101011 3
#77
b0000011010010001101000001001010010111000000110100100011010000100001100000100 3
#78
b1111110100110011010000001001011010001011111101001100110101111100100110011011 3
#79
b1111101011111110010111011111111111011111111010111111100100000011011111100000 3
#80
b1111101011111110010111011111111111011111111010111111100100000011011111100000 0
b0000000001000000000000001110010110101000000000010000000001110111100001001011 3
#81
b0000001111001111010111100010100010011100000011110011110101111100000101110100 3
#82
b1111 1
b1111101000010001100000010000011010110011111010000100011000000000011000110101 3
#83
b0000000001000000000000001110010110101000000000010000000001110111100001001011 0
b0000 1
b0000010001011010000111110110001000101100000100010110100001111001110000000010 3
#84
b0000001011101001000111111001011010010000000010111010010000000111100011110001 3
#85
b0000010101000100001000001011111101001000000101010001000011111110100000010110 3
#86
b0000001111111110110000010001110001011100000011111111101101111100110111011111 3
#87
b0000001001001110001111110001101001010100000010010011100011111110100010110010 3
#88
b0000000101010101001000010011010101111100000001010101010011111101010001000000 3
#89
b1111111000011111000111110000110100001011111110000111110001111110010111011100 3
#90
b0000011101101111000111111001101101010000000111011011110000000010000101101001 3
#91
b0000000001011111111000001000011011010000000000010111111111111010101010010111 3
#92
b1111111111100010100111111110101100101111111111111000101000000101100010101101 3
#93
b1111110010111010111000011100001110111111111100101110101110000100100011010000 3
#94
b0000110101101100011000001000010101100000001101011011000110000000000000011011 3
#95
b0000000001110101111000010010000010001000000000011101011110000110001100111001 3
#96
b0000010001110111111000010101001111101000000100011101111110000000010110010100 3
#97
b0000010101110010001000000010000010101100000101011100100011111111110001011101 3
#98
b1111100001110011110111111011101100111111111000011100111101111111100011001110 3
#99
b1111110011010001101000001101001010001111111100110100011011111110101101011000 3
#100
b1111101010000101111000001110010101001111111010100001011111111111010111100011 3
#101
b1111100100110011010000001010101000000111111001001100110100000100110001100110 3
#102
b1111111011101101011111110011110000010011111110111011010111111110010110111101 3
#103
b0000011000100101001000000001000101011000000110001001010011111111010001010100 3
#104
b0000011010101111011000010000001101011100000110101011110111111101101001110101 3
#105
b1111111011010001001111111001000101010111111110110100010011111001101011000101 3
#106
b1111111101110001001111100111101111111011111111011100010010000010111010011010 3
#107
b0000010100000001001000000000010110010000000101000000010011111011101110001011 3
#108
b0000011101000010011000000010110111111100000111010000100110000000111001100000 3
#109
b0000000010000001111000000100010001000100000000100000011111111010101110110101 3
#110
b0000100000000001110111111000100001110100001000000000011100000101101000001010 3
#111
b1111110100011010111111111100111011111111111101000110101111111110000110001010 3
#112
b0000001111011110100111111100010000111000000011110111101001111011001110010001 3
#113
b1111011010110110010000011000111011111111110110101101100101111010100001000110 3
#114
b0000101010011010010000001001110100001000001010100110100100000010101010010111 3
#115
b1111000111100000001111111110111000111111110001111000000011111011001101010011 3
#116
b1111101110110101111111110011010010101111111011101101011111111011100111100001 3
#117
b1111001001000111101000000110101000001111110010010001111011111001101001000111 3
#118
b0000110001111000111111111011001011101000001100011110001110000011001111101101 3
#119
b0000000001011001111000000000101111001100000000010110011111111100010001000111 3
#120
b1111111100010000010000010000010110001011111111000100000100000001010000110101 3
#121
b0000001011101000111111100011000011000000000010111010001110000001011101011111 3
#122
b0000011110000101011111101011111011010100000111100001010111111111000101001001 3
#123
b0000111110101001000111111111101011000100001111101010010000000011010001011110 3
#124
b1111000010110101111000010000011011101011110000101101011111111110100010011000 3
#125
b0000101000001000010111100100011001110100001010000010000100000100000110011110 3
#126
b1111010010011011101111100111011000011011110100100110111011111101001001011111 3
#127
b0000000001000000000000001110010110101000000000010000000001110111100001001011 0
b0000 1
b1111 2
b0000001000001001011000000100011001000000000010000010010110000000000000010101 3
