src/rtl/controller/fifo sharing/test/la0_waveform.vcd
#0 $dumpon
$date today $end
$timescale 1 ns $end
$scope module top $end
$var wire 32 0 block/weight_fifo_array/i_write_enable $end
$var wire 320 1 block/weight_fifo_array/o_occupants $end
$var wire 8 2 block/weight_fifo_array/i_data $end
$var wire 32 3 block/weight_fifo_array/i_read_enable $end
$var wire 256 4 block/weight_fifo_array/o_data $end
$upscope $end
$enddefinitions $end
#0
$dumpvars
b00000000000000000000000000000000 0
b00001010000000101000000010100000001010000000101000000010100000001010000000101000000010100000001010000000101000000010100000001010000000101000000010100000001010000000101000000010100000001010000000101000000010100000001010000000101000000010100000001010000000101000000010100000001010000000101000000010100000001010000000101000 1
b00011101 2
b00000000000000000000000000000000 3
b0000000000000000000000000000000000000000000000000000000000000000000000000000000000000000000000000000000000000000000000000000000000000000000000000000000000000000000000000000000000000000000000000000000000000000000000000000000000000000000000000000000000000000 4
$end
#512
b11111111111111111111111111111111 3
#513
b00001001110000100111000010011100001001110000100111000010011100001001110000100111000010011100001001110000100111000010011100001001110000100111000010011100001001110000100111000010011100001001110000100111000010011100001001110000100111000010011100001001110000100111000010011100001001110000100111000010011100001001110000100111 1
b0010001000110001010000110111010100000011100000111110000011001011010000001011100010010011001100111101011101100001000001111000110100010001110011010111011100010001011010001100011011010001000000011101010011010110101110001110010010011001011001000111101111111011 4
#514
b00001001100000100110000010011000001001100000100110000010011000001001100000100110000010011000001001100000100110000010011000001001100000100110000010011000001001100000100110000010011000001001100000100110000010011000001001100000100110000010011000001001100000100110000010011000001001100000100110000010011000001001100000100110 1
b0100111110011100110011110000001010000100101110001110011000111101011011110010111100000100010010010110001100111000100101111101001000001011100111010111110011010000111110110000111111100100000111100110001100010101011101001010001011110011100001111100111011000110 4
#515
b00001001010000100101000010010100001001010000100101000010010100001001010000100101000010010100001001010000100101000010010100001001010000100101000010010100001001010000100101000010010100001001010000100101000010010100001001010000100101000010010100001001010000100101000010010100001001010000100101000010010100001001010000100101 1
b0000111100000011110011001110001001100111010110001101100100001111110010010000110110001101110100101001001001100111101100101000010111110111110110110100110111011101000001110111100110011111001010100001100100111001001010110011010100100011111011100111100011100110 4
#516
b00001001000000100100000010010000001001000000100100000010010000001001000000100100000010010000001001000000100100000010010000001001000000100100000010010000001001000000100100000010010000001001000000100100000010010000001001000000100100000010010000001001000000100100000010010000001001000000100100000010010000001001000000100100 1
b0110110100111011111011110110011001011111011111100011011101100110100111000100101000111011000010000000000000100001101001000011110101111110001001001100111010111111100011000110101011010111110001100101111100000011011110110010101110100001010000011000110111111100 4
#517
b00001000110000100011000010001100001000110000100011000010001100001000110000100011000010001100001000110000100011000010001100001000110000100011000010001100001000110000100011000010001100001000110000100011000010001100001000110000100011000010001100001000110000100011000010001100001000110000100011000010001100001000110000100011 1
b0000000111111010010011010000111110111100101110000111100000001000101101111011010001100101000010101100011000001101001101100111010011100001011110110011100001100100010100011010110011111001111101000000011011100110010000000101011110101110001011010111010011011000 4
#518
b00001000100000100010000010001000001000100000100010000010001000001000100000100010000010001000001000100000100010000010001000001000100000100010000010001000001000100000100010000010001000001000100000100010000010001000001000100000100010000010001000001000100000100010000010001000001000100000100010000010001000001000100000100010 1
b1100000101010111110101101100111011110110001011010111101100001111001011111101011100010100001000010101100110111000101001100000001111001010101000101010010000101110001000111010010100101101110110000100000001110000111011010111100001111010000111001100011111011000 4
#519
b00001000010000100001000010000100001000010000100001000010000100001000010000100001000010000100001000010000100001000010000100001000010000100001000010000100001000010000100001000010000100001000010000100001000010000100001000010000100001000010000100001000010000100001000010000100001000010000100001000010000100001000010000100001 1
b1001101101010001010000000110010001100001111110111011110001110010101000010101001011000010011100011000001101101101000101110110101100000100011000111110100000100100110000011001001101110100100010100000110011011001000111010111111010000011110100110110111110101001 4
#520
b00001000000000100000000010000000001000000000100000000010000000001000000000100000000010000000001000000000100000000010000000001000000000100000000010000000001000000000100000000010000000001000000000100000000010000000001000000000100000000010000000001000000000100000000010000000001000000000100000000010000000001000000000100000 1
b1011100000100101011000111001101100101101000101011110110011111100100001110101001110110001101100000000010101101100001001010100111000111100100011010001011011011100010100110100111110011110010110000010101011101100100001010111000011111000010110000110000000001000 4
#521
b00000111110000011111000001111100000111110000011111000001111100000111110000011111000001111100000111110000011111000001111100000111110000011111000001111100000111110000011111000001111100000111110000011111000001111100000111110000011111000001111100000111110000011111000001111100000111110000011111000001111100000111110000011111 1
b0110100111110100100010011001001000000000100011010100000111101110111110000100011100001000100110110101001101101010111111110001010101000010100101100010111101011001111010110100000010000011110101100010010011110010001001000001111000110110110101110011101010111100 4
#522
b00000111100000011110000001111000000111100000011110000001111000000111100000011110000001111000000111100000011110000001111000000111100000011110000001111000000111100000011110000001111000000111100000011110000001111000000111100000011110000001111000000111100000011110000001111000000111100000011110000001111000000111100000011110 1
b00000000000000000000000000000000 3
b1010110100111111000100100101110011100000101011101101001000000110011110000000000111010000101110111101011011101101111101011101000110100010010010010111011111100110110010111111110001001001010000111101111010001011010101110001111111010101110000011101000111000011 4
#523
b11111111111111111111111111111111 3
#524
b00000111010000011101000001110100000111010000011101000001110100000111010000011101000001110100000111010000011101000001110100000111010000011101000001110100000111010000011101000001110100000111010000011101000001110100000111010000011101000001110100000111010000011101000001110100000111010000011101000001110100000111010000011101 1
b0010011110001101000111101010010001000100100000011011000100101111001111110011100011101111100111111100001100010001110000001111100011101011110111010011010111101010010001110010000001000001000101011000100001100010000011110000111001000011001000000110010100011100 4
#525
b00000111000000011100000001110000000111000000011100000001110000000111000000011100000001110000000111000000011100000001110000000111000000011100000001110000000111000000011100000001110000000111000000011100000001110000000111000000011100000001110000000111000000011100000001110000000111000000011100000001110000000111000000011100 1
b0100011001011000100000000111000111101001000000110011011101010010100101111011001101000101111010001111011111010101011101001010100110101010001111100001101100111100110010100110100110001010001000110110100101011010010101010111111011001011101101101111100101011001 4
#526
b00000110110000011011000001101100000110110000011011000001101100000110110000011011000001101100000110110000011011000001101100000110110000011011000001101100000110110000011011000001101100000110110000011011000001101100000110110000011011000001101100000110110000011011000001101100000110110000011011000001101100000110110000011011 1
b0101000000000011001010100110101010011011111011101010100111001010011010100001100000000100100000000100000100011110011110101000110000000110101100010010100101111000101000000010001101100111110110100010100100011000011000110111000011100011011010101101101111100010 4
#527
b00000110100000011010000001101000000110100000011010000001101000000110100000011010000001101000000110100000011010000001101000000110100000011010000001101000000110100000011010000001101000000110100000011010000001101000000110100000011010000001101000000110100000011010000001101000000110100000011010000001101000000110100000011010 1
b1110000001110010001101001111110111101010111000000111011110011000100110000001000000111011111011110101011010111110010011000001001010101100000101110101100101000101010010110111001101101101010100010011111000111001101001100010000111011111000011100001011000001111 4
#528
b00000110010000011001000001100100000110010000011001000001100100000110010000011001000001100100000110010000011001000001100100000110010000011001000001100100000110010000011001000001100100000110010000011001000001100100000110010000011001000001100100000110010000011001000001100100000110010000011001000001100100000110010000011001 1
b0000110000100000101000101111100100010101000100010100101111011001001010100001010100101011000010110100110001001100101000100000101110100011011010001111010011101110101001000100000010101100011000011111010111000010000100111111011000100110111011101011010110011101 4
#529
b00000110000000011000000001100000000110000000011000000001100000000110000000011000000001100000000110000000011000000001100000000110000000011000000001100000000110000000011000000001100000000110000000011000000001100000000110000000011000000001100000000110000000011000000001100000000110000000011000000001100000000110000000011000 1
b0011010010100100001100100011010100110100110111111000110010001000101010111101000000100101100010011011001011011100011010110111001101110010010110010101000000000100001011011001011101101011110010010110001100111000111110101001101000100000000101001010001111110001 4
#530
b00000101110000010111000001011100000101110000010111000001011100000101110000010111000001011100000101110000010111000001011100000101110000010111000001011100000101110000010111000001011100000101110000010111000001011100000101110000010111000001011100000101110000010111000001011100000101110000010111000001011100000101110000010111 1
b0001011111100000000100000001101110100110101111001100111111000010110111001110011110101110000100000010101101100000010011010001100011010000001011110000111111110000000011010101001101000000001001110100001011001000011110111100011111011001011110100001001111000110 4
#531
b00000101100000010110000001011000000101100000010110000001011000000101100000010110000001011000000101100000010110000001011000000101100000010110000001011000000101100000010110000001011000000101100000010110000001011000000101100000010110000001011000000101100000010110000001011000000101100000010110000001011000000101100000010110 1
b0010100000100000100010001101100110100101100101010010010001011011001010100110111100111100011111010111000011101100000000110110001110001100001110111001001000111111100101010011101101111001110010001111010010100001100010000110000000010100011100110101100000101000 4
#532
b00000101010000010101000001010100000101010000010101000001010100000101010000010101000001010100000101010000010101000001010100000101010000010101000001010100000101010000010101000001010100000101010000010101000001010100000101010000010101000001010100000101010000010101000001010100000101010000010101000001010100000101010000010101 1
b0000111110101010111110100110111000010110010111110101110001111000011101010000110010010011000011101001110001110001010010110110001110010100111000010111000110101101101010010100011101001101101011101000100011010100011000000100100001111101001111110010100011010000 4
#533
b00000101000000010100000001010000000101000000010100000001010000000101000000010100000001010000000101000000010100000001010000000101000000010100000001010000000101000000010100000001010000000101000000010100000001010000000101000000010100000001010000000101000000010100000001010000000101000000010100000001010000000101000000010100 1
b00000000000000000000000000000000 3
b1011101111001101110110100111100010100111101111000111011010010010111101001011101101100001110111001000100110111110101011101101001111100001001100111111111110010110011101010001011111011001011011110001010011110111100001011101100001010100111101100000001101110001 4
#534
b11111111111111111111111111111111 3
#535
b00000100110000010011000001001100000100110000010011000001001100000100110000010011000001001100000100110000010011000001001100000100110000010011000001001100000100110000010011000001001100000100110000010011000001001100000100110000010011000001001100000100110000010011000001001100000100110000010011000001001100000100110000010011 1
b0110001010111101101101000001001001111010101101001110001110010101100110111000101011011111101010100101000110100100011011001011000110000110000101010011000100100001000010101011010110001101110010001011100101100111010010001001000011111000000000110101001110101110 4
#536
b00000100100000010010000001001000000100100000010010000001001000000100100000010010000001001000000100100000010010000001001000000100100000010010000001001000000100100000010010000001001000000100100000010010000001001000000100100000010010000001001000000100100000010010000001001000000100100000010010000001001000000100100000010010 1
b1111011010011111001100100110100100000001011011000011001101100100011100101000011000110010100101100110110111101101000000110010101110110100100100101000101110110011010011110111010011000000101011001100001101100100010100011111100010001000001010010101011101100101 4
#537
b00000100010000010001000001000100000100010000010001000001000100000100010000010001000001000100000100010000010001000001000100000100010000010001000001000100000100010000010001000001000100000100010000010001000001000100000100010000010001000001000100000100010000010001000001000100000100010000010001000001000100000100010000010001 1
b0111000100111001000111100001010000111101101011010111101101000011110111011100011111000101101010001001000110101001110000111000001110111010111010000010110110100010000101000110110110111111001011101110001011010010001100110001010110011110011001010000110111000110 4
#538
b00000100000000010000000001000000000100000000010000000001000000000100000000010000000001000000000100000000010000000001000000000100000000010000000001000000000100000000010000000001000000000100000000010000000001000000000100000000010000000001000000000100000000010000000001000000000100000000010000000001000000000100000000010000 1
b0110000000001001110011011010100101110100111010110001111000011010011111010000100001111000110111011101001101100000010001000000101101101000100100011000011101110111011101100100100000110100101101011100001010010100010011000011101001000110011100000101100010100010 4
#539
b00000011110000001111000000111100000011110000001111000000111100000011110000001111000000111100000011110000001111000000111100000011110000001111000000111100000011110000001111000000111100000011110000001111000000111100000011110000001111000000111100000011110000001111000000111100000011110000001111000000111100000011110000001111 1
b0110000010011001111000010011101011010001010101110110011101000100101100010001101101100101000000010001111111011010111111101111100110111110101100011110100110100000010110000001100101100100000001001101001101100110000011101001010100110101001000100011011001110001 4
#540
b00000011100000001110000000111000000011100000001110000000111000000011100000001110000000111000000011100000001110000000111000000011100000001110000000111000000011100000001110000000111000000011100000001110000000111000000011100000001110000000111000000011100000001110000000111000000011100000001110000000111000000011100000001110 1
b1111101100101101000011001110011001100101100100110011111000100100111000001011010011011100011111001010011010101101101100011111000000011100101111010110101111010010000111000100101000111010111101100110111100110011001000001110001110000010111010110011001110111111 4
#541
b00000011010000001101000000110100000011010000001101000000110100000011010000001101000000110100000011010000001101000000110100000011010000001101000000110100000011010000001101000000110100000011010000001101000000110100000011010000001101000000110100000011010000001101000000110100000011010000001101000000110100000011010000001101 1
b1101010100010100110010101110001111111010011110110011101011000001101111101001000001110111101101111111101101110000011000101000010111101110101001010000111110011111000111111001100100110010011011100001000011111000011101001101101010000111100101101110101111100100 4
#542
b00000011000000001100000000110000000011000000001100000000110000000011000000001100000000110000000011000000001100000000110000000011000000001100000000110000000011000000001100000000110000000011000000001100000000110000000011000000001100000000110000000011000000001100000000110000000011000000001100000000110000000011000000001100 1
b1001000000110111101001010001111011000111101010010111011000100101110010100101100100100101110100011000000111001000110100111101101110010100010011110010000100100010111110110101001011000101100111000001011000011011110010001101010001010110001101010101010011110010 4
#543
b00000010110000001011000000101100000010110000001011000000101100000010110000001011000000101100000010110000001011000000101100000010110000001011000000101100000010110000001011000000101100000010110000001011000000101100000010110000001011000000101100000010110000001011000000101100000010110000001011000000101100000010110000001011 1
b0110001001011110000100001111100011100100100010111111100011110000011100001101100101101111010101100010010101100010100011101010011000101101011100001000110001010001011101100010001001010100001000010010111111000100100100101100101010111000110000001101100101000001 4
#544
b00000010100000001010000000101000000010100000001010000000101000000010100000001010000000101000000010100000001010000000101000000010100000001010000000101000000010100000001010000000101000000010100000001010000000101000000010100000001010000000101000000010100000001010000000101000000010100000001010000000101000000010100000001010 1
b00000000000000000000000000000000 3
b1011010101101100001011010010011010001000010011111000110100001000110001011100000011011001101001110110010010101100000111010011100101111101010001011011110000000111010111111111000111100011110010010011111011001000001000010010111000000101100101010010101100110010 4
#545
b11111111111111111111111111111111 3
#546
b00000010010000001001000000100100000010010000001001000000100100000010010000001001000000100100000010010000001001000000100100000010010000001001000000100100000010010000001001000000100100000010010000001001000000100100000010010000001001000000100100000010010000001001000000100100000010010000001001000000100100000010010000001001 1
b0100001111111111101110000011011001110110111110100110110101100101111001011010000010011100001111100111011101011111111001010111110011101110011011111010011100010100101100010100111011001001101110001110111011101000111000010001111101011111001001100001010100100111 4
#547
b00000010000000001000000000100000000010000000001000000000100000000010000000001000000000100000000010000000001000000000100000000010000000001000000000100000000010000000001000000000100000000010000000001000000000100000000010000000001000000000100000000010000000001000000000100000000010000000001000000000100000000010000000001000 1
b1011000101111101000001010110011111011011010100011001110110001101001101100111000001110110100001001101110001011111000011100110100110110010111001010111100100000100011000011000110001100010111011111000000100110001101011011100001111000010001101110100110100100010 4
#548
b00000001110000000111000000011100000001110000000111000000011100000001110000000111000000011100000001110000000111000000011100000001110000000111000000011100000001110000000111000000011100000001110000000111000000011100000001110000000111000000011100000001110000000111000000011100000001110000000111000000011100000001110000000111 1
b0111011111010000111101000010100010001011001000101100100001010010001100101111010001010101001001100100011110011100100111001010110100100001111110011011111100000100101000111011010111000010000011011111101001111000110000111101011010010010111000001110010000001100 4
#549
b00000001100000000110000000011000000001100000000110000000011000000001100000000110000000011000000001100000000110000000011000000001100000000110000000011000000001100000000110000000011000000001100000000110000000011000000001100000000110000000011000000001100000000110000000011000000001100000000110000000011000000001100000000110 1
b0000001010101011110111110001110101110011000111100001101001101011101010011011111001010101010101001100100111001010110100100101010100100000001011010110011010101000001111101000000101110111001010000000100100001010110010111100100010010101100110000001000000110000 4
#550
b00000001010000000101000000010100000001010000000101000000010100000001010000000101000000010100000001010000000101000000010100000001010000000101000000010100000001010000000101000000010100000001010000000101000000010100000001010000000101000000010100000001010000000101000000010100000001010000000101000000010100000001010000000101 1
b1010001001000010111100111010111001111101111001101100011111001001101000010110110111110000001111000110000001100000011000000110011001110111110001110001110001000101111000111010011010100011100011101101011110111000010111000011000101011101011101000100110011101011 4
#551
b00000001000000000100000000010000000001000000000100000000010000000001000000000100000000010000000001000000000100000000010000000001000000000100000000010000000001000000000100000000010000000001000000000100000000010000000001000000000100000000010000000001000000000100000000010000000001000000000100000000010000000001000000000100 1
b0011000000011001101101011101101010100010011111011111000101001001011010111101101001100111010011001110011111111001111000100110110110000101010110111011111111001111110001001000100111001110101010000111000010001110111011101001000111000101111000010000111010011010 4
#552
b00000000110000000011000000001100000000110000000011000000001100000000110000000011000000001100000000110000000011000000001100000000110000000011000000001100000000110000000011000000001100000000110000000011000000001100000000110000000011000000001100000000110000000011000000001100000000110000000011000000001100000000110000000011 1
b1000001001111110111111111111001101010000111101100010011110100111101000010000000100111101001111111101110100111110010110101101011101011000110100110101100101010110001001001010001111001111000110101100111001000111001010101000101111001011010011101010100001011110 4
#553
b00000000100000000010000000001000000000100000000010000000001000000000100000000010000000001000000000100000000010000000001000000000100000000010000000001000000000100000000010000000001000000000100000000010000000001000000000100000000010000000001000000000100000000010000000001000000000100000000010000000001000000000100000000010 1
b0101000001010010111100010000000100000001010010001110110101101101101101010001000100111100000101101010001101001101101111110011010111010110100011000101000010001111101111101001110010100110011011001000001011001111111000011000011010010100001101001011011101110100 4
#554
b00000000010000000001000000000100000000010000000001000000000100000000010000000001000000000100000000010000000001000000000100000000010000000001000000000100000000010000000001000000000100000000010000000001000000000100000000010000000001000000000100000000010000000001000000000100000000010000000001000000000100000000010000000001 1
b0010111001110010001100110001011101100001010001000011001001011011010001110101110011000111001111010010101110110101101110100111011000100001001001011111101010000010111001101101001000010010001110000100110100001101111101110111101101100000011001001010000010111000 4
#555
b00000000000000000000000000000000000000000000000000000000000000000000000000000000000000000000000000000000000000000000000000000000000000000000000000000000000000000000000000000000000000000000000000000000000000000000000000000000000000000000000000000000000000000000000000000000000000000000000000000000000000000000000000000000 1
b00000000000000000000000000000000 3
b0110011000101110001111111000101111110111001101111010110110010100110111101010001110011010000100011011111101010001011001001110011100101000001101001111010110011001110010011000000011000101010010011000100100101111001011111101100101010000001110001000110000011101 4
#1023
b00000000000000000000000000000000 0
b00000000000000000000000000000000000000000000000000000000000000000000000000000000000000000000000000000000000000000000000000000000000000000000000000000000000000000000000000000000000000000000000000000000000000000000000000000000000000000000000000000000000000000000000000000000000000000000000000000000000000000000000000000000 1
b00011101 2
b00000000000000000000000000000000 3
b0110011000101110001111111000101111110111001101111010110110010100110111101010001110011010000100011011111101010001011001001110011100101000001101001111010110011001110010011000000011000101010010011000100100101111001011111101100101010000001110001000110000011101 4
