src/rtl/controller/fifo_sharing/test/la0_waveform.vcd
#0 $dumpon
$date today $end
$timescale 1 ns $end
$scope module top $end
$var wire 32 0 controller_inst/rden_mux_ctrl/i_fc_rden $end
$var wire 32 1 controller_inst/rden_mux_ctrl/north_rden $end
$var wire 1 2 controller_inst/rden_mux_ctrl/i_sel_2 $end
$var wire 32 3 controller_inst/rden_mux_ctrl/o_north_rden $end
$var wire 16 4 controller_inst/rden_mux_ctrl/i_sa_rden $end
$var wire 1 5 controller_inst/rden_mux_ctrl/i_sel_1 $end
$var wire 10 6 controller_inst/test_signals/count1 $end
$var wire 5 7 controller_inst/test_signals/count2 $end
$var wire 1 8 controller_inst/test_signals/done $end
$var wire 5 9 controller_inst/test_signals/count3 $end
$var wire 1 a controller_inst/test_signals/i_start $end
$var wire 1 b controller_inst/test_signals/o_done $end
$var wire 1 c controller_inst/test_signals/layer_done $end
$var wire 2 d controller_inst/test_signals/state $end
$var wire 1 e controller_inst/test_signals/o_layer_done $end
$var wire 1 f controller_inst/test_signals/w_start $end
$var wire 8 10 controller_inst/north_fifo_array/i_data $end
$var wire 32 11 controller_inst/north_fifo_array/i_read_enable $end
$var wire 32 12 controller_inst/north_fifo_array/i_write_enable $end
$var wire 256 13 controller_inst/north_fifo_array/o_data $end
$var wire 320 14 controller_inst/north_fifo_array/o_occupants $end
$upscope $end
$enddefinitions $end
#0
$dumpvars
b11111111111111111111111111111111 0
b11111111111111111111111111111111 1
12
b11111111111111111111111111111111 3
b0000000000000000 4
05
b0000000011 6
b00000 7
08
b00000 9
1a
0b
0c
b01 d
0e
0f
b01010011 10
b11111111111111111111111111111111 11
b00000000000000000000000000000000 12
b0010001000110001010000110111010100000011100000111110000011001011010000001011100010010011001100111101011101100001000001111000110100010001110011010111011100010001011010001100011011010001000000011101010011010110101110001110010010011001011001000111101111111011 13
b00101100110010110011001011001100101100110010110011001011001100101100110010110011001011001100101100110010110011001011001100101100110010110011001011001100101100110010110011001011001100101100110010110011001011001100101100110010110011001011001100101100110010110011001011001100101100110010110011001011001100101100110010110011 14
$end
#1
b0000000100 6
b0100111110011100110011110000001010000100101110001110011000111101011011110010111100000100010010010110001100111000100101111101001011101011110110111111100100001011100111010111110011010000111110110000111111100100000111100110001100010101011101001010001011110011 13
b00101100100010110010001011001000101100100010110010001011001000101100100010110010001011001000101100100010110010001011001000101100100010110010001011001000101100100010110010001011001000101100100010110010001011001000101100100010110010001011001000101100100010110010001011001000101100100010110010001011001000101100100010110010 14
#2
b0000000101 6
b0000111100000011110011001110001001100111010110001101100100001111110010010000110110001101110100101001001001100111101100101000010111110111110110110100110111011101000001110111100110011111001010100001100100111001001010110011010100100011111011100111100011100110 13
b00101100010010110001001011000100101100010010110001001011000100101100010010110001001011000100101100010010110001001011000100101100010010110001001011000100101100010010110001001011000100101100010010110001001011000100101100010010110001001011000100101100010010110001001011000100101100010010110001001011000100101100010010110001 14
#3
b0000000110 6
b0110110100111011111011110110011001011111011111100011011101100110100111000100101000111011000010000000000000100001101001000011110101111110001001001100111010111111100011000110101011010111110001100101111100000011011110110010101110100001010000011000110111111100 13
b00101100000010110000001011000000101100000010110000001011000000101100000010110000001011000000101100000010110000001011000000101100000010110000001011000000101100000010110000001011000000101100000010110000001011000000101100000010110000001011000000101100000010110000001011000000101100000010110000001011000000101100000010110000 14
#4
b0000000111 6
b0000000111111010010011010000111110111100101110000111100000001000101101111011010001100101000010101100011000001101001101100111010011100001011110110011100001100100010100011010110011111001111101000000011011100110010000000101011110101110001011010111010011011000 13
b00101011110010101111001010111100101011110010101111001010111100101011110010101111001010111100101011110010101111001010111100101011110010101111001010111100101011110010101111001010111100101011110010101111001010111100101011110010101111001010111100101011110010101111001010111100101011110010101111001010111100101011110010101111 14
#5
b0000001000 6
b1100000101010111110101101100111011110110001011010111101100001111001011111101011100010100001000010101100110111000101001100000001111001010101000101010010000101110001000111010010100101101110110000100000001110000111011010111100001111010000111001100011111011000 13
b00101011100010101110001010111000101011100010101110001010111000101011100010101110001010111000101011100010101110001010111000101011100010101110001010111000101011100010101110001010111000101011100010101110001010111000101011100010101110001010111000101011100010101110001010111000101011100010101110001010111000101011100010101110 14
#6
b0000001001 6
b1001101101010001010000000110010001100001111110111011110001110010101000010101001011000010011100011000001101101101000101110110101100000100011000111110100000100100110000011001001101110100100010100000110011011001000111010111111010000011110100110110111110101001 13
b00101011010010101101001010110100101011010010101101001010110100101011010010101101001010110100101011010010101101001010110100101011010010101101001010110100101011010010101101001010110100101011010010101101001010110100101011010010101101001010110100101011010010101101001010110100101011010010101101001010110100101011010010101101 14
#7
b0000001010 6
b1011100000100101011000111001101100101101000101011110110011111100100001110101001110110001101100000000010101101100001001010100111000111100100011010001011011011100010100110100111110011110010110000010101011101100100001010111000011111000010110000110000000001000 13
b00101011000010101100001010110000101011000010101100001010110000101011000010101100001010110000101011000010101100001010110000101011000010101100001010110000101011000010101100001010110000101011000010101100001010110000101011000010101100001010110000101011000010101100001010110000101011000010101100001010110000101011000010101100 14
#8
b00000000000000000000000000000000 0
b0000001011 6
b0110100111110100100010011001001000000000100011010100000111101110111110000100011100001000100110110101001101101010111111110001010100011010100100001110001101000010100101100010111101011001111010110100000010000011110101100010010011110010001001000001111000110110 13
b00101010110010101011001010101100101010110010101011001010101100101010110010101011001010101100101010110010101011001010101100101010110010101011001010101100101010110010101011001010101100101010110010101011001010101100101010110010101011001010101100101010110010101011001010101100101010110010101011001010101100101010110010101011 14
#9
b11111111111111111111111111111111 0
b00000000000000000000000000000000 1
b00000000000000000000000000000000 3
b0000001100 6
b00000000000000000000000000000000 11
b1010110100111111000100100101110011100000101011101101001000000110011110000000000111010000101110111101011011101101111101011101000110100010010010010111011111100110110010111111110001001001010000111101111010001011010101110001111111010101110000011101000111000011 13
b00101010100010101010001010101000101010100010101010001010101000101010100010101010001010101000101010100010101010001010101000101010100010101010001010101000101010100010101010001010101000101010100010101010001010101000101010100010101010001010101000101010100010101010001010101000101010100010101010001010101000101010100010101010 14
#10
b11111111111111111111111111111111 1
b11111111111111111111111111111111 3
b0000001101 6
b11111111111111111111111111111111 11
#11
b0000001110 6
b0010011110001101000111101010010001000100100000011011000100101111001111110011100011101111100111111100001100010001110000001111100011101011110111010011010111101010010001110010000001000001000101011000100001100010000011110000111001000011001000000110010100011100 13
b00101010010010101001001010100100101010010010101001001010100100101010010010101001001010100100101010010010101001001010100100101010010010101001001010100100101010010010101001001010100100101010010010101001001010100100101010010010101001001010100100101010010010101001001010100100101010010010101001001010100100101010010010101001 14
#12
b0000001111 6
b0100011001011000100000000111000111101001000000110011011101010010100101111011001101000101111010001111011111010101011101001010100110101010001111100001101100111100110010100110100110001010001000110110100101011010010101010111111011001011101101101111100101011001 13
b00101010000010101000001010100000101010000010101000001010100000101010000010101000001010100000101010000010101000001010100000101010000010101000001010100000101010000010101000001010100000101010000010101000001010100000101010000010101000001010100000101010000010101000001010100000101010000010101000001010100000101010000010101000 14
#13
b0000010000 6
b0101000000000011001010100110101010011011111011101010100111001010011010100001100000000100100000000100000100011110011110101000110000000110101100010010100101111000101000000010001101100111110110100010100100011000011000110111000011100011011010101101101111100010 13
b00101001110010100111001010011100101001110010100111001010011100101001110010100111001010011100101001110010100111001010011100101001110010100111001010011100101001110010100111001010011100101001110010100111001010011100101001110010100111001010011100101001110010100111001010011100101001110010100111001010011100101001110010100111 14
#14
b0000010001 6
b1110000001110010001101001111110111101010111000000111011110011000100110000001000000111011111011110101011010111110010011000001001010101100000101110101100101000101010010110111001101101101010100010011111000111001101001100010000111011111000011100001011000001111 13
b00101001100010100110001010011000101001100010100110001010011000101001100010100110001010011000101001100010100110001010011000101001100010100110001010011000101001100010100110001010011000101001100010100110001010011000101001100010100110001010011000101001100010100110001010011000101001100010100110001010011000101001100010100110 14
#15
b0000010010 6
b0000110000100000101000101111100100010101000100010100101111011001001010100001010100101011000010110100110001001100101000100000101110100011011010001111010011101110101001000100000010101100011000011111010111000010000100111111011000100110111011101011010110011101 13
b00101001010010100101001010010100101001010010100101001010010100101001010010100101001010010100101001010010100101001010010100101001010010100101001010010100101001010010100101001010010100101001010010100101001010010100101001010010100101001010010100101001010010100101001010010100101001010010100101001010010100101001010010100101 14
#16
b0000010011 6
b0011010010100100001100100011010100110100110111111000110010001000101010111101000000100101100010011011001011011100011010110111001101110010010110010101000000000100001011011001011101101011110010010110001100111000111110101001101000100000000101001010001111110001 13
b00101001000010100100001010010000101001000010100100001010010000101001000010100100001010010000101001000010100100001010010000101001000010100100001010010000101001000010100100001010010000101001000010100100001010010000101001000010100100001010010000101001000010100100001010010000101001000010100100001010010000101001000010100100 14
#17
b0000010100 6
b0001011111100000000100000001101110100110101111001100111111000010110111001110011110101110000100000010101101100000010011010001100011010000001011110000111111110000000011010101001101000000001001110100001011001000011110111100011111011001011110100001001111000110 13
b00101000110010100011001010001100101000110010100011001010001100101000110010100011001010001100101000110010100011001010001100101000110010100011001010001100101000110010100011001010001100101000110010100011001010001100101000110010100011001010001100101000110010100011001010001100101000110010100011001010001100101000110010100011 14
#18
b0000010101 6
b0010100000100000100010001101100110100101100101010010010001011011001010100110111100111100011111010111000011101100000000110110001110001100001110111001001000111111100101010011101101111001110010001111010010100001100010000110000000010100011100110101100000101000 13
b00101000100010100010001010001000101000100010100010001010001000101000100010100010001010001000101000100010100010001010001000101000100010100010001010001000101000100010100010001010001000101000100010100010001010001000101000100010100010001010001000101000100010100010001010001000101000100010100010001010001000101000100010100010 14
#19
b00000000000000000000000000000000 0
b0000010110 6
b0000111110101010111110100110111000010110010111110101110001111000011101010000110010010011000011101001110001110001010010110110001110010100001010110110001110010100111000010111000110101101101010010100011101001101101011101000100011010100011000000100100001111101 13
b00101000010010100001001010000100101000010010100001001010000100101000010010100001001010000100101000010010100001001010000100101000010010100001001010000100101000010010100001001010000100101000010010100001001010000100101000010010100001001010000100101000010010100001001010000100101000010010100001001010000100101000010010100001 14
#20
b11111111111111111111111111111111 0
b00000000000000000000000000000000 1
b00000000000000000000000000000000 3
b0000010111 6
b00000000000000000000000000000000 11
b1011101111001101110110100111100010100111101111000111011010010010111101001011101101100001110111001000100110111110101011101101001111100001001100111111111110010110011101010001011111011001011011110001010011110111100001011101100001010100111101100000001101110001 13
b00101000000010100000001010000000101000000010100000001010000000101000000010100000001010000000101000000010100000001010000000101000000010100000001010000000101000000010100000001010000000101000000010100000001010000000101000000010100000001010000000101000000010100000001010000000101000000010100000001010000000101000000010100000 14
#21
b11111111111111111111111111111111 1
b11111111111111111111111111111111 3
b0000011000 6
b11111111111111111111111111111111 11
#22
b0000011001 6
b0110001010111101101101000001001001111010101101001110001110010101100110111000101011011111101010100101000110100100011011001011000110000110000101010011000100100001000010101011010110001101110010001011100101100111010010001001000011111000000000110101001110101110 13
b00100111110010011111001001111100100111110010011111001001111100100111110010011111001001111100100111110010011111001001111100100111110010011111001001111100100111110010011111001001111100100111110010011111001001111100100111110010011111001001111100100111110010011111001001111100100111110010011111001001111100100111110010011111 14
#23
b0000011010 6
b1111011010011111001100100110100100000001011011000011001101100100011100101000011000110010100101100110110111101101000000110010101110110100100100101000101110110011010011110111010011000000101011001100001101100100010100011111100010001000001010010101011101100101 13
b00100111100010011110001001111000100111100010011110001001111000100111100010011110001001111000100111100010011110001001111000100111100010011110001001111000100111100010011110001001111000100111100010011110001001111000100111100010011110001001111000100111100010011110001001111000100111100010011110001001111000100111100010011110 14
#24
b0000011011 6
b0111000100111001000111100001010000111101101011010111101101000011110111011100011111000101101010001001000110101001110000111000001110111010111010000010110110100010000101000110110110111111001011101110001011010010001100110001010110011110011001010000110111000110 13
b00100111010010011101001001110100100111010010011101001001110100100111010010011101001001110100100111010010011101001001110100100111010010011101001001110100100111010010011101001001110100100111010010011101001001110100100111010010011101001001110100100111010010011101001001110100100111010010011101001001110100100111010010011101 14
#25
b0000011100 6
b0110000000001001110011011010100101110100111010110001111000011010011111010000100001111000110111011101001101100000010001000000101101101000100100011000011101110111011101100100100000110100101101011100001010010100010011000011101001000110011100000101100010100010 13
b00100111000010011100001001110000100111000010011100001001110000100111000010011100001001110000100111000010011100001001110000100111000010011100001001110000100111000010011100001001110000100111000010011100001001110000100111000010011100001001110000100111000010011100001001110000100111000010011100001001110000100111000010011100 14
#26
b0000011101 6
b0110000010011001111000010011101011010001010101110110011101000100101100010001101101100101000000010001111111011010111111101111100110111110101100011110100110100000010110000001100101100100000001001101001101100110000011101001010100110101001000100011011001110001 13
b00100110110010011011001001101100100110110010011011001001101100100110110010011011001001101100100110110010011011001001101100100110110010011011001001101100100110110010011011001001101100100110110010011011001001101100100110110010011011001001101100100110110010011011001001101100100110110010011011001001101100100110110010011011 14
#27
b0000011110 6
b1111101100101101000011001110011001100101100100110011111000100100111000001011010011011100011111001010011010101101101100011111000000011100101111010110101111010010000111000100101000111010111101100110111100110011001000001110001110000010111010110011001110111111 13
b00100110100010011010001001101000100110100010011010001001101000100110100010011010001001101000100110100010011010001001101000100110100010011010001001101000100110100010011010001001101000100110100010011010001001101000100110100010011010001001101000100110100010011010001001101000100110100010011010001001101000100110100010011010 14
#28
b0000000000 6
b00001 7
18
1b
b1101010100010100110010101110001111111010011110110011101011000001101111101001000001110111101101111111101101110000011000101000010111101110101001010000111110011111000111111001100100110010011011100001000011111000011101001101101010000111100101101110101111100100 13
b00100110010010011001001001100100100110010010011001001001100100100110010010011001001001100100100110010010011001001001100100100110010010011001001001100100100110010010011001001001100100100110010010011001001001100100100110010010011001001001100100100110010010011001001001100100100110010010011001001001100100100110010010011001 14
#29
b0000000001 6
08
0b
b1001000000110111101001010001111011000111101010010111011000100101110010100101100100100101110100011000000111001000110100111101101110010100010011110010000100100010111110110101001011000101100111000001011000011011110010001101010001010110001101010101010011110010 13
b00100110000010011000001001100000100110000010011000001001100000100110000010011000001001100000100110000010011000001001100000100110000010011000001001100000100110000010011000001001100000100110000010011000001001100000100110000010011000001001100000100110000010011000001001100000100110000010011000001001100000100110000010011000 14
#30
b00000000000000000000000000000000 0
b0000000010 6
b0110001001011110000100001111100011100100100010111111100011110000011100001101100101101111010101100010010101100010100011101010011000101000111101000101000100101101011100001000110001010001011101100010001001010100001000010010111111000100100100101100101010111000 13
b00100101110010010111001001011100100101110010010111001001011100100101110010010111001001011100100101110010010111001001011100100101110010010111001001011100100101110010010111001001011100100101110010010111001001011100100101110010010111001001011100100101110010010111001001011100100101110010010111001001011100100101110010010111 14
#31
b11111111111111111111111111111111 0
b00000000000000000000000000000000 1
b00000000000000000000000000000000 3
b0000000011 6
b00000000000000000000000000000000 11
b1011010101101100001011010010011010001000010011111000110100001000110001011100000011011001101001110110010010101100000111010011100101111101010001011011110000000111010111111111000111100011110010010011111011001000001000010010111000000101100101010010101100110010 13
b00100101100010010110001001011000100101100010010110001001011000100101100010010110001001011000100101100010010110001001011000100101100010010110001001011000100101100010010110001001011000100101100010010110001001011000100101100010010110001001011000100101100010010110001001011000100101100010010110001001011000100101100010010110 14
#32
b11111111111111111111111111111111 1
b11111111111111111111111111111111 3
b0000000100 6
b11111111111111111111111111111111 11
#33
b0000000101 6
b0100001111111111101110000011011001110110111110100110110101100101111001011010000010011100001111100111011101011111111001010111110011101110011011111010011100010100101100010100111011001001101110001110111011101000111000010001111101011111001001100001010100100111 13
b00100101010010010101001001010100100101010010010101001001010100100101010010010101001001010100100101010010010101001001010100100101010010010101001001010100100101010010010101001001010100100101010010010101001001010100100101010010010101001001010100100101010010010101001001010100100101010010010101001001010100100101010010010101 14
#34
b0000000110 6
b1011000101111101000001010110011111011011010100011001110110001101001101100111000001110110100001001101110001011111000011100110100110110010111001010111100100000100011000011000110001100010111011111000000100110001101011011100001111000010001101110100110100100010 13
b00100101000010010100001001010000100101000010010100001001010000100101000010010100001001010000100101000010010100001001010000100101000010010100001001010000100101000010010100001001010000100101000010010100001001010000100101000010010100001001010000100101000010010100001001010000100101000010010100001001010000100101000010010100 14
#35
b0000000111 6
b0111011111010000111101000010100010001011001000101100100001010010001100101111010001010101001001100100011110011100100111001010110100100001111110011011111100000100101000111011010111000010000011011111101001111000110000111101011010010010111000001110010000001100 13
b00100100110010010011001001001100100100110010010011001001001100100100110010010011001001001100100100110010010011001001001100100100110010010011001001001100100100110010010011001001001100100100110010010011001001001100100100110010010011001001001100100100110010010011001001001100100100110010010011001001001100100100110010010011 14
#36
b0000001000 6
b0000001010101011110111110001110101110011000111100001101001101011101010011011111001010101010101001100100111001010110100100101010100100000001011010110011010101000001111101000000101110111001010000000100100001010110010111100100010010101100110000001000000110000 13
b00100100100010010010001001001000100100100010010010001001001000100100100010010010001001001000100100100010010010001001001000100100100010010010001001001000100100100010010010001001001000100100100010010010001001001000100100100010010010001001001000100100100010010010001001001000100100100010010010001001001000100100100010010010 14
#37
b0000001001 6
b1010001001000010111100111010111001111101111001101100011111001001101000010110110111110000001111000110000001100000011000000110011001110111110001110001110001000101111000111010011010100011100011101101011110111000010111000011000101011101011101000100110011101011 13
b00100100010010010001001001000100100100010010010001001001000100100100010010010001001001000100100100010010010001001001000100100100010010010001001001000100100100010010010001001001000100100100010010010001001001000100100100010010010001001001000100100100010010010001001001000100100100010010010001001001000100100100010010010001 14
#38
b0000001010 6
b0011000000011001101101011101101010100010011111011111000101001001011010111101101001100111010011001110011111111001111000100110110110000101010110111011111111001111110001001000100111001110101010000111000010001110111011101001000111000101111000010000111010011010 13
b00100100000010010000001001000000100100000010010000001001000000100100000010010000001001000000100100000010010000001001000000100100000010010000001001000000100100000010010000001001000000100100000010010000001001000000100100000010010000001001000000100100000010010000001001000000100100000010010000001001000000100100000010010000 14
#39
b0000001011 6
b1000001001111110111111111111001101010000111101100010011110100111101000010000000100111101001111111101110100111110010110101101011101011000110100110101100101010110001001001010001111001111000110101100111001000111001010101000101111001011010011101010100001011110 13
b00100011110010001111001000111100100011110010001111001000111100100011110010001111001000111100100011110010001111001000111100100011110010001111001000111100100011110010001111001000111100100011110010001111001000111100100011110010001111001000111100100011110010001111001000111100100011110010001111001000111100100011110010001111 14
#40
b0000001100 6
b0101000001010010111100010000000100000001010010001110110101101101101101010001000100111100000101101010001101001101101111110011010111010110100011000101000010001111101111101001110010100110011011001000001011001111111000011000011010010100001101001011011101110100 13
b00100011100010001110001000111000100011100010001110001000111000100011100010001110001000111000100011100010001110001000111000100011100010001110001000111000100011100010001110001000111000100011100010001110001000111000100011100010001110001000111000100011100010001110001000111000100011100010001110001000111000100011100010001110 14
#41
b00000000000000000000000000000000 0
b0000001101 6
b0010111001110010001100110001011101100001010001000011001001011011010001110101110011000111001111010010101110110101101110100111011000100001001001011111101010000010111001101101001000010010001110000100110100001101111101110111101101100000011001001010000010111000 13
b00100011010010001101001000110100100011010010001101001000110100100011010010001101001000110100100011010010001101001000110100100011010010001101001000110100100011010010001101001000110100100011010010001101001000110100100011010010001101001000110100100011010010001101001000110100100011010010001101001000110100100011010010001101 14
#42
b11111111111111111111111111111111 0
b00000000000000000000000000000000 1
b00000000000000000000000000000000 3
b0000001110 6
b00000000000000000000000000000000 11
b0110011000101110001111111000101111110111001101111010110110010100110111101010001110011010000100011011111101010001011001001110011100101000001101001111010110011001110010011000000011000101010010011000100100101111001011111101100101010000001110001000110000011101 13
b00100011000010001100001000110000100011000010001100001000110000100011000010001100001000110000100011000010001100001000110000100011000010001100001000110000100011000010001100001000110000100011000010001100001000110000100011000010001100001000110000100011000010001100001000110000100011000010001100001000110000100011000010001100 14
#43
b11111111111111111111111111111111 1
b11111111111111111111111111111111 3
b0000001111 6
b11111111111111111111111111111111 11
#44
b0000010000 6
b0011000000001110011110111110010001100111101010100011100000111000110111000111100010100100111000110111110101001110110111111010000101110000110010101001011111100111010000101111000100110011011111001001110001111100100011100110111010010101101110110111000111001011 13
b00100010110010001011001000101100100010110010001011001000101100100010110010001011001000101100100010110010001011001000101100100010110010001011001000101100100010110010001011001000101100100010110010001011001000101100100010110010001011001000101100100010110010001011001000101100100010110010001011001000101100100010110010001011 14
#45
b0000010001 6
b0000000001101111101011110111000110101101000000000010000110111011100010111011110010100100101011101110001110010111101010101010100110111111011010001000001000111011111011011010010111010000001011110011011111011011101000000010111010001100001100101100010001111110 13
b00100010100010001010001000101000100010100010001010001000101000100010100010001010001000101000100010100010001010001000101000100010100010001010001000101000100010100010001010001000101000100010100010001010001000101000100010100010001010001000101000100010100010001010001000101000100010100010001010001000101000100010100010001010 14
#46
b0000010010 6
b1010100110101010110001110110001000010111110100110001100110001110111100011011101000110100000101001011100001011001001100110000000000001101011000100110001000110010000010101100100011011110110100010111101110110001110101001100000011110101110100100001011001000101 13
b00100010010010001001001000100100100010010010001001001000100100100010010010001001001000100100100010010010001001001000100100100010010010001001001000100100100010010010001001001000100100100010010010001001001000100100100010010010001001001000100100100010010010001001001000100100100010010010001001001000100100100010010010001001 14
#47
b0000010011 6
b0111010111101101100110110101000011101101001010111110011010100101110001010100000110011010000100000000100101100000010001101000101101110101111011011100111101111001000101100000010111011011111010111000110001101000110111110000110110010000010110111000011100011111 13
b00100010000010001000001000100000100010000010001000001000100000100010000010001000001000100000100010000010001000001000100000100010000010001000001000100000100010000010001000001000100000100010000010001000001000100000100010000010001000001000100000100010000010001000001000100000100010000010001000001000100000100010000010001000 14
#48
b0000010100 6
b1101010101000001001010110101111010011110110011010100011001100111110010111000100110100111010010001000000100110001100100010110101111011011111100011000010110101011010000101100010100111101101110101011111110101110011100100111001010011011111011001101000110100110 13
b00100001110010000111001000011100100001110010000111001000011100100001110010000111001000011100100001110010000111001000011100100001110010000111001000011100100001110010000111001000011100100001110010000111001000011100100001110010000111001000011100100001110010000111001000011100100001110010000111001000011100100001110010000111 14
#49
b0000010101 6
b0110011011100011011001100111001111111000100100010100001001000011000010011100111000110001100011100011010010110110111101111101010010000010011000111000010111001100000010111011001010000001011011000001011000011110011101100010011010100001000010011101011011100110 13
b00100001100010000110001000011000100001100010000110001000011000100001100010000110001000011000100001100010000110001000011000100001100010000110001000011000100001100010000110001000011000100001100010000110001000011000100001100010000110001000011000100001100010000110001000011000100001100010000110001000011000100001100010000110 14
#50
b0000010110 6
b1101000010001110001000110110101110001101110110110001001010101101001001111101110001110010100001110100001010001100100110011001100100100111110101111100010000011111011101111001000000101010100111110000101100111110011000111000111011111001001010100110111100100000 13
b00100001010010000101001000010100100001010010000101001000010100100001010010000101001000010100100001010010000101001000010100100001010010000101001000010100100001010010000101001000010100100001010010000101001000010100100001010010000101001000010100100001010010000101001000010100100001010010000101001000010100100001010010000101 14
#51
b0000010111 6
b0110101001011011111010100100001101100011001111110100010011111001001110100001010011101101110010011100111010110111010010010011001111010110101011011101110111110101011001100110010010101101100110100000011001101001110010010110101000111110001100000011100110010111 13
b00100001000010000100001000010000100001000010000100001000010000100001000010000100001000010000100001000010000100001000010000100001000010000100001000010000100001000010000100001000010000100001000010000100001000010000100001000010000100001000010000100001000010000100001000010000100001000010000100001000010000100001000010000100 14
#52
b00000000000000000000000000000000 0
b0000011000 6
b0001001001101010110101101000001100111001100001110001110000111001100110101000010001101100000000001101011011110111100000111101111110100100011101001100101110010011100001001010010111010001110010010010100110010001011000011101001110011010100111001010001001100001 13
b00100000110010000011001000001100100000110010000011001000001100100000110010000011001000001100100000110010000011001000001100100000110010000011001000001100100000110010000011001000001100100000110010000011001000001100100000110010000011001000001100100000110010000011001000001100100000110010000011001000001100100000110010000011 14
#53
b11111111111111111111111111111111 0
b00000000000000000000000000000000 1
b00000000000000000000000000000000 3
b0000011001 6
b00000000000000000000000000000000 11
b0111001000001011001110111000100000011100110100010101101110001000000101111101000001011100100101111101001110011000001010011000010011101101001101111001001000101100011101010100111111010101110100010010010000100001001111100111111000110111111010001000100011100000 13
b00100000100010000010001000001000100000100010000010001000001000100000100010000010001000001000100000100010000010001000001000100000100010000010001000001000100000100010000010001000001000100000100010000010001000001000100000100010000010001000001000100000100010000010001000001000100000100010000010001000001000100000100010000010 14
#54
b11111111111111111111111111111111 1
b11111111111111111111111111111111 3
b0000011010 6
b11111111111111111111111111111111 11
#55
b0000011011 6
b0011011100000100010010100100101001111000001001001011010100000110111110110010011010010110101101101100001000100111010100000101101000000001100000110000010010100010000100111011100100100100111111001000110110011001011001101110110000111000110100011010011100010100 13
b00100000010010000001001000000100100000010010000001001000000100100000010010000001001000000100100000010010000001001000000100100000010010000001001000000100100000010010000001001000000100100000010010000001001000000100100000010010000001001000000100100000010010000001001000000100100000010010000001001000000100100000010010000001 14
#56
b0000011100 6
b0001111001000011001010010011101110100111011011010100010001001110011111000001100000010010110010010010011000101110111111111110001000111001111111011111111111011110111111011100100100011101110100011010111100001000110010001000010001011101111011011110100011011111 13
b00100000000010000000001000000000100000000010000000001000000000100000000010000000001000000000100000000010000000001000000000100000000010000000001000000000100000000010000000001000000000100000000010000000001000000000100000000010000000001000000000100000000010000000001000000000100000000010000000001000000000100000000010000000 14
#57
b0000011101 6
b0011101111001101110111010101101001010000000100110100111100011010001010000100110010111010110011111000011100111100100101011100111111110010011111011001101100010000001000001110010111111111011100111100000111011100110001111001011100111100101000101111101011100000 13
b00011111110001111111000111111100011111110001111111000111111100011111110001111111000111111100011111110001111111000111111100011111110001111111000111111100011111110001111111000111111100011111110001111111000111111100011111110001111111000111111100011111110001111111000111111100011111110001111111000111111100011111110001111111 14
#58
b0000011110 6
b0111000001101111011001110100101011101011110111000010101011110000011000011100010111111010100001110010001011101000010100101100101000011011100110101100010010001110000000111001000110111111000101000100001101011000111010000011100001010100101111001001010111000011 13
b00011111100001111110000111111000011111100001111110000111111000011111100001111110000111111000011111100001111110000111111000011111100001111110000111111000011111100001111110000111111000011111100001111110000111111000011111100001111110000111111000011111100001111110000111111000011111100001111110000111111000011111100001111110 14
#59
b0000000000 6
b00010 7
18
1b
b1110110000111010011110101000011100111000000011010010000000110000111111110011110000001011111110111001011101011110100100000010011000100001010011101010011000110110110001111010001110011011011000001010001011011100100000101111101110001110011000111011010000011001 13
b00011111010001111101000111110100011111010001111101000111110100011111010001111101000111110100011111010001111101000111110100011111010001111101000111110100011111010001111101000111110100011111010001111101000111110100011111010001111101000111110100011111010001111101000111110100011111010001111101000111110100011111010001111101 14
#60
b0000000001 6
08
0b
b0011001111100011100011110100110111110011110010011010011101011111011010111000001100000011000011001001111011011011101011000110111000011010011010011101011100011010001001100100011001110110101011010010011110011110111000000100001000010111000101000011100011011101 13
b00011111000001111100000111110000011111000001111100000111110000011111000001111100000111110000011111000001111100000111110000011111000001111100000111110000011111000001111100000111110000011111000001111100000111110000011111000001111100000111110000011111000001111100000111110000011111000001111100000111110000011111000001111100 14
#61
b0000000010 6
b0010101000111010011101011000001011011011000111001110110110111111111000010011010101000101011011010001010011111001011001011100110101001111001001001101011000011110011011000011000111010011101011100000101101100001100010010100110100000100010110011010101001011011 13
b00011110110001111011000111101100011110110001111011000111101100011110110001111011000111101100011110110001111011000111101100011110110001111011000111101100011110110001111011000111101100011110110001111011000111101100011110110001111011000111101100011110110001111011000111101100011110110001111011000111101100011110110001111011 14
#62
b0000000011 6
b1101111011010101100011111000001111000101000001101101001010000000001110111110000110111001000100000011111111001110100101000111101011000000111100100010110110110100000100011001110000011101000011101111101111001101110011111100010100000011101001111101110111001000 13
b00011110100001111010000111101000011110100001111010000111101000011110100001111010000111101000011110100001111010000111101000011110100001111010000111101000011110100001111010000111101000011110100001111010000111101000011110100001111010000111101000011110100001111010000111101000011110100001111010000111101000011110100001111010 14
#63
b00000000000000000000000000000000 0
b0000000100 6
b1011001111010100000100011110000100100000011000000110001010111100010000001110000101001000011110100100100000010101000000100110000101100001111110000111110100111010101111000001101000011001111010100111001100001011010000110011001011100011001000001010101011000000 13
b00011110010001111001000111100100011110010001111001000111100100011110010001111001000111100100011110010001111001000111100100011110010001111001000111100100011110010001111001000111100100011110010001111001000111100100011110010001111001000111100100011110010001111001000111100100011110010001111001000111100100011110010001111001 14
#64
b11111111111111111111111111111111 0
b00000000000000000000000000000000 1
b00000000000000000000000000000000 3
b0000000101 6
b00000000000000000000000000000000 11
b1110110001001100111010111110101001000011011001001101100101111001010000010011100001010101101100011000111101001110110010110111110001000110000110111001010000100011100100001101111111111101101111010010111100100100110011111111001111111001001000011100001000000000 13
b00011110000001111000000111100000011110000001111000000111100000011110000001111000000111100000011110000001111000000111100000011110000001111000000111100000011110000001111000000111100000011110000001111000000111100000011110000001111000000111100000011110000001111000000111100000011110000001111000000111100000011110000001111000 14
#65
b11111111111111111111111111111111 1
b11111111111111111111111111111111 3
b0000000110 6
b11111111111111111111111111111111 11
#66
b0000000111 6
b0100000100001101010111001101010101100100110011001001010100110010000010110100111010110010110010010001000011010011011000111100001100110111100010000110111110010111101100101000111010100111011101110110001101110000010110101001111010101110110111001000101001100110 13
b00011101110001110111000111011100011101110001110111000111011100011101110001110111000111011100011101110001110111000111011100011101110001110111000111011100011101110001110111000111011100011101110001110111000111011100011101110001110111000111011100011101110001110111000111011100011101110001110111000111011100011101110001110111 14
#67
b0000001000 6
b0010101010100101000111111100110010011010101001000000011000000110101010001111110001001110101011010011100001010101011011000000000100100100001100011111100011100000110100001100010111001010111100001001001000011010100101100011001000100111000011110001001110000010 13
b00011101100001110110000111011000011101100001110110000111011000011101100001110110000111011000011101100001110110000111011000011101100001110110000111011000011101100001110110000111011000011101100001110110000111011000011101100001110110000111011000011101100001110110000111011000011101100001110110000111011000011101100001110110 14
