src/rtl/controller/fifo_sharing/test/la0_waveform.vcd
#0 $dumpon
$date today $end
$timescale 1 ns $end
$scope module top $end
$var wire 64 0 ff_sharing_controller/weight_fifo_array/i_read_enable $end
$var wire 8 1 ff_sharing_controller/weight_fifo_array/i_data $end
$var wire 512 2 ff_sharing_controller/weight_fifo_array/o_data $end
$var wire 64 3 ff_sharing_controller/weight_fifo_array/i_write_enable $end
$var wire 64 4 ff_sharing_controller/sa_rden_ctrl/o_weight_ff_read_en $end
$var wire 1 5 ff_sharing_controller/sa_rden_ctrl/i_layer_done $end
$var wire 1 6 ff_sharing_controller/sa_rden_ctrl/i_start $end
$var wire 1 7 ff_sharing_controller/sa_rden_ctrl/i_done $end
$var wire 640 8 ff_sharing_controller/sa_rden_ctrl/i_weight_ff_occupants $end
$var wire 8 9 ff_sharing_controller/sa_rden_ctrl/o_sel $end
$var wire 64 a ff_sharing_controller/sa_rden_ctrl/i_weight_ff_empty $end
$var wire 1 b ff_sharing_controller/test_counters/o_layer_done $end
$var wire 5 c ff_sharing_controller/test_counters/count2 $end
$var wire 1 d ff_sharing_controller/test_counters/o_done $end
$var wire 2 e ff_sharing_controller/test_counters/state $end
$var wire 5 f ff_sharing_controller/test_counters/count3 $end
$var wire 1 10 ff_sharing_controller/test_counters/w_start $end
$var wire 1 11 ff_sharing_controller/test_counters/done $end
$var wire 1 12 ff_sharing_controller/test_counters/i_start $end
$var wire 1 13 ff_sharing_controller/test_counters/layer_done $end
$var wire 10 14 ff_sharing_controller/test_counters/count1 $end
$var wire 32 15 ff_sharing_controller/sa_fc_rden_mux/i_sa_rden $end
$var wire 1 16 ff_sharing_controller/sa_fc_rden_mux/i_sel_2 $end
$var wire 64 17 ff_sharing_controller/sa_fc_rden_mux/north_rden $end
$var wire 1 18 ff_sharing_controller/sa_fc_rden_mux/i_sel_1 $end
$var wire 64 19 ff_sharing_controller/sa_fc_rden_mux/i_fc_rden $end
$var wire 64 1a ff_sharing_controller/sa_fc_rden_mux/o_north_rden $end
$var wire 80 1b ff_sharing_controller/sa_rden_ctrl/genblk1[0].weight_fifo_array_rden_controller/i_fifo_occupants $end
$var wire 1 1c ff_sharing_controller/sa_rden_ctrl/genblk1[0].weight_fifo_array_rden_controller/o_sel $end
$var wire 3 1d ff_sharing_controller/sa_rden_ctrl/genblk1[0].weight_fifo_array_rden_controller/state $end
$var wire 1 1e ff_sharing_controller/sa_rden_ctrl/genblk1[0].weight_fifo_array_rden_controller/w_start $end
$var wire 8 1f ff_sharing_controller/sa_rden_ctrl/genblk1[0].weight_fifo_array_rden_controller/i_fifo_empty $end
$var wire 1 20 ff_sharing_controller/sa_rden_ctrl/genblk1[0].weight_fifo_array_rden_controller/sel $end
$var wire 5 21 ff_sharing_controller/sa_rden_ctrl/genblk1[0].weight_fifo_array_rden_controller/counter $end
$var wire 8 22 ff_sharing_controller/sa_rden_ctrl/genblk1[0].weight_fifo_array_rden_controller/o_fifo_read_enable $end
$var wire 8 23 ff_sharing_controller/sa_rden_ctrl/genblk1[0].weight_fifo_array_rden_controller/rden $end
$var wire 1 24 ff_sharing_controller/sa_rden_ctrl/genblk1[0].weight_fifo_array_rden_controller/i_done $end
$var wire 1 25 ff_sharing_controller/sa_rden_ctrl/genblk1[0].weight_fifo_array_rden_controller/i_layer_done $end
$var wire 1 26 ff_sharing_controller/sa_rden_ctrl/genblk1[0].weight_fifo_array_rden_controller/i_start $end
$var wire 3 27 ff_sharing_controller/sa_rden_ctrl/genblk1[7].weight_fifo_array_rden_controller/state $end
$var wire 1 28 ff_sharing_controller/sa_rden_ctrl/genblk1[7].weight_fifo_array_rden_controller/i_done $end
$var wire 8 29 ff_sharing_controller/sa_rden_ctrl/genblk1[7].weight_fifo_array_rden_controller/i_fifo_empty $end
$var wire 1 2a ff_sharing_controller/sa_rden_ctrl/genblk1[7].weight_fifo_array_rden_controller/i_layer_done $end
$var wire 8 2b ff_sharing_controller/sa_rden_ctrl/genblk1[7].weight_fifo_array_rden_controller/o_fifo_read_enable $end
$var wire 8 2c ff_sharing_controller/sa_rden_ctrl/genblk1[7].weight_fifo_array_rden_controller/rden $end
$var wire 1 2d ff_sharing_controller/sa_rden_ctrl/genblk1[7].weight_fifo_array_rden_controller/o_sel $end
$var wire 5 2e ff_sharing_controller/sa_rden_ctrl/genblk1[7].weight_fifo_array_rden_controller/counter $end
$var wire 1 2f ff_sharing_controller/sa_rden_ctrl/genblk1[7].weight_fifo_array_rden_controller/sel $end
$var wire 1 30 ff_sharing_controller/sa_rden_ctrl/genblk1[7].weight_fifo_array_rden_controller/i_start $end
$var wire 80 31 ff_sharing_controller/sa_rden_ctrl/genblk1[7].weight_fifo_array_rden_controller/i_fifo_occupants $end
$var wire 1 32 ff_sharing_controller/sa_rden_ctrl/genblk1[7].weight_fifo_array_rden_controller/w_start $end
$var wire 1 33 ff_sharing_controller/sa_rden_ctrl/genblk1[4].weight_fifo_array_rden_controller/i_start $end
$var wire 80 34 ff_sharing_controller/sa_rden_ctrl/genblk1[4].weight_fifo_array_rden_controller/i_fifo_occupants $end
$var wire 1 35 ff_sharing_controller/sa_rden_ctrl/genblk1[4].weight_fifo_array_rden_controller/i_done $end
$var wire 1 36 ff_sharing_controller/sa_rden_ctrl/genblk1[4].weight_fifo_array_rden_controller/sel $end
$var wire 1 37 ff_sharing_controller/sa_rden_ctrl/genblk1[4].weight_fifo_array_rden_controller/w_start $end
$var wire 8 38 ff_sharing_controller/sa_rden_ctrl/genblk1[4].weight_fifo_array_rden_controller/o_fifo_read_enable $end
$var wire 8 39 ff_sharing_controller/sa_rden_ctrl/genblk1[4].weight_fifo_array_rden_controller/rden $end
$var wire 8 3a ff_sharing_controller/sa_rden_ctrl/genblk1[4].weight_fifo_array_rden_controller/i_fifo_empty $end
$var wire 1 3b ff_sharing_controller/sa_rden_ctrl/genblk1[4].weight_fifo_array_rden_controller/i_layer_done $end
$var wire 5 3c ff_sharing_controller/sa_rden_ctrl/genblk1[4].weight_fifo_array_rden_controller/counter $end
$var wire 3 3d ff_sharing_controller/sa_rden_ctrl/genblk1[4].weight_fifo_array_rden_controller/state $end
$var wire 1 3e ff_sharing_controller/sa_rden_ctrl/genblk1[4].weight_fifo_array_rden_controller/o_sel $end
$upscope $end
$enddefinitions $end
#0
$dumpvars
b0000000000000000000000000000000000000000000000000000000000000000 0
b11000011 1
b00000000000000000000000000000000000000000000000000000000000000000000000000000000000000000000000000000000000000000000000000000000000000000000000000000000000000000000000000000000000000000000000000000000000000000000000000000000000000000000000000000000000000000000000000000000000000000000000000000000000000000000000000000000000000000000000000000000000000000000000000000000000000000000000000000000000000000000000000000000000000000000000000000000000000000000000000000000000000000000000000000000000000000000000000000000 2
b0000000000000000000000000000000000000000000000000000000000000000 3
b0000000000000000000000000000000000000000000000000000000000000000 4
05
06
07
b0000011000000001100000000110000000011000000001100000000110000000011000000001100000000110000000011000000001100000000110000000011000000001100000000110000000011000000001100000000110000000011000000001100000000110000000011000000001100000000110000000011000000001100000000110000000011000000001100000000110000000011000000001100000000111100000011110000001111000000111100000011110000001111000000111100000011110000001111000000111100000011110000001111000000111100000011110000001111000000111100000011110000001111000000111100000011110000001111000000111100000011110000001111000000111100000011110000001111000000111100000011110000001111000000111100000011110 8
b11111111 9
b0000000000000000000000000000000000000000000000000000000000000000 a
0b
b00000 c
0d
b00 e
b00000 f
010
011
012
013
b0000000000 14
b00000000000000000000000000000000 15
116
b0000000000000000000000000000000000000000000000000000000000000000 17
118
b0000000000000000000000000000000000000000000000000000000000000000 19
b0000000000000000000000000000000000000000000000000000000000000000 1a
b00000110000000011000000001100000000110000000011000000001100000000110000000011000 1b
11c
b000 1d
01e
b00000000 1f
120
b00000 21
b00000000 22
b00000000 23
024
025
026
b000 27
028
b00000000 29
02a
b00000000 2b
b00000000 2c
12d
b00000 2e
12f
030
b00000111100000011110000001111000000111100000011110000001111000000111100000011110 31
032
033
b00000111100000011110000001111000000111100000011110000001111000000111100000011110 34
035
136
037
b00000000 38
b00000000 39
b00000000 3a
03b
b00000 3c
b000 3d
13e
$end
#508
16
112
126
130
133
#509
110
11e
132
137
#510
b01 e
010
b001 1d
01e
b001 27
032
037
b001 3d
#511
b1111111111111111111111111111111111111111111111111111111111111111 4
b0000000001 14
b11111111111111111111111111111111 15
b010 1d
b11111111 22
b11111111 23
b010 27
b11111111 2b
b11111111 2c
b11111111 38
b11111111 39
b010 3d
#512
b0000000000000000000000000000000011111111111111111111111111111111 0
b0000000010 14
b0000000000000000000000000000000011111111111111111111111111111111 17
b0000000000000000000000000000000011111111111111111111111111111111 1a
b00001 21
b00001 2e
b00001 3c
#513
b00100010001100010100001101110101000000111000001111100000110010110100000010111000100100110011001111010111011000010000011110001101000100011100110101110111000100010110100011000110110100010000000111010100110101101011100011100100100110010110010001111011111110110000000000000000000000000000000000000000000000000000000000000000000000000000000000000000000000000000000000000000000000000000000000000000000000000000000000000000000000000000000000000000000000000000000000000000000000000000000000000000000000000000000000000000 2
b0000000011 14
b00010 21
b00010 2e
b00010 3c
#514
b00001111000000111100110011100010011001110101100011011001000011111100100100001101100011011101001010010010011001111011001010000101111101111101101101001101110111010000011101111001100111110010101000011001001110010010101100110101001000111110111001111000111001100000000000000000000000000000000000000000000000000000000000000000000000000000000000000000000000000000000000000000000000000000000000000000000000000000000000000000000000000000000000000000000000000000000000000000000000000000000000000000000000000000000000000000 2
b0000011000000001100000000110000000011000000001100000000110000000011000000001100000000110000000011000000001100000000110000000011000000001100000000110000000011000000001100000000110000000011000000001100000000110000000011000000001100000000110000000011000000001100000000110000000011000000001100000000110000000011000000001100000000111010000011101000001110100000111010000011101000001110100000111010000011101000001110100000111010000011101000001110100000111010000011101000001110100000111010000011101000001110100000111010000011101000001110100000111010000011101000001110100000111010000011101000001110100000111010000011101000001110100000111010000011101 8
b0000000100 14
b00011 21
b00011 2e
b00000111010000011101000001110100000111010000011101000001110100000111010000011101 31
b00000111010000011101000001110100000111010000011101000001110100000111010000011101 34
b00011 3c
#515
b00000001111110100100110100001111101111001011100001111000000010001011011110110100011001010000101011000110000011010011011001110100111000010111101100111000011001000101000110101100111110011111010000000110111001100100000001010111101011100010110101110100110110000000000000000000000000000000000000000000000000000000000000000000000000000000000000000000000000000000000000000000000000000000000000000000000000000000000000000000000000000000000000000000000000000000000000000000000000000000000000000000000000000000000000000000 2
b0000011000000001100000000110000000011000000001100000000110000000011000000001100000000110000000011000000001100000000110000000011000000001100000000110000000011000000001100000000110000000011000000001100000000110000000011000000001100000000110000000011000000001100000000110000000011000000001100000000110000000011000000001100000000111000000011100000001110000000111000000011100000001110000000111000000011100000001110000000111000000011100000001110000000111000000011100000001110000000111000000011100000001110000000111000000011100000001110000000111000000011100000001110000000111000000011100000001110000000111000000011100000001110000000111000000011100 8
b0000000101 14
b00100 21
b00100 2e
b00000111000000011100000001110000000111000000011100000001110000000111000000011100 31
b00000111000000011100000001110000000111000000011100000001110000000111000000011100 34
b00100 3c
#516
b10011011010100010100000001100100011000011111101110111100011100101010000101010010110000100111000110000011011011010001011101101011000001000110001111101000001001001100000110010011011101001000101000001100110110010001110101111110100000111101001101101111101010010000000000000000000000000000000000000000000000000000000000000000000000000000000000000000000000000000000000000000000000000000000000000000000000000000000000000000000000000000000000000000000000000000000000000000000000000000000000000000000000000000000000000000 2
b0000011000000001100000000110000000011000000001100000000110000000011000000001100000000110000000011000000001100000000110000000011000000001100000000110000000011000000001100000000110000000011000000001100000000110000000011000000001100000000110000000011000000001100000000110000000011000000001100000000110000000011000000001100000000110110000011011000001101100000110110000011011000001101100000110110000011011000001101100000110110000011011000001101100000110110000011011000001101100000110110000011011000001101100000110110000011011000001101100000110110000011011000001101100000110110000011011000001101100000110110000011011000001101100000110110000011011 8
b0000000110 14
b00101 21
b00101 2e
b00000110110000011011000001101100000110110000011011000001101100000110110000011011 31
b00000110110000011011000001101100000110110000011011000001101100000110110000011011 34
b00101 3c
#517
b01101001111101001000100110010010000000001000110101000001111011101111100001000111000010001001101101010011011010101111111100010101000110101001000011100011010000101001011000101111010110011110101101000000100000111101011000100100111100100010010000011110001101100000000000000000000000000000000000000000000000000000000000000000000000000000000000000000000000000000000000000000000000000000000000000000000000000000000000000000000000000000000000000000000000000000000000000000000000000000000000000000000000000000000000000000 2
b0000011000000001100000000110000000011000000001100000000110000000011000000001100000000110000000011000000001100000000110000000011000000001100000000110000000011000000001100000000110000000011000000001100000000110000000011000000001100000000110000000011000000001100000000110000000011000000001100000000110000000011000000001100000000110100000011010000001101000000110100000011010000001101000000110100000011010000001101000000110100000011010000001101000000110100000011010000001101000000110100000011010000001101000000110100000011010000001101000000110100000011010000001101000000110100000011010000001101000000110100000011010000001101000000110100000011010 8
b0000000111 14
b00110 21
b00110 2e
b00000110100000011010000001101000000110100000011010000001101000000110100000011010 31
b00000110100000011010000001101000000110100000011010000001101000000110100000011010 34
b00110 3c
#518
b10101101001111110001001001011100111000001010111011010010000001100111100000000001110100001011101111010110111011011111010111010001101000100100100101110111111001101100101111111100010010010100001111011110100010110101011100011111110101011100000111010001110000110000000000000000000000000000000000000000000000000000000000000000000000000000000000000000000000000000000000000000000000000000000000000000000000000000000000000000000000000000000000000000000000000000000000000000000000000000000000000000000000000000000000000000 2
b0000011000000001100000000110000000011000000001100000000110000000011000000001100000000110000000011000000001100000000110000000011000000001100000000110000000011000000001100000000110000000011000000001100000000110000000011000000001100000000110000000011000000001100000000110000000011000000001100000000110000000011000000001100000000110010000011001000001100100000110010000011001000001100100000110010000011001000001100100000110010000011001000001100100000110010000011001000001100100000110010000011001000001100100000110010000011001000001100100000110010000011001000001100100000110010000011001000001100100000110010000011001000001100100000110010000011001 8
b0000001000 14
b00111 21
b00111 2e
b00000110010000011001000001100100000110010000011001000001100100000110010000011001 31
b00000110010000011001000001100100000110010000011001000001100100000110010000011001 34
b00111 3c
#519
b01000110010110001000000001110001111010010000001100110111010100101001011110110011010001011110100011110111110101010111010010101001101010100011111000011011001111001100101001101001100010100010001101101001010110100101010101111110110010111011011011111001010110010000000000000000000000000000000000000000000000000000000000000000000000000000000000000000000000000000000000000000000000000000000000000000000000000000000000000000000000000000000000000000000000000000000000000000000000000000000000000000000000000000000000000000 2
b0000011000000001100000000110000000011000000001100000000110000000011000000001100000000110000000011000000001100000000110000000011000000001100000000110000000011000000001100000000110000000011000000001100000000110000000011000000001100000000110000000011000000001100000000110000000011000000001100000000110000000011000000001100000000110000000011000000001100000000110000000011000000001100000000110000000011000000001100000000110000000011000000001100000000110000000011000000001100000000110000000011000000001100000000110000000011000000001100000000110000000011000000001100000000110000000011000000001100000000110000000011000000001100000000110000000011000 8
b0000001001 14
b01000 21
b01000 2e
b00000110000000011000000001100000000110000000011000000001100000000110000000011000 31
b00000110000000011000000001100000000110000000011000000001100000000110000000011000 34
b01000 3c
#520
b11100000011100100011010011111101111010101110000001110111100110001001100000010000001110111110111101010110101111100100110000010010101011000001011101011001010001010100101101110011011011010101000100111110001110011010011000100001110111110000111000010110000011110000000000000000000000000000000000000000000000000000000000000000000000000000000000000000000000000000000000000000000000000000000000000000000000000000000000000000000000000000000000000000000000000000000000000000000000000000000000000000000000000000000000000000 2
b0000000000000000000000000000000000000000000000000000000000000000 4
b0000011000000001100000000110000000011000000001100000000110000000011000000001100000000110000000011000000001100000000110000000011000000001100000000110000000011000000001100000000110000000011000000001100000000110000000011000000001100000000110000000011000000001100000000110000000011000000001100000000110000000011000000001100000000101110000010111000001011100000101110000010111000001011100000101110000010111000001011100000101110000010111000001011100000101110000010111000001011100000101110000010111000001011100000101110000010111000001011100000101110000010111000001011100000101110000010111000001011100000101110000010111000001011100000101110000010111 8
b0000001010 14
b00000000000000000000000000000000 15
b011 1d
b00000 21
b00000000 22
b00000000 23
b011 27
b00000000 2b
b00000000 2c
b00000 2e
b00000101110000010111000001011100000101110000010111000001011100000101110000010111 31
b00000101110000010111000001011100000101110000010111000001011100000101110000010111 34
b00000000 38
b00000000 39
b00000 3c
b011 3d
#521
b0000000000000000000000000000000000000000000000000000000000000000 0
b00110100101001000011001000110101001101001101111110001100100010001010101111010000001001011000100110110010110111000110101101110011011100100101100101010000000001000010110110010111011010111100100101100011001110001111101010011010001000000001010010100011111100010000000000000000000000000000000000000000000000000000000000000000000000000000000000000000000000000000000000000000000000000000000000000000000000000000000000000000000000000000000000000000000000000000000000000000000000000000000000000000000000000000000000000000 2
b0000011000000001100000000110000000011000000001100000000110000000011000000001100000000110000000011000000001100000000110000000011000000001100000000110000000011000000001100000000110000000011000000001100000000110000000011000000001100000000110000000011000000001100000000110000000011000000001100000000110000000011000000001100000000101100000010110000001011000000101100000010110000001011000000101100000010110000001011000000101100000010110000001011000000101100000010110000001011000000101100000010110000001011000000101100000010110000001011000000101100000010110000001011000000101100000010110000001011000000101100000010110000001011000000101100000010110 8
b0000001011 14
b0000000000000000000000000000000000000000000000000000000000000000 17
b0000000000000000000000000000000000000000000000000000000000000000 1a
b00000101100000010110000001011000000101100000010110000001011000000101100000010110 31
b00000101100000010110000001011000000101100000010110000001011000000101100000010110 34
#522
b0000011000000001100000000110000000011000000001100000000110000000011000000001100000000110000000011000000001100000000110000000011000000001100000000110000000011000000001100000000110000000011000000001100000000110000000011000000001100000000110000000011000000001100000000110000000011000000001100000000110000000011000000001100000000101010000010101000001010100000101010000010101000001010100000101010000010101000001010100000101010000010101000001010100000101010000010101000001010100000101010000010101000001010100000101010000010101000001010100000101010000010101000001010100000101010000010101000001010100000101010000010101000001010100000101010000010101 8
b0000001100 14
b00000101010000010101000001010100000101010000010101000001010100000101010000010101 31
b00000101010000010101000001010100000101010000010101000001010100000101010000010101 34
#523
b0000001101 14
#524
b0000001110 14
#525
b0000001111 14
#526
b0000010000 14
#527
b0000010001 14
#528
b0000010010 14
#529
b0000010011 14
#530
b0000010100 14
#531
b0000010101 14
#532
b0000010110 14
#533
b0000010111 14
#534
b0000011000 14
#535
b0000011001 14
#536
b0000011010 14
#537
b0000011011 14
#538
b0000011100 14
#539
b0000011101 14
#540
b0000011110 14
#541
17
b00001 c
1d
111
b0000000000 14
124
128
135
#542
07
0d
011
b0000000001 14
b100 1d
024
b100 27
028
035
b100 3d
#543
b0000000010 14
b001 1d
b001 27
b001 3d
#544
b1111111111111111111111111111111111111111111111111111111111111111 4
b0000000011 14
b11111111111111111111111111111111 15
b010 1d
b11111111 22
b11111111 23
b010 27
b11111111 2b
b11111111 2c
b11111111 38
b11111111 39
b010 3d
#545
b0000000000000000000000000000000011111111111111111111111111111111 0
b0000000100 14
b0000000000000000000000000000000011111111111111111111111111111111 17
b0000000000000000000000000000000011111111111111111111111111111111 1a
b00001 21
b00001 2e
b00001 3c
#546
b00101000001000001000100011011001101001011001010100100100010110110010101001101111001111000111110101110000111011000000001101100011100011000011101110010010001111111001010100111011011110011100100011110100101000011000100001100000000101000111001101011000001010000000000000000000000000000000000000000000000000000000000000000000000000000000000000000000000000000000000000000000000000000000000000000000000000000000000000000000000000000000000000000000000000000000000000000000000000000000000000000000000000000000000000000000 2
b0000000101 14
b00010 21
b00010 2e
b00010 3c
#547
b00001111101010101111101001101110000101100101111101011100011110000111010100001100100100110000111010011100011100010100101101100011100101000010101101100011100101001110000101110001101011011010100101000111010011011010111010001000110101000110000001001000011111010000000000000000000000000000000000000000000000000000000000000000000000000000000000000000000000000000000000000000000000000000000000000000000000000000000000000000000000000000000000000000000000000000000000000000000000000000000000000000000000000000000000000000 2
b0000011000000001100000000110000000011000000001100000000110000000011000000001100000000110000000011000000001100000000110000000011000000001100000000110000000011000000001100000000110000000011000000001100000000110000000011000000001100000000110000000011000000001100000000110000000011000000001100000000110000000011000000001100000000101000000010100000001010000000101000000010100000001010000000101000000010100000001010000000101000000010100000001010000000101000000010100000001010000000101000000010100000001010000000101000000010100000001010000000101000000010100000001010000000101000000010100000001010000000101000000010100000001010000000101000000010100 8
b0000000110 14
b00011 21
b00011 2e
b00000101000000010100000001010000000101000000010100000001010000000101000000010100 31
b00000101000000010100000001010000000101000000010100000001010000000101000000010100 34
b00011 3c
#548
b01100010101111011011010000010010011110101011010011100011100101011001101110001010110111111010101001010001101001000110110010110001100001100001010100110001001000010000101010110101100011011100100010111001011001110100100010010000111110000000001101010011101011100000000000000000000000000000000000000000000000000000000000000000000000000000000000000000000000000000000000000000000000000000000000000000000000000000000000000000000000000000000000000000000000000000000000000000000000000000000000000000000000000000000000000000 2
b0000011000000001100000000110000000011000000001100000000110000000011000000001100000000110000000011000000001100000000110000000011000000001100000000110000000011000000001100000000110000000011000000001100000000110000000011000000001100000000110000000011000000001100000000110000000011000000001100000000110000000011000000001100000000100110000010011000001001100000100110000010011000001001100000100110000010011000001001100000100110000010011000001001100000100110000010011000001001100000100110000010011000001001100000100110000010011000001001100000100110000010011000001001100000100110000010011000001001100000100110000010011000001001100000100110000010011 8
b0000000111 14
b00100 21
b00100 2e
b00000100110000010011000001001100000100110000010011000001001100000100110000010011 31
b00000100110000010011000001001100000100110000010011000001001100000100110000010011 34
b00100 3c
#549
b01110001001110010001111000010100001111011010110101111011010000111101110111000111110001011010100010010001101010011100001110000011101110101110100000101101101000100001010001101101101111110010111011100010110100100011001100010101100111100110010100001101110001100000000000000000000000000000000000000000000000000000000000000000000000000000000000000000000000000000000000000000000000000000000000000000000000000000000000000000000000000000000000000000000000000000000000000000000000000000000000000000000000000000000000000000 2
b0000011000000001100000000110000000011000000001100000000110000000011000000001100000000110000000011000000001100000000110000000011000000001100000000110000000011000000001100000000110000000011000000001100000000110000000011000000001100000000110000000011000000001100000000110000000011000000001100000000110000000011000000001100000000100100000010010000001001000000100100000010010000001001000000100100000010010000001001000000100100000010010000001001000000100100000010010000001001000000100100000010010000001001000000100100000010010000001001000000100100000010010000001001000000100100000010010000001001000000100100000010010000001001000000100100000010010 8
b0000001000 14
b00101 21
b00101 2e
b00000100100000010010000001001000000100100000010010000001001000000100100000010010 31
b00000100100000010010000001001000000100100000010010000001001000000100100000010010 34
b00101 3c
#550
b01100000100110011110000100111010110100010101011101100111010001001011000100011011011001010000000100011111110110101111111011111001101111101011000111101001101000000101100000011001011001000000010011010011011001100000111010010101001101010010001000110110011100010000000000000000000000000000000000000000000000000000000000000000000000000000000000000000000000000000000000000000000000000000000000000000000000000000000000000000000000000000000000000000000000000000000000000000000000000000000000000000000000000000000000000000 2
b0000011000000001100000000110000000011000000001100000000110000000011000000001100000000110000000011000000001100000000110000000011000000001100000000110000000011000000001100000000110000000011000000001100000000110000000011000000001100000000110000000011000000001100000000110000000011000000001100000000110000000011000000001100000000100010000010001000001000100000100010000010001000001000100000100010000010001000001000100000100010000010001000001000100000100010000010001000001000100000100010000010001000001000100000100010000010001000001000100000100010000010001000001000100000100010000010001000001000100000100010000010001000001000100000100010000010001 8
b0000001001 14
b00110 21
b00110 2e
b00000100010000010001000001000100000100010000010001000001000100000100010000010001 31
b00000100010000010001000001000100000100010000010001000001000100000100010000010001 34
b00110 3c
#551
b11010101000101001100101011100011111110100111101100111010110000011011111010010000011101111011011111111011011100000110001010000101111011101010010100001111100111110001111110011001001100100110111000010000111110000111010011011010100001111001011011101011111001000000000000000000000000000000000000000000000000000000000000000000000000000000000000000000000000000000000000000000000000000000000000000000000000000000000000000000000000000000000000000000000000000000000000000000000000000000000000000000000000000000000000000000 2
b0000011000000001100000000110000000011000000001100000000110000000011000000001100000000110000000011000000001100000000110000000011000000001100000000110000000011000000001100000000110000000011000000001100000000110000000011000000001100000000110000000011000000001100000000110000000011000000001100000000110000000011000000001100000000100000000010000000001000000000100000000010000000001000000000100000000010000000001000000000100000000010000000001000000000100000000010000000001000000000100000000010000000001000000000100000000010000000001000000000100000000010000000001000000000100000000010000000001000000000100000000010000000001000000000100000000010000 8
b0000001010 14
b00111 21
b00111 2e
b00000100000000010000000001000000000100000000010000000001000000000100000000010000 31
b00000100000000010000000001000000000100000000010000000001000000000100000000010000 34
b00111 3c
#552
b10010000001101111010010100011110110001111010100101110110001001011100101001011001001001011101000110000001110010001101001111011011100101000100111100100001001000101111101101010010110001011001110000010110000110111100100011010100010101100011010101010100111100100000000000000000000000000000000000000000000000000000000000000000000000000000000000000000000000000000000000000000000000000000000000000000000000000000000000000000000000000000000000000000000000000000000000000000000000000000000000000000000000000000000000000000 2
b0000011000000001100000000110000000011000000001100000000110000000011000000001100000000110000000011000000001100000000110000000011000000001100000000110000000011000000001100000000110000000011000000001100000000110000000011000000001100000000110000000011000000001100000000110000000011000000001100000000110000000011000000001100000000011110000001111000000111100000011110000001111000000111100000011110000001111000000111100000011110000001111000000111100000011110000001111000000111100000011110000001111000000111100000011110000001111000000111100000011110000001111000000111100000011110000001111000000111100000011110000001111000000111100000011110000001111 8
b0000001011 14
b01000 21
b01000 2e
b00000011110000001111000000111100000011110000001111000000111100000011110000001111 31
b00000011110000001111000000111100000011110000001111000000111100000011110000001111 34
b01000 3c
#553
b10110101011011000010110100100110100010000100111110001101000010001100010111000000110110011010011101100100101011000001110100111001011111010100010110111100000001110101111111110001111000111100100100111110110010000010000100101110000001011001010100101011001100100000000000000000000000000000000000000000000000000000000000000000000000000000000000000000000000000000000000000000000000000000000000000000000000000000000000000000000000000000000000000000000000000000000000000000000000000000000000000000000000000000000000000000 2
b0000000000000000000000000000000000000000000000000000000000000000 4
b0000011000000001100000000110000000011000000001100000000110000000011000000001100000000110000000011000000001100000000110000000011000000001100000000110000000011000000001100000000110000000011000000001100000000110000000011000000001100000000110000000011000000001100000000110000000011000000001100000000110000000011000000001100000000011100000001110000000111000000011100000001110000000111000000011100000001110000000111000000011100000001110000000111000000011100000001110000000111000000011100000001110000000111000000011100000001110000000111000000011100000001110000000111000000011100000001110000000111000000011100000001110000000111000000011100000001110 8
b0000001100 14
b00000000000000000000000000000000 15
b011 1d
b00000 21
b00000000 22
b00000000 23
b011 27
b00000000 2b
b00000000 2c
b00000 2e
b00000011100000001110000000111000000011100000001110000000111000000011100000001110 31
b00000011100000001110000000111000000011100000001110000000111000000011100000001110 34
b00000000 38
b00000000 39
b00000 3c
b011 3d
#554
b0000000000000000000000000000000000000000000000000000000000000000 0
b10110001011111010000010101100111110110110101000110011101100011010011011001110000011101101000010011011100010111110000111001101001101100101110010101111001000001000110000110001100011000101110111110000001001100011010110111000011110000100011011101001101001000100000000000000000000000000000000000000000000000000000000000000000000000000000000000000000000000000000000000000000000000000000000000000000000000000000000000000000000000000000000000000000000000000000000000000000000000000000000000000000000000000000000000000000 2
b0000011000000001100000000110000000011000000001100000000110000000011000000001100000000110000000011000000001100000000110000000011000000001100000000110000000011000000001100000000110000000011000000001100000000110000000011000000001100000000110000000011000000001100000000110000000011000000001100000000110000000011000000001100000000011010000001101000000110100000011010000001101000000110100000011010000001101000000110100000011010000001101000000110100000011010000001101000000110100000011010000001101000000110100000011010000001101000000110100000011010000001101000000110100000011010000001101000000110100000011010000001101000000110100000011010000001101 8
b0000001101 14
b0000000000000000000000000000000000000000000000000000000000000000 17
b0000000000000000000000000000000000000000000000000000000000000000 1a
b00000011010000001101000000110100000011010000001101000000110100000011010000001101 31
b00000011010000001101000000110100000011010000001101000000110100000011010000001101 34
#555
b0000011000000001100000000110000000011000000001100000000110000000011000000001100000000110000000011000000001100000000110000000011000000001100000000110000000011000000001100000000110000000011000000001100000000110000000011000000001100000000110000000011000000001100000000110000000011000000001100000000110000000011000000001100000000011000000001100000000110000000011000000001100000000110000000011000000001100000000110000000011000000001100000000110000000011000000001100000000110000000011000000001100000000110000000011000000001100000000110000000011000000001100000000110000000011000000001100000000110000000011000000001100000000110000000011000000001100 8
b0000001110 14
b00000011000000001100000000110000000011000000001100000000110000000011000000001100 31
b00000011000000001100000000110000000011000000001100000000110000000011000000001100 34
#556
b0000001111 14
#557
b0000010000 14
#558
b0000010001 14
#559
b0000010010 14
#560
b0000010011 14
#561
b0000010100 14
#562
b0000010101 14
#563
b0000010110 14
#564
b0000010111 14
#565
b0000011000 14
#566
b0000011001 14
#567
b0000011010 14
#568
b0000011011 14
#569
b0000011100 14
#570
b0000011101 14
#571
b0000011110 14
#572
17
b00010 c
1d
111
b0000000000 14
124
128
135
#573
07
0d
011
b0000000001 14
b100 1d
024
b100 27
028
035
b100 3d
#574
b0000000010 14
b001 1d
b001 27
b001 3d
#575
b1111111111111111111111111111111111111111111111111111111111111111 4
b0000000011 14
b11111111111111111111111111111111 15
b010 1d
b11111111 22
b11111111 23
b010 27
b11111111 2b
b11111111 2c
b11111111 38
b11111111 39
b010 3d
#576
b0000000000000000000000000000000011111111111111111111111111111111 0
b0000000100 14
b0000000000000000000000000000000011111111111111111111111111111111 17
b0000000000000000000000000000000011111111111111111111111111111111 1a
b00001 21
b00001 2e
b00001 3c
#577
b00000010101010111101111100011101011100110001111000011010011010111010100110111110010101010101010011001001110010101101001001010101001000000010110101100110101010000011111010000001011101110010100000001001000010101100101111001000100101011001100000010000001100000000000000000000000000000000000000000000000000000000000000000000000000000000000000000000000000000000000000000000000000000000000000000000000000000000000000000000000000000000000000000000000000000000000000000000000000000000000000000000000000000000000000000000 2
b0000000101 14
b00010 21
b00010 2e
b00010 3c
