src/rtl/mem_ctrl/test/waveform-22-5.vcd
$date
	Wed May 22 12:00:35 2024
$end
$version
	GTKWave Analyzer v3.3.104 (w)1999-2020 BSI
$end
$timescale
	1ns
$end
$scope module top $end
$var wire 41 ^ RR_ARB_inst/req_manager_inst/data_sel[40:0] $end
$var wire 4 [ RR_ARB_inst/o_burst_div[3:0] $end
$var wire 32 Z RR_ARB_inst/o_addr_div[31:0] $end
$var wire 4 \ RR_ARB_inst/o_port_div[3:0] $end
$var wire 164 Y RR_ARB_inst/in_data_div[163:0] $end
$var wire 4 ] RR_ARB_inst/r_valid[3:0] $end
$var wire 8 I NATIVE_AXI_inst/aid[7:0] $end
$var wire 1 M NATIVE_AXI_inst/avalid $end
$var wire 1 K NATIVE_AXI_inst/aready $end
$var wire 32 H NATIVE_AXI_inst/aaddr[31:0] $end
$var wire 8 T NATIVE_AXI_inst/wid[7:0] $end
$var wire 1 W NATIVE_AXI_inst/wvalid $end
$var wire 1 V NATIVE_AXI_inst/wready $end
$var wire 1 L NATIVE_AXI_inst/atype $end
$var wire 8 J NATIVE_AXI_inst/alen[7:0] $end
$var wire 1 E NATIVE_AXI_inst/RamWrStart $end
$var wire 1 D NATIVE_AXI_inst/RamRdStart $end
$var wire 1 " rst $end
$var wire 4 X RR_ARB_inst/grant[3:0] $end
$var wire 4 ` RR_ARB_inst/req_out[3:0] $end
$var wire 8 C NATIVE_AXI_inst/CfgWrBlen[7:0] $end
$var wire 8 A NATIVE_AXI_inst/CfgRdBLen[7:0] $end
$var wire 32 B NATIVE_AXI_inst/CfgWrAddr[31:0] $end
$var wire 32 @ NATIVE_AXI_inst/CfgRdAddr[31:0] $end
$var wire 256 ? Mux_inst/w_odata_sel[255:0] $end
$var wire 4 & ID_MANAGER_inst/select[3:0] $end
$var wire 4 + ID_manager_rd_inst/select_rd[3:0] $end
$var wire 8 O NATIVE_AXI_inst/rid[7:0] $end
$var wire 1 R NATIVE_AXI_inst/rvalid $end
$var wire 1 Q NATIVE_AXI_inst/rready $end
$var wire 256 N NATIVE_AXI_inst/rdata[255:0] $end
$var wire 256 S NATIVE_AXI_inst/wdata[255:0] $end
$var wire 1 ' ID_MANAGER_inst/w_en_ack $end
$var wire 8 ( ID_manager_rd_inst/current_sent[7:0] $end
$var wire 8 , ID_manager_rd_inst/stored_rd_id[7:0] $end
$var wire 1 ) ID_manager_rd_inst/r_en_ack $end
$var wire 1 U NATIVE_AXI_inst/wlast $end
$var wire 1 P NATIVE_AXI_inst/rlast $end
$var wire 1 1 Mem_Rd_inst_1/rvalid_rd $end
$var wire 1 5 Mem_ctrl_wr_1/select $end
$var wire 1 ; Mem_ctrl_wr_2/select $end
$var wire 1 3 Mem_ctrl_wr_1/WriteEn $end
$var wire 1 9 Mem_ctrl_wr_2/WriteEn $end
$var wire 1 # wr_axi_valid $end
$var wire 1 $ wr_axi_last $end
$var wire 1 2 Mem_Rd_inst_1/select_rd $end
$var wire 1 F NATIVE_AXI_inst/Rd_ctrl_inst/DataRdEnd $end
$var wire 1 - Mem_Rd_inst_1/data_valid $end
$var wire 1 G NATIVE_AXI_inst/Rd_ctrl_inst/DataRdReady $end
$var wire 5 4 Mem_ctrl_wr_1/count_blen[4:0] $end
$var wire 1 7 Mem_ctrl_wr_1/wready_w $end
$var wire 1 = Mem_ctrl_wr_2/wready_w $end
$var wire 5 : Mem_ctrl_wr_2/count_blen[4:0] $end
$var wire 1 > Mem_ctrl_wr_2/wvalid_w $end
$var wire 1 < Mem_ctrl_wr_2/wlast_w $end
$var wire 1 6 Mem_ctrl_wr_1/wlast_w $end
$var wire 1 8 Mem_ctrl_wr_1/wvalid_w $end
$var wire 1 % DdrResetCtrl $end
$var wire 1 _ RR_ARB_inst/req_manager_inst/valid_req $end
$var wire 256 / Mem_Rd_inst_1/rdata_out[255:0] $end
$var wire 1 0 Mem_Rd_inst_1/rlast_rd $end
$var wire 256 . Mem_Rd_inst_1/rdata_in[255:0] $end
$var wire 1 * ID_manager_rd_inst/rd_r_valid $end
$upscope $end
$enddefinitions $end
#0
$dumpvars
0*
02
b0 X
0'
b0 \
b0 ^
b0 [
b0 S
0M
0E
0U
b0 ,
0D
b0 (
0)
1K
1"
b0 B
0;
b0 Y
1P
01
05
b0 H
b0 `
0$
09
b0 C
03
0#
b0 T
b0 A
b1111100100011010101010000011000000000000010010001011100000100000100001110000001001101010000101101000011110101100011001000100011100010011000111011000010110000111110001111111011110010100110101001110000100010110000000000110010100011110001100100000001000011 .
b0 +
0G
b0 ]
0F
b0 Z
0-
0W
b0 @
b0 :
17
b0 ?
b0 4
1=
1V
b0 &
b1111100100011010101010000011000000000000010010001011100000100000100001110000001001101010000101101000011110101100011001000100011100010011000111011000010110000111110001111111011110010100110101001110000100010110000000000110010100011110001100100000001000011 N
08
b0 I
0>
0<
06
0L
b10001000 O
00
0_
0R
0%
b0 /
b0 J
0Q
$end
#243
10
#252
b1 X
b1 `
#253
b0 `
b0 X
#254
b10000000000000111100001000000000000000000000000000000000000000000000000000000000000000000000000000000000000000000000000000000000000000000000000000 Y
b1 ]
#255
b0 ]
b1111 [
b10000000000000111100001 ^
1E
b10000000000000 B
b1111 C
b1111 A
b10000000000000 Z
b10000000000000 @
1_
#256
0_
1M
0E
b10000000000000 H
b1111 J
1L
#257
0L
0M
b0 J
b0 H
#258
15
b1 &
#261
13
1#
b1 4
1W
18
#262
b1010101010101010001000000101110001010101010101010010000001011000101010101010101000100000010101000101010101010101001000000101000010101010101010100010000001001100010101010101010100100000010010001010101010101010001000000100010001010101010101010010000001000000 S
b1010101010101010001000000101110001010101010101010010000001011000101010101010101000100000010101000101010101010101001000000101000010101010101010100010000001001100010101010101010100100000010010001010101010101010001000000100010001010101010101010010000001000000 ?
b10 4
#263
b11 4
b1010101010101010001000000111110001010101010101010010000001111000101010101010101000100000011101000101010101010101001000000111000010101010101010100010000001101100010101010101010100100000011010001010101010101010001000000110010001010101010101010010000001100000 ?
b1010101010101010001000000111110001010101010101010010000001111000101010101010101000100000011101000101010101010101001000000111000010101010101010100010000001101100010101010101010100100000011010001010101010101010001000000110010001010101010101010010000001100000 S
#264
b1010101010101010001000001001110001010101010101010010000010011000101010101010101000100000100101000101010101010101001000001001000010101010101010100010000010001100010101010101010100100000100010001010101010101010001000001000010001010101010101010010000010000000 S
b1010101010101010001000001001110001010101010101010010000010011000101010101010101000100000100101000101010101010101001000001001000010101010101010100010000010001100010101010101010100100000100010001010101010101010001000001000010001010101010101010010000010000000 ?
b100 4
#265
b101 4
b1010101010101010001000001011110001010101010101010010000010111000101010101010101000100000101101000101010101010101001000001011000010101010101010100010000010101100010101010101010100100000101010001010101010101010001000001010010001010101010101010010000010100000 ?
b1010101010101010001000001011110001010101010101010010000010111000101010101010101000100000101101000101010101010101001000001011000010101010101010100010000010101100010101010101010100100000101010001010101010101010001000001010010001010101010101010010000010100000 S
#266
b1010101010101010001000001101110001010101010101010010000011011000101010101010101000100000110101000101010101010101001000001101000010101010101010100010000011001100010101010101010100100000110010001010101010101010001000001100010001010101010101010010000011000000 S
b1010101010101010001000001101110001010101010101010010000011011000101010101010101000100000110101000101010101010101001000001101000010101010101010100010000011001100010101010101010100100000110010001010101010101010001000001100010001010101010101010010000011000000 ?
b110 4
#267
b111 4
b1010101010101010001000001111110001010101010101010010000011111000101010101010101000100000111101000101010101010101001000001111000010101010101010100010000011101100010101010101010100100000111010001010101010101010001000001110010001010101010101010010000011100000 ?
b1010101010101010001000001111110001010101010101010010000011111000101010101010101000100000111101000101010101010101001000001111000010101010101010100010000011101100010101010101010100100000111010001010101010101010001000001110010001010101010101010010000011100000 S
#268
b1010101010101010001000010001110001010101010101010010000100011000101010101010101000100001000101000101010101010101001000010001000010101010101010100010000100001100010101010101010100100001000010001010101010101010001000010000010001010101010101010010000100000000 S
b1010101010101010001000010001110001010101010101010010000100011000101010101010101000100001000101000101010101010101001000010001000010101010101010100010000100001100010101010101010100100001000010001010101010101010001000010000010001010101010101010010000100000000 ?
b1000 4
#269
b1001 4
b1010101010101010001000010011110001010101010101010010000100111000101010101010101000100001001101000101010101010101001000010011000010101010101010100010000100101100010101010101010100100001001010001010101010101010001000010010010001010101010101010010000100100000 ?
b1010101010101010001000010011110001010101010101010010000100111000101010101010101000100001001101000101010101010101001000010011000010101010101010100010000100101100010101010101010100100001001010001010101010101010001000010010010001010101010101010010000100100000 S
#270
b1010101010101010001000010101110001010101010101010010000101011000101010101010101000100001010101000101010101010101001000010101000010101010101010100010000101001100010101010101010100100001010010001010101010101010001000010100010001010101010101010010000101000000 S
b1010101010101010001000010101110001010101010101010010000101011000101010101010101000100001010101000101010101010101001000010101000010101010101010100010000101001100010101010101010100100001010010001010101010101010001000010100010001010101010101010010000101000000 ?
b1010 4
#271
b1011 4
b1010101010101010001000010111110001010101010101010010000101111000101010101010101000100001011101000101010101010101001000010111000010101010101010100010000101101100010101010101010100100001011010001010101010101010001000010110010001010101010101010010000101100000 ?
b1010101010101010001000010111110001010101010101010010000101111000101010101010101000100001011101000101010101010101001000010111000010101010101010100010000101101100010101010101010100100001011010001010101010101010001000010110010001010101010101010010000101100000 S
#272
b1010101010101010001000011001110001010101010101010010000110011000101010101010101000100001100101000101010101010101001000011001000010101010101010100010000110001100010101010101010100100001100010001010101010101010001000011000010001010101010101010010000110000000 S
b1010101010101010001000011001110001010101010101010010000110011000101010101010101000100001100101000101010101010101001000011001000010101010101010100010000110001100010101010101010100100001100010001010101010101010001000011000010001010101010101010010000110000000 ?
b1100 4
#273
b1101 4
b1010101010101010001000011011110001010101010101010010000110111000101010101010101000100001101101000101010101010101001000011011000010101010101010100010000110101100010101010101010100100001101010001010101010101010001000011010010001010101010101010010000110100000 ?
b1010101010101010001000011011110001010101010101010010000110111000101010101010101000100001101101000101010101010101001000011011000010101010101010100010000110101100010101010101010100100001101010001010101010101010001000011010010001010101010101010010000110100000 S
#274
b1010101010101010001000011101110001010101010101010010000111011000101010101010101000100001110101000101010101010101001000011101000010101010101010100010000111001100010101010101010100100001110010001010101010101010001000011100010001010101010101010010000111000000 S
b1010101010101010001000011101110001010101010101010010000111011000101010101010101000100001110101000101010101010101001000011101000010101010101010100010000111001100010101010101010100100001110010001010101010101010001000011100010001010101010101010010000111000000 ?
b1110 4
#275
b1111 4
b1010101010101010001000011111110001010101010101010010000111111000101010101010101000100001111101000101010101010101001000011111000010101010101010100010000111101100010101010101010100100001111010001010101010101010001000011110010001010101010101010010000111100000 ?
b1010101010101010001000011111110001010101010101010010000111111000101010101010101000100001111101000101010101010101001000011111000010101010101010100010000111101100010101010101010100100001111010001010101010101010001000011110010001010101010101010010000111100000 S
#276
b1010101010101010001000100001110001010101010101010010001000011000101010101010101000100010000101000101010101010101001000100001000010101010101010100010001000001100010101010101010100100010000010001010101010101010001000100000010001010101010101010010001000000000 S
1U
1$
b1010101010101010001000100001110001010101010101010010001000011000101010101010101000100010000101000101010101010101001000100001000010101010101010100010001000001100010101010101010100100010000010001010101010101010001000100000010001010101010101010010001000000000 ?
b10000 4
16
#277
06
0U
08
1'
03
b0 S
b0 &
b0 4
0W
0#
05
b0 ?
0$
#278
b10 X
b10 `
0'
#279
b0 `
b0 X
#280
b10 ]
b10000000000000111100001000000000000000001010000000000001111000110000000000000000000000000000000000000000000000000000000000000000000000000000000000 Y
#281
b1 T
b1 \
b101000000000000 B
1E
b101000000000000111100011 ^
1_
b0 ]
b1 I
b101000000000000 @
b101000000000000 Z
#282
0E
b101000000000000 H
1L
b1111 J
1M
0_
#283
b0 H
0M
b0 J
0L
#284
1;
b10 &
#287
19
1W
b1 :
1>
1#
#288
b1010101010101010010100000101110001010101010101010101000001011000101010101010101001010000010101000101010101010101010100000101000010101010101010100101000001001100010101010101010101010000010010001010101010101010010100000100010001010101010101010101000001000000 S
b1010101010101010010100000101110001010101010101010101000001011000101010101010101001010000010101000101010101010101010100000101000010101010101010100101000001001100010101010101010101010000010010001010101010101010010100000100010001010101010101010101000001000000 ?
b10 :
#289
b11 :
b1010101010101010010100000111110001010101010101010101000001111000101010101010101001010000011101000101010101010101010100000111000010101010101010100101000001101100010101010101010101010000011010001010101010101010010100000110010001010101010101010101000001100000 ?
b1010101010101010010100000111110001010101010101010101000001111000101010101010101001010000011101000101010101010101010100000111000010101010101010100101000001101100010101010101010101010000011010001010101010101010010100000110010001010101010101010101000001100000 S
#290
b1010101010101010010100001001110001010101010101010101000010011000101010101010101001010000100101000101010101010101010100001001000010101010101010100101000010001100010101010101010101010000100010001010101010101010010100001000010001010101010101010101000010000000 S
b1010101010101010010100001001110001010101010101010101000010011000101010101010101001010000100101000101010101010101010100001001000010101010101010100101000010001100010101010101010101010000100010001010101010101010010100001000010001010101010101010101000010000000 ?
b100 :
#291
b101 :
b1010101010101010010100001011110001010101010101010101000010111000101010101010101001010000101101000101010101010101010100001011000010101010101010100101000010101100010101010101010101010000101010001010101010101010010100001010010001010101010101010101000010100000 ?
b1010101010101010010100001011110001010101010101010101000010111000101010101010101001010000101101000101010101010101010100001011000010101010101010100101000010101100010101010101010101010000101010001010101010101010010100001010010001010101010101010101000010100000 S
#292
b1010101010101010010100001101110001010101010101010101000011011000101010101010101001010000110101000101010101010101010100001101000010101010101010100101000011001100010101010101010101010000110010001010101010101010010100001100010001010101010101010101000011000000 S
b1010101010101010010100001101110001010101010101010101000011011000101010101010101001010000110101000101010101010101010100001101000010101010101010100101000011001100010101010101010101010000110010001010101010101010010100001100010001010101010101010101000011000000 ?
b110 :
#293
b111 :
b1010101010101010010100001111110001010101010101010101000011111000101010101010101001010000111101000101010101010101010100001111000010101010101010100101000011101100010101010101010101010000111010001010101010101010010100001110010001010101010101010101000011100000 ?
b1010101010101010010100001111110001010101010101010101000011111000101010101010101001010000111101000101010101010101010100001111000010101010101010100101000011101100010101010101010101010000111010001010101010101010010100001110010001010101010101010101000011100000 S
#294
b1010101010101010010100010001110001010101010101010101000100011000101010101010101001010001000101000101010101010101010100010001000010101010101010100101000100001100010101010101010101010001000010001010101010101010010100010000010001010101010101010101000100000000 S
b1010101010101010010100010001110001010101010101010101000100011000101010101010101001010001000101000101010101010101010100010001000010101010101010100101000100001100010101010101010101010001000010001010101010101010010100010000010001010101010101010101000100000000 ?
b1000 :
#295
b1001 :
b1010101010101010010100010011110001010101010101010101000100111000101010101010101001010001001101000101010101010101010100010011000010101010101010100101000100101100010101010101010101010001001010001010101010101010010100010010010001010101010101010101000100100000 ?
b1010101010101010010100010011110001010101010101010101000100111000101010101010101001010001001101000101010101010101010100010011000010101010101010100101000100101100010101010101010101010001001010001010101010101010010100010010010001010101010101010101000100100000 S
#296
b1010101010101010010100010101110001010101010101010101000101011000101010101010101001010001010101000101010101010101010100010101000010101010101010100101000101001100010101010101010101010001010010001010101010101010010100010100010001010101010101010101000101000000 S
b1010101010101010010100010101110001010101010101010101000101011000101010101010101001010001010101000101010101010101010100010101000010101010101010100101000101001100010101010101010101010001010010001010101010101010010100010100010001010101010101010101000101000000 ?
b1010 :
#297
b1011 :
b1010101010101010010100010111110001010101010101010101000101111000101010101010101001010001011101000101010101010101010100010111000010101010101010100101000101101100010101010101010101010001011010001010101010101010010100010110010001010101010101010101000101100000 ?
b1010101010101010010100010111110001010101010101010101000101111000101010101010101001010001011101000101010101010101010100010111000010101010101010100101000101101100010101010101010101010001011010001010101010101010010100010110010001010101010101010101000101100000 S
#298
b1010101010101010010100011001110001010101010101010101000110011000101010101010101001010001100101000101010101010101010100011001000010101010101010100101000110001100010101010101010101010001100010001010101010101010010100011000010001010101010101010101000110000000 S
b1010101010101010010100011001110001010101010101010101000110011000101010101010101001010001100101000101010101010101010100011001000010101010101010100101000110001100010101010101010101010001100010001010101010101010010100011000010001010101010101010101000110000000 ?
b1100 :
#299
b1101 :
b1010101010101010010100011011110001010101010101010101000110111000101010101010101001010001101101000101010101010101010100011011000010101010101010100101000110101100010101010101010101010001101010001010101010101010010100011010010001010101010101010101000110100000 ?
0=
09
07
b1010101010101010010100011011110001010101010101010101000110111000101010101010101001010001101101000101010101010101010100011011000010101010101010100101000110101100010101010101010101010001101010001010101010101010010100011010010001010101010101010101000110100000 S
0V
#300
1V
1=
17
19
#301
b1010101010101010010100011101110001010101010101010101000111011000101010101010101001010001110101000101010101010101010100011101000010101010101010100101000111001100010101010101010101010001110010001010101010101010010100011100010001010101010101010101000111000000 S
b1010101010101010010100011101110001010101010101010101000111011000101010101010101001010001110101000101010101010101010100011101000010101010101010100101000111001100010101010101010101010001110010001010101010101010010100011100010001010101010101010101000111000000 ?
b1110 :
#302
b1111 :
b1010101010101010010100011111110001010101010101010101000111111000101010101010101001010001111101000101010101010101010100011111000010101010101010100101000111101100010101010101010101010001111010001010101010101010010100011110010001010101010101010101000111100000 ?
b1010101010101010010100011111110001010101010101010101000111111000101010101010101001010001111101000101010101010101010100011111000010101010101010100101000111101100010101010101010101010001111010001010101010101010010100011110010001010101010101010101000111100000 S
09
07
0=
0V
#303
1V
1=
17
19
#304
1U
1$
b1010101010101010010100100001110001010101010101010101001000011000101010101010101001010010000101000101010101010101010100100001000010101010101010100101001000001100010101010101010101010010000010001010101010101010010100100000010001010101010101010101001000000000 S
b1010101010101010010100100001110001010101010101010101001000011000101010101010101001010010000101000101010101010101010100100001000010101010101010100101001000001100010101010101010101010010000010001010101010101010010100100000010001010101010101010101001000000000 ?
b10000 :
1<
#305
0<
0U
0#
b0 &
09
1'
b0 :
b0 S
0>
0$
0;
b0 ?
0W
#306
b100 X
b100 `
0'
#307
b0 X
b0 `
#308
b10000000000000111100001000000000000000001010000000000001111000110000000000000000001000000000000011110010000000000000000000000000000000000000000000 Y
b100 ]
#309
b0 ]
b10 T
1D
b10 \
1_
b10000000000000 Z
b10000000000000 B
b10000000000000111100100 ^
b10000000000000 @
b10 I
#310
0_
0D
b1111 J
1Q
1G
1M
b10000000000000 H
#311
b10 (
0M
#333
0P
b0 .
b0 N
b10 O
#334
00
#335
1R
#336
1)
1*
12
b10 ,
11
b100 +
b1010101010101010001000000101110001010101010101010010000001011000101010101010101000100000010101000101010101010101001000000101000010101010101010100010000001001100010101010101010100100000010010001010101010101010001000000100010001010101010101010010000001000000 N
b1010101010101010001000000101110001010101010101010010000001011000101010101010101000100000010101000101010101010101001000000101000010101010101010100010000001001100010101010101010100100000010010001010101010101010001000000100010001010101010101010010000001000000 .
#337
b1010101010101010001000000111110001010101010101010010000001111000101010101010101000100000011101000101010101010101001000000111000010101010101010100010000001101100010101010101010100100000011010001010101010101010001000000110010001010101010101010010000001100000 .
0R
0)
b1000 `
b1010101010101010001000000111110001010101010101010010000001111000101010101010101000100000011101000101010101010101001000000111000010101010101010100010000001101100010101010101010100100000011010001010101010101010001000000110010001010101010101010010000001100000 N
1-
b1000 X
b1010101010101010001000000101110001010101010101010010000001011000101010101010101000100000010101000101010101010101001000000101000010101010101010100010000001001100010101010101010100100000010010001010101010101010001000000100010001010101010101010010000001000000 /
#338
b1010101010101010001000000111110001010101010101010010000001111000101010101010101000100000011101000101010101010101001000000111000010101010101010100010000001101100010101010101010100100000011010001010101010101010001000000110010001010101010101010010000001100000 /
1R
0*
b0 X
b0 `
01
#339
11
b1010101010101010001000001001110001010101010101010010000010011000101010101010101000100000100101000101010101010101001000001001000010101010101010100010000010001100010101010101010100100000100010001010101010101010001000001000010001010101010101010010000010000000 .
b1000 ]
1*
b10000000000000111100001000000000000000001010000000000001111000110000000000000000001000000000000011110010000000000000000000101000000000000111100110 Y
0-
b1010101010101010001000001001110001010101010101010010000010011000101010101010101000100000100101000101010101010101001000001001000010101010101010100010000010001100010101010101010100100000100010001010101010101010001000001000010001010101010101010010000010000000 N
#340
b1010101010101010001000001011110001010101010101010010000010111000101010101010101000100000101101000101010101010101001000001011000010101010101010100010000010101100010101010101010100100000101010001010101010101010001000001010010001010101010101010010000010100000 N
b1010101010101010001000001011110001010101010101010010000010111000101010101010101000100000101101000101010101010101001000001011000010101010101010100010000010101100010101010101010100100000101010001010101010101010001000001010010001010101010101010010000010100000 .
1_
0R
b1010101010101010001000001001110001010101010101010010000010011000101010101010101000100000100101000101010101010101001000001001000010101010101010100010000010001100010101010101010100100000100010001010101010101010001000001000010001010101010101010010000010000000 /
b11 I
b101000000000000 B
b101000000000000 Z
b11 T
b11 \
1-
1D
b101000000000000 @
b101000000000000111100110 ^
b0 ]
#341
0_
01
1M
b101000000000000 H
1R
b1010101010101010001000001011110001010101010101010010000010111000101010101010101000100000101101000101010101010101001000001011000010101010101010100010000010101100010101010101010100100000101010001010101010101010001000001010010001010101010101010010000010100000 /
0D
0*
#342
1*
b1010101010101010001000001101110001010101010101010010000011011000101010101010101000100000110101000101010101010101001000001101000010101010101010100010000011001100010101010101010100100000110010001010101010101010001000001100010001010101010101010010000011000000 .
b1010101010101010001000001101110001010101010101010010000011011000101010101010101000100000110101000101010101010101001000001101000010101010101010100010000011001100010101010101010100100000110010001010101010101010001000001100010001010101010101010010000011000000 N
0M
11
0-
b11 (
#343
0R
b1010101010101010001000001111110001010101010101010010000011111000101010101010101000100000111101000101010101010101001000001111000010101010101010100010000011101100010101010101010100100000111010001010101010101010001000001110010001010101010101010010000011100000 N
b1010101010101010001000001111110001010101010101010010000011111000101010101010101000100000111101000101010101010101001000001111000010101010101010100010000011101100010101010101010100100000111010001010101010101010001000001110010001010101010101010010000011100000 .
1-
b1010101010101010001000001101110001010101010101010010000011011000101010101010101000100000110101000101010101010101001000001101000010101010101010100010000011001100010101010101010100100000110010001010101010101010001000001100010001010101010101010010000011000000 /
#344
b1010101010101010001000001111110001010101010101010010000011111000101010101010101000100000111101000101010101010101001000001111000010101010101010100010000011101100010101010101010100100000111010001010101010101010001000001110010001010101010101010010000011100000 /
0*
1R
01
#345
11
1*
b1010101010101010001000010001110001010101010101010010000100011000101010101010101000100001000101000101010101010101001000010001000010101010101010100010000100001100010101010101010100100001000010001010101010101010001000010000010001010101010101010010000100000000 N
0-
b1010101010101010001000010001110001010101010101010010000100011000101010101010101000100001000101000101010101010101001000010001000010101010101010100010000100001100010101010101010100100001000010001010101010101010001000010000010001010101010101010010000100000000 .
#346
b1010101010101010001000010011110001010101010101010010000100111000101010101010101000100001001101000101010101010101001000010011000010101010101010100010000100101100010101010101010100100001001010001010101010101010001000010010010001010101010101010010000100100000 .
b1010101010101010001000010001110001010101010101010010000100011000101010101010101000100001000101000101010101010101001000010001000010101010101010100010000100001100010101010101010100100001000010001010101010101010001000010000010001010101010101010010000100000000 /
1-
0R
b1010101010101010001000010011110001010101010101010010000100111000101010101010101000100001001101000101010101010101001000010011000010101010101010100010000100101100010101010101010100100001001010001010101010101010001000010010010001010101010101010010000100100000 N
#347
01
0*
1R
b1010101010101010001000010011110001010101010101010010000100111000101010101010101000100001001101000101010101010101001000010011000010101010101010100010000100101100010101010101010100100001001010001010101010101010001000010010010001010101010101010010000100100000 /
#348
11
b1010101010101010001000010101110001010101010101010010000101011000101010101010101000100001010101000101010101010101001000010101000010101010101010100010000101001100010101010101010100100001010010001010101010101010001000010100010001010101010101010010000101000000 .
b1010101010101010001000010101110001010101010101010010000101011000101010101010101000100001010101000101010101010101001000010101000010101010101010100010000101001100010101010101010100100001010010001010101010101010001000010100010001010101010101010010000101000000 N
1*
0-
#349
1-
b1010101010101010001000010111110001010101010101010010000101111000101010101010101000100001011101000101010101010101001000010111000010101010101010100010000101101100010101010101010100100001011010001010101010101010001000010110010001010101010101010010000101100000 .
b1010101010101010001000010101110001010101010101010010000101011000101010101010101000100001010101000101010101010101001000010101000010101010101010100010000101001100010101010101010100100001010010001010101010101010001000010100010001010101010101010010000101000000 /
0R
b1010101010101010001000010111110001010101010101010010000101111000101010101010101000100001011101000101010101010101001000010111000010101010101010100010000101101100010101010101010100100001011010001010101010101010001000010110010001010101010101010010000101100000 N
#350
01
1R
0*
b1010101010101010001000010111110001010101010101010010000101111000101010101010101000100001011101000101010101010101001000010111000010101010101010100010000101101100010101010101010100100001011010001010101010101010001000010110010001010101010101010010000101100000 /
#351
b1010101010101010001000011001110001010101010101010010000110011000101010101010101000100001100101000101010101010101001000011001000010101010101010100010000110001100010101010101010100100001100010001010101010101010001000011000010001010101010101010010000110000000 N
0-
b1010101010101010001000011001110001010101010101010010000110011000101010101010101000100001100101000101010101010101001000011001000010101010101010100010000110001100010101010101010100100001100010001010101010101010001000011000010001010101010101010010000110000000 .
1*
11
#352
1-
b1010101010101010001000011001110001010101010101010010000110011000101010101010101000100001100101000101010101010101001000011001000010101010101010100010000110001100010101010101010100100001100010001010101010101010001000011000010001010101010101010010000110000000 /
b1010101010101010001000011011110001010101010101010010000110111000101010101010101000100001101101000101010101010101001000011011000010101010101010100010000110101100010101010101010100100001101010001010101010101010001000011010010001010101010101010010000110100000 N
b1010101010101010001000011011110001010101010101010010000110111000101010101010101000100001101101000101010101010101001000011011000010101010101010100010000110101100010101010101010100100001101010001010101010101010001000011010010001010101010101010010000110100000 .
0R
#353
1R
b1010101010101010001000011011110001010101010101010010000110111000101010101010101000100001101101000101010101010101001000011011000010101010101010100010000110101100010101010101010100100001101010001010101010101010001000011010010001010101010101010010000110100000 /
01
0*
#354
1*
0-
11
b1010101010101010001000011101110001010101010101010010000111011000101010101010101000100001110101000101010101010101001000011101000010101010101010100010000111001100010101010101010100100001110010001010101010101010001000011100010001010101010101010010000111000000 .
b1010101010101010001000011101110001010101010101010010000111011000101010101010101000100001110101000101010101010101001000011101000010101010101010100010000111001100010101010101010100100001110010001010101010101010001000011100010001010101010101010010000111000000 N
#355
b1010101010101010001000011111110001010101010101010010000111111000101010101010101000100001111101000101010101010101001000011111000010101010101010100010000111101100010101010101010100100001111010001010101010101010001000011110010001010101010101010010000111100000 N
0R
b1010101010101010001000011101110001010101010101010010000111011000101010101010101000100001110101000101010101010101001000011101000010101010101010100010000111001100010101010101010100100001110010001010101010101010001000011100010001010101010101010010000111000000 /
b1010101010101010001000011111110001010101010101010010000111111000101010101010101000100001111101000101010101010101001000011111000010101010101010100010000111101100010101010101010100100001111010001010101010101010001000011110010001010101010101010010000111100000 .
1-
#356
1R
0*
b1010101010101010001000011111110001010101010101010010000111111000101010101010101000100001111101000101010101010101001000011111000010101010101010100010000111101100010101010101010100100001111010001010101010101010001000011110010001010101010101010010000111100000 /
01
#357
11
0-
b1010101010101010001000100001110001010101010101010010001000011000101010101010101000100010000101000101010101010101001000100001000010101010101010100010001000001100010101010101010100100010000010001010101010101010001000100000010001010101010101010010001000000000 N
b1010101010101010001000100001110001010101010101010010001000011000101010101010101000100010000101000101010101010101001000100001000010101010101010100010001000001100010101010101010100100010000010001010101010101010001000100000010001010101010101010010001000000000 .
1F
1*
1P
#358
0P
1-
0R
b1010101010101010001000011011110001010101010101010010000110111000101010101010101000100001101101000101010101010101001000011011000010101010101010100010000110101100010101010101010100100001101010001010101010101010001000011010010001010101010101010010000110100000 N
b1010101010101010001000100001110001010101010101010010001000011000101010101010101000100010000101000101010101010101001000100001000010101010101010100010001000001100010101010101010100100010000010001010101010101010001000100000010001010101010101010010001000000000 /
10
0F
b1010101010101010001000011011110001010101010101010010000110111000101010101010101000100001101101000101010101010101001000011011000010101010101010100010000110101100010101010101010100100001101010001010101010101010001000011010010001010101010101010010000110100000 .
#359
01
02
0*
00
b0 +
b1010101010101010001000011011110001010101010101010010000110111000101010101010101000100001101101000101010101010101001000011011000010101010101010100010000110101100010101010101010100100001101010001010101010101010001000011010010001010101010101010010000110100000 /
#360
0-
#361
b11 O
b0 .
b0 N
#362
1R
#363
0R
1)
b11 ,
11
b1010101010101010010100000101110001010101010101010101000001011000101010101010101001010000010101000101010101010101010100000101000010101010101010100101000001001100010101010101010101010000010010001010101010101010010100000100010001010101010101010101000001000000 N
b1010101010101010010100000101110001010101010101010101000001011000101010101010101001010000010101000101010101010101010100000101000010101010101010100101000001001100010101010101010101010000010010001010101010101010010100000100010001010101010101010101000001000000 .
b1000 +
1*
#364
0*
1R
0)
b1 `
01
b1 X
#365
b0 X
1*
11
b1010101010101010010100000111110001010101010101010101000001111000101010101010101001010000011101000101010101010101010100000111000010101010101010100101000001101100010101010101010101010000011010001010101010101010010100000110010001010101010101010101000001100000 N
b0 `
b1010101010101010010100000111110001010101010101010101000001111000101010101010101001010000011101000101010101010101010100000111000010101010101010100101000001101100010101010101010101010000011010001010101010101010010100000110010001010101010101010101000001100000 .
#366
b1010101010101010010100001001110001010101010101010101000010011000101010101010101001010000100101000101010101010101010100001001000010101010101010100101000010001100010101010101010101010000100010001010101010101010010100001000010001010101010101010101000010000000 .
b1 ]
0R
b1010101010101010010100001001110001010101010101010101000010011000101010101010101001010000100101000101010101010101010100001001000010101010101010100101000010001100010101010101010101010000100010001010101010101010010100001000010001010101010101010101000010000000 N
b10001000000000111100001000000000000000001010000000000001111000110000000000000000001000000000000011110010000000000000000000101000000000000111100110 Y
#367
b0 ]
b0 T
1_
b10001000000000 Z
1E
b0 I
b10001000000000 B
0*
b0 \
1R
01
b10001000000000111100001 ^
b10001000000000 @
#368
1M
0E
b1010101010101010010100001011110001010101010101010101000010111000101010101010101001010000101101000101010101010101010100001011000010101010101010100101000010101100010101010101010101010000101010001010101010101010010100001010010001010101010101010101000010100000 .
1L
0_
b10001000000000 H
b1010101010101010010100001011110001010101010101010101000010111000101010101010101001010000101101000101010101010101010100001011000010101010101010100101000010101100010101010101010101010000101010001010101010101010010100001010010001010101010101010101000010100000 N
11
1*
