src/rtl/mem_ctrl/test/waveform-27-5.vcd
$date
	Mon May 27 12:04:45 2024
$end
$version
	GTKWave Analyzer v3.3.104 (w)1999-2020 BSI
$end
$timescale
	1ns
$end
$scope module top $end
$var wire 1 \ RR_ARB_inst/o_rw_div $end
$var wire 4 Z RR_ARB_inst/o_burst_div[3:0] $end
$var wire 32 Y RR_ARB_inst/o_addr_div[31:0] $end
$var wire 4 [ RR_ARB_inst/o_port_div[3:0] $end
$var wire 164 X RR_ARB_inst/in_data_div[163:0] $end
$var wire 4 ] RR_ARB_inst/r_valid[3:0] $end
$var wire 8 H NATIVE_AXI_inst/aid[7:0] $end
$var wire 1 L NATIVE_AXI_inst/avalid $end
$var wire 1 J NATIVE_AXI_inst/aready $end
$var wire 32 G NATIVE_AXI_inst/aaddr[31:0] $end
$var wire 8 S NATIVE_AXI_inst/wid[7:0] $end
$var wire 1 V NATIVE_AXI_inst/wvalid $end
$var wire 1 U NATIVE_AXI_inst/wready $end
$var wire 1 K NATIVE_AXI_inst/atype $end
$var wire 8 I NATIVE_AXI_inst/alen[7:0] $end
$var wire 1 D NATIVE_AXI_inst/RamWrStart $end
$var wire 1 C NATIVE_AXI_inst/RamRdStart $end
$var wire 1 " rst $end
$var wire 4 W RR_ARB_inst/grant[3:0] $end
$var wire 4 _ RR_ARB_inst/req_out[3:0] $end
$var wire 8 B NATIVE_AXI_inst/CfgWrBlen[7:0] $end
$var wire 8 @ NATIVE_AXI_inst/CfgRdBLen[7:0] $end
$var wire 32 A NATIVE_AXI_inst/CfgWrAddr[31:0] $end
$var wire 32 ? NATIVE_AXI_inst/CfgRdAddr[31:0] $end
$var wire 256 > Mux_inst/w_odata_sel[255:0] $end
$var wire 4 & ID_MANAGER_inst/select[3:0] $end
$var wire 4 * ID_manager_rd_inst/select_rd[3:0] $end
$var wire 8 N NATIVE_AXI_inst/rid[7:0] $end
$var wire 1 Q NATIVE_AXI_inst/rvalid $end
$var wire 1 P NATIVE_AXI_inst/rready $end
$var wire 256 M NATIVE_AXI_inst/rdata[255:0] $end
$var wire 256 R NATIVE_AXI_inst/wdata[255:0] $end
$var wire 1 ' ID_MANAGER_inst/w_en_ack $end
$var wire 8 ( ID_manager_rd_inst/current_sent[7:0] $end
$var wire 8 + ID_manager_rd_inst/stored_rd_id[7:0] $end
$var wire 1 ) ID_manager_rd_inst/r_en_ack $end
$var wire 1 T NATIVE_AXI_inst/wlast $end
$var wire 1 O NATIVE_AXI_inst/rlast $end
$var wire 1 - Mem_Rd_inst_1/rvalid_rd $end
$var wire 1 4 Mem_ctrl_wr_1/select $end
$var wire 1 : Mem_ctrl_wr_2/select $end
$var wire 1 2 Mem_ctrl_wr_1/WriteEn $end
$var wire 1 8 Mem_ctrl_wr_2/WriteEn $end
$var wire 1 # wr_axi_valid $end
$var wire 1 $ wr_axi_last $end
$var wire 1 , Mem_Rd_inst_1/select_rd $end
$var wire 1 E NATIVE_AXI_inst/Rd_ctrl_inst/DataRdEnd $end
$var wire 1 1 Mem_Rd_inst_1/data_valid $end
$var wire 1 F NATIVE_AXI_inst/Rd_ctrl_inst/DataRdReady $end
$var wire 5 3 Mem_ctrl_wr_1/count_blen[4:0] $end
$var wire 1 6 Mem_ctrl_wr_1/wready_w $end
$var wire 1 < Mem_ctrl_wr_2/wready_w $end
$var wire 5 9 Mem_ctrl_wr_2/count_blen[4:0] $end
$var wire 1 = Mem_ctrl_wr_2/wvalid_w $end
$var wire 1 ; Mem_ctrl_wr_2/wlast_w $end
$var wire 1 5 Mem_ctrl_wr_1/wlast_w $end
$var wire 1 7 Mem_ctrl_wr_1/wvalid_w $end
$var wire 1 % DdrResetCtrl $end
$var wire 1 ^ RR_ARB_inst/req_manager_inst/valid_req $end
$var wire 256 / Mem_Rd_inst_1/rdata_in[255:0] $end
$var wire 256 0 Mem_Rd_inst_1/rdata_out[255:0] $end
$var wire 256 . Mem_Rd_inst_1/delay_rd[255:0] $end
$upscope $end
$enddefinitions $end
#0
$dumpvars
b1010101010101010010110011101110001010101010101010101100111011000101010101010101001011001110101000101010101010101010110011101000010101010101010100101100111001100010101010101010101011001110010001010101010101010010110011100010001010101010101010101100111000000 .
0,
b0 W
0'
b0 [
0\
b0 Z
b0 R
0L
0D
0T
b0 +
0C
b0 (
0)
1J
1"
b0 A
0:
b0 X
0O
0-
04
b0 G
b0 _
0$
08
b0 B
02
0#
b0 S
b0 @
b1010101010101010010110011101110001010101010101010101100111011000101010101010101001011001110101000101010101010101010110011101000010101010101010100101100111001100010101010101010101011001110010001010101010101010010110011100010001010101010101010101100111000000 M
b0 *
0F
b0 ]
0E
b0 Y
01
0V
b0 ?
b0 9
16
b0 >
b0 3
1<
1U
b0 &
b0 0
07
b0 H
0=
0;
05
0K
b11 N
b1010101010101010010110011101110001010101010101010101100111011000101010101010101001011001110101000101010101010101010110011101000010101010101010100101100111001100010101010101010101011001110010001010101010101010010110011100010001010101010101010101100111000000 /
0^
0Q
0%
0P
b0 I
$end
#252
b1 W
b1 _
#253
b0 _
b0 W
#254
b10000000000000111100001000000000000000000000000000000000000000000000000000000000000000000000000000000000000000000000000000000000000000000000000000 X
b1 ]
#255
b0 ]
b1111 Z
1\
1D
b10000000000000 A
b1111 B
b1111 @
b10000000000000 Y
b10000000000000 ?
1^
#256
0^
1L
0D
b1111 I
0\
b10000000000000 G
1K
#257
0K
b0 I
0L
b0 G
#258
14
b1 &
#261
12
b1 3
17
#262
1#
b10 3
1V
#263
b1010101010101010001000000101110001010101010101010010000001011000101010101010101000100000010101000101010101010101001000000101000010101010101010100010000001001100010101010101010100100000010010001010101010101010001000000100010001010101010101010010000001000000 R
b11 3
b1010101010101010001000000101110001010101010101010010000001011000101010101010101000100000010101000101010101010101001000000101000010101010101010100010000001001100010101010101010100100000010010001010101010101010001000000100010001010101010101010010000001000000 >
#264
b1010101010101010001000000111110001010101010101010010000001111000101010101010101000100000011101000101010101010101001000000111000010101010101010100010000001101100010101010101010100100000011010001010101010101010001000000110010001010101010101010010000001100000 >
b100 3
b1010101010101010001000000111110001010101010101010010000001111000101010101010101000100000011101000101010101010101001000000111000010101010101010100010000001101100010101010101010100100000011010001010101010101010001000000110010001010101010101010010000001100000 R
#265
b1010101010101010001000001001110001010101010101010010000010011000101010101010101000100000100101000101010101010101001000001001000010101010101010100010000010001100010101010101010100100000100010001010101010101010001000001000010001010101010101010010000010000000 R
b101 3
b1010101010101010001000001001110001010101010101010010000010011000101010101010101000100000100101000101010101010101001000001001000010101010101010100010000010001100010101010101010100100000100010001010101010101010001000001000010001010101010101010010000010000000 >
#266
b1010101010101010001000001011110001010101010101010010000010111000101010101010101000100000101101000101010101010101001000001011000010101010101010100010000010101100010101010101010100100000101010001010101010101010001000001010010001010101010101010010000010100000 >
b110 3
b1010101010101010001000001011110001010101010101010010000010111000101010101010101000100000101101000101010101010101001000001011000010101010101010100010000010101100010101010101010100100000101010001010101010101010001000001010010001010101010101010010000010100000 R
#267
b1010101010101010001000001101110001010101010101010010000011011000101010101010101000100000110101000101010101010101001000001101000010101010101010100010000011001100010101010101010100100000110010001010101010101010001000001100010001010101010101010010000011000000 R
b111 3
b1010101010101010001000001101110001010101010101010010000011011000101010101010101000100000110101000101010101010101001000001101000010101010101010100010000011001100010101010101010100100000110010001010101010101010001000001100010001010101010101010010000011000000 >
#268
b1010101010101010001000001111110001010101010101010010000011111000101010101010101000100000111101000101010101010101001000001111000010101010101010100010000011101100010101010101010100100000111010001010101010101010001000001110010001010101010101010010000011100000 >
b1000 3
b1010101010101010001000001111110001010101010101010010000011111000101010101010101000100000111101000101010101010101001000001111000010101010101010100010000011101100010101010101010100100000111010001010101010101010001000001110010001010101010101010010000011100000 R
#269
b1010101010101010001000010001110001010101010101010010000100011000101010101010101000100001000101000101010101010101001000010001000010101010101010100010000100001100010101010101010100100001000010001010101010101010001000010000010001010101010101010010000100000000 R
b1001 3
b1010101010101010001000010001110001010101010101010010000100011000101010101010101000100001000101000101010101010101001000010001000010101010101010100010000100001100010101010101010100100001000010001010101010101010001000010000010001010101010101010010000100000000 >
#270
b1010101010101010001000010011110001010101010101010010000100111000101010101010101000100001001101000101010101010101001000010011000010101010101010100010000100101100010101010101010100100001001010001010101010101010001000010010010001010101010101010010000100100000 >
b1010 3
b1010101010101010001000010011110001010101010101010010000100111000101010101010101000100001001101000101010101010101001000010011000010101010101010100010000100101100010101010101010100100001001010001010101010101010001000010010010001010101010101010010000100100000 R
#271
b1010101010101010001000010101110001010101010101010010000101011000101010101010101000100001010101000101010101010101001000010101000010101010101010100010000101001100010101010101010100100001010010001010101010101010001000010100010001010101010101010010000101000000 R
b1011 3
b1010101010101010001000010101110001010101010101010010000101011000101010101010101000100001010101000101010101010101001000010101000010101010101010100010000101001100010101010101010100100001010010001010101010101010001000010100010001010101010101010010000101000000 >
#272
b1010101010101010001000010111110001010101010101010010000101111000101010101010101000100001011101000101010101010101001000010111000010101010101010100010000101101100010101010101010100100001011010001010101010101010001000010110010001010101010101010010000101100000 >
b1100 3
b1010101010101010001000010111110001010101010101010010000101111000101010101010101000100001011101000101010101010101001000010111000010101010101010100010000101101100010101010101010100100001011010001010101010101010001000010110010001010101010101010010000101100000 R
#273
b1010101010101010001000011001110001010101010101010010000110011000101010101010101000100001100101000101010101010101001000011001000010101010101010100010000110001100010101010101010100100001100010001010101010101010001000011000010001010101010101010010000110000000 R
b1101 3
b1010101010101010001000011001110001010101010101010010000110011000101010101010101000100001100101000101010101010101001000011001000010101010101010100010000110001100010101010101010100100001100010001010101010101010001000011000010001010101010101010010000110000000 >
#274
b1010101010101010001000011011110001010101010101010010000110111000101010101010101000100001101101000101010101010101001000011011000010101010101010100010000110101100010101010101010100100001101010001010101010101010001000011010010001010101010101010010000110100000 >
b1110 3
b1010101010101010001000011011110001010101010101010010000110111000101010101010101000100001101101000101010101010101001000011011000010101010101010100010000110101100010101010101010100100001101010001010101010101010001000011010010001010101010101010010000110100000 R
#275
b1010101010101010001000011101110001010101010101010010000111011000101010101010101000100001110101000101010101010101001000011101000010101010101010100010000111001100010101010101010100100001110010001010101010101010001000011100010001010101010101010010000111000000 R
b1111 3
b1010101010101010001000011101110001010101010101010010000111011000101010101010101000100001110101000101010101010101001000011101000010101010101010100010000111001100010101010101010100100001110010001010101010101010001000011100010001010101010101010010000111000000 >
#276
b1010101010101010001000011111110001010101010101010010000111111000101010101010101000100001111101000101010101010101001000011111000010101010101010100010000111101100010101010101010100100001111010001010101010101010001000011110010001010101010101010010000111100000 >
b10000 3
b1010101010101010001000011111110001010101010101010010000111111000101010101010101000100001111101000101010101010101001000011111000010101010101010100010000111101100010101010101010100100001111010001010101010101010001000011110010001010101010101010010000111100000 R
15
#277
05
07
1T
1$
b1010101010101010001000100001110001010101010101010010001000011000101010101010101000100010000101000101010101010101001000100001000010101010101010100010001000001100010101010101010100100010000010001010101010101010001000100000010001010101010101010010001000000000 R
b1010101010101010001000100001110001010101010101010010001000011000101010101010101000100010000101000101010101010101001000100001000010101010101010100010001000001100010101010101010100100010000010001010101010101010001000100000010001010101010101010010001000000000 >
b0 3
02
#278
0T
1'
0V
b0 &
0$
0#
04
b1010101010101010001000100011110001010101010101010010001000111000101010101010101000100010001101000101010101010101001000100011000010101010101010100010001000101100010101010101010100100010001010001010101010101010001000100010010001010101010101010010001000100000 >
b1010101010101010001000100011110001010101010101010010001000111000101010101010101000100010001101000101010101010101001000100011000010101010101010100010001000101100010101010101010100100010001010001010101010101010001000100010010001010101010101010010001000100000 R
#279
b0 R
b10 W
0'
b10 _
b0 >
#280
b0 W
b0 _
#281
b10 ]
b10000000000000111100001000000000000000001010000000000001111000110000000000000000000000000000000000000000000000000000000000000000000000000000000000 X
#282
b1 S
b1 [
b101000000000000 A
1^
1D
1\
b0 ]
b101000000000000 ?
b1 H
b101000000000000 Y
#283
0D
0^
1K
b101000000000000 G
b1111 I
0\
1L
#284
0L
b0 G
0K
b0 I
#285
1:
b10 &
#288
18
b1 9
1=
#289
1V
b10 9
1#
#290
b1010101010101010010100000101110001010101010101010101000001011000101010101010101001010000010101000101010101010101010100000101000010101010101010100101000001001100010101010101010101010000010010001010101010101010010100000100010001010101010101010101000001000000 >
b1010101010101010010100000101110001010101010101010101000001011000101010101010101001010000010101000101010101010101010100000101000010101010101010100101000001001100010101010101010101010000010010001010101010101010010100000100010001010101010101010101000001000000 R
b11 9
#291
b100 9
b1010101010101010010100000111110001010101010101010101000001111000101010101010101001010000011101000101010101010101010100000111000010101010101010100101000001101100010101010101010101010000011010001010101010101010010100000110010001010101010101010101000001100000 >
b1010101010101010010100000111110001010101010101010101000001111000101010101010101001010000011101000101010101010101010100000111000010101010101010100101000001101100010101010101010101010000011010001010101010101010010100000110010001010101010101010101000001100000 R
#292
b1010101010101010010100001001110001010101010101010101000010011000101010101010101001010000100101000101010101010101010100001001000010101010101010100101000010001100010101010101010101010000100010001010101010101010010100001000010001010101010101010101000010000000 R
b101 9
b1010101010101010010100001001110001010101010101010101000010011000101010101010101001010000100101000101010101010101010100001001000010101010101010100101000010001100010101010101010101010000100010001010101010101010010100001000010001010101010101010101000010000000 >
#293
b1010101010101010010100001011110001010101010101010101000010111000101010101010101001010000101101000101010101010101010100001011000010101010101010100101000010101100010101010101010101010000101010001010101010101010010100001010010001010101010101010101000010100000 >
b1010101010101010010100001011110001010101010101010101000010111000101010101010101001010000101101000101010101010101010100001011000010101010101010100101000010101100010101010101010101010000101010001010101010101010010100001010010001010101010101010101000010100000 R
b110 9
#294
b111 9
b1010101010101010010100001101110001010101010101010101000011011000101010101010101001010000110101000101010101010101010100001101000010101010101010100101000011001100010101010101010101010000110010001010101010101010010100001100010001010101010101010101000011000000 >
b1010101010101010010100001101110001010101010101010101000011011000101010101010101001010000110101000101010101010101010100001101000010101010101010100101000011001100010101010101010101010000110010001010101010101010010100001100010001010101010101010101000011000000 R
#295
b1010101010101010010100001111110001010101010101010101000011111000101010101010101001010000111101000101010101010101010100001111000010101010101010100101000011101100010101010101010101010000111010001010101010101010010100001110010001010101010101010101000011100000 R
b1000 9
b1010101010101010010100001111110001010101010101010101000011111000101010101010101001010000111101000101010101010101010100001111000010101010101010100101000011101100010101010101010101010000111010001010101010101010010100001110010001010101010101010101000011100000 >
#296
b1010101010101010010100010001110001010101010101010101000100011000101010101010101001010001000101000101010101010101010100010001000010101010101010100101000100001100010101010101010101010001000010001010101010101010010100010000010001010101010101010101000100000000 >
b1010101010101010010100010001110001010101010101010101000100011000101010101010101001010001000101000101010101010101010100010001000010101010101010100101000100001100010101010101010101010001000010001010101010101010010100010000010001010101010101010101000100000000 R
b1001 9
#297
b1010 9
b1010101010101010010100010011110001010101010101010101000100111000101010101010101001010001001101000101010101010101010100010011000010101010101010100101000100101100010101010101010101010001001010001010101010101010010100010010010001010101010101010101000100100000 >
b1010101010101010010100010011110001010101010101010101000100111000101010101010101001010001001101000101010101010101010100010011000010101010101010100101000100101100010101010101010101010001001010001010101010101010010100010010010001010101010101010101000100100000 R
#298
b1010101010101010010100010101110001010101010101010101000101011000101010101010101001010001010101000101010101010101010100010101000010101010101010100101000101001100010101010101010101010001010010001010101010101010010100010100010001010101010101010101000101000000 R
b1011 9
b1010101010101010010100010101110001010101010101010101000101011000101010101010101001010001010101000101010101010101010100010101000010101010101010100101000101001100010101010101010101010001010010001010101010101010010100010100010001010101010101010101000101000000 >
#299
b1010101010101010010100010111110001010101010101010101000101111000101010101010101001010001011101000101010101010101010100010111000010101010101010100101000101101100010101010101010101010001011010001010101010101010010100010110010001010101010101010101000101100000 >
b1010101010101010010100010111110001010101010101010101000101111000101010101010101001010001011101000101010101010101010100010111000010101010101010100101000101101100010101010101010101010001011010001010101010101010010100010110010001010101010101010101000101100000 R
b1100 9
#300
b1101 9
b1010101010101010010100011001110001010101010101010101000110011000101010101010101001010001100101000101010101010101010100011001000010101010101010100101000110001100010101010101010101010001100010001010101010101010010100011000010001010101010101010101000110000000 >
b1010101010101010010100011001110001010101010101010101000110011000101010101010101001010001100101000101010101010101010100011001000010101010101010100101000110001100010101010101010101010001100010001010101010101010010100011000010001010101010101010101000110000000 R
#301
b1010101010101010010100011011110001010101010101010101000110111000101010101010101001010001101101000101010101010101010100011011000010101010101010100101000110101100010101010101010101010001101010001010101010101010010100011010010001010101010101010101000110100000 R
b1110 9
b1010101010101010010100011011110001010101010101010101000110111000101010101010101001010001101101000101010101010101010100011011000010101010101010100101000110101100010101010101010101010001101010001010101010101010010100011010010001010101010101010101000110100000 >
#302
b1010101010101010010100011101110001010101010101010101000111011000101010101010101001010001110101000101010101010101010100011101000010101010101010100101000111001100010101010101010101010001110010001010101010101010010100011100010001010101010101010101000111000000 >
b1010101010101010010100011101110001010101010101010101000111011000101010101010101001010001110101000101010101010101010100011101000010101010101010100101000111001100010101010101010101010001110010001010101010101010010100011100010001010101010101010101000111000000 R
b1111 9
#303
b10000 9
b1010101010101010010100011111110001010101010101010101000111111000101010101010101001010001111101000101010101010101010100011111000010101010101010100101000111101100010101010101010101010001111010001010101010101010010100011110010001010101010101010101000111100000 >
b1010101010101010010100011111110001010101010101010101000111111000101010101010101001010001111101000101010101010101010100011111000010101010101010100101000111101100010101010101010101010001111010001010101010101010010100011110010001010101010101010101000111100000 R
0<
06
0U
08
#304
18
1U
b1010101010101010010100100001110001010101010101010101001000011000101010101010101001010010000101000101010101010101010100100001000010101010101010100101001000001100010101010101010101010010000010001010101010101010010100100000010001010101010101010101001000000000 R
b1010101010101010010100100001110001010101010101010101001000011000101010101010101001010010000101000101010101010101010100100001000010101010101010100101001000001100010101010101010101010010000010001010101010101010010100100000010001010101010101010101001000000000 >
16
1;
1<
#305
b0 9
0=
1T
0;
1$
08
#306
0<
b0 &
0#
1'
0$
0U
0:
0T
06
b1010101010101010010100100011110001010101010101010101001000111000101010101010101001010010001101000101010101010101010100100011000010101010101010100101001000101100010101010101010101010010001010001010101010101010010100100010010001010101010101010101001000100000 R
0V
b1010101010101010010100100011110001010101010101010101001000111000101010101010101001010010001101000101010101010101010100100011000010101010101010100101001000101100010101010101010101010010001010001010101010101010010100100010010001010101010101010101001000100000 >
#307
b0 >
b100 _
1<
1U
0'
b100 W
b0 R
16
#308
b0 _
b0 W
#309
b10000000000000111100001000000000000000001010000000000001111000110000000000000000001000000000000011110010000000000000000000000000000000000000000000 X
b100 ]
#310
b0 ]
b10 S
1C
b10000000000000 A
b10 [
1^
b10000000000000 Y
b10 H
b10000000000000 ?
#311
0^
1L
b1111 I
b10000000000000 G
0C
1P
1F
#312
b10 (
0L
#334
b1010101010101010010010011101110001010101010101010101000001011000001000000000000000000000000100000000000000000000000000000000000000000000000000000000000000000000000100000000000000000000000000000000000000000000010010010000010000010101000101010101100011000000 M
b1010101010101010010010011101110001010101010101010101000001011000001000000000000000000000000100000000000000000000000000000000000000000000000000000000000000000000000100000000000000000000000000000000000000000000010010010000010000010101000101010101100011000000 /
#335
b0 /
b1010101010101010010010011101110001010101010101010101000001011000001000000000000000000000000100000000000000000000000000000000000000000000000000000000000000000000000100000000000000000000000000000000000000000000010010010000010000010101000101010101100011000000 .
b0 M
b10 N
#336
b0 .
1Q
#337
0Q
b1010101010101010001000000101110001010101010101010010000001011000101010101010101000100000010101000101010101010101001000000101000010101010101010100010000001001100010101010101010100100000010010001010101010101010001000000100010001010101010101010010000001000000 /
1)
1,
b10 +
1-
b100 *
b1010101010101010001000000101110001010101010101010010000001011000101010101010101000100000010101000101010101010101001000000101000010101010101010100010000001001100010101010101010100100000010010001010101010101010001000000100010001010101010101010010000001000000 M
#338
0)
1Q
b1000 W
b1010101010101010001000000101110001010101010101010010000001011000101010101010101000100000010101000101010101010101001000000101000010101010101010100010000001001100010101010101010100100000010010001010101010101010001000000100010001010101010101010010000001000000 .
11
0-
b1000 _
#339
b0 _
b1010101010101010001000000111110001010101010101010010000001111000101010101010101000100000011101000101010101010101001000000111000010101010101010100010000001101100010101010101010100100000011010001010101010101010001000000110010001010101010101010010000001100000 M
b1010101010101010001000000111110001010101010101010010000001111000101010101010101000100000011101000101010101010101001000000111000010101010101010100010000001101100010101010101010100100000011010001010101010101010001000000110010001010101010101010010000001100000 /
1-
b0 W
01
#340
11
b1010101010101010001000001001110001010101010101010010000010011000101010101010101000100000100101000101010101010101001000001001000010101010101010100010000010001100010101010101010100100000100010001010101010101010001000001000010001010101010101010010000010000000 M
0Q
b1000 ]
b1010101010101010001000001001110001010101010101010010000010011000101010101010101000100000100101000101010101010101001000001001000010101010101010100010000010001100010101010101010100100000100010001010101010101010001000001000010001010101010101010010000010000000 /
b1010101010101010001000000111110001010101010101010010000001111000101010101010101000100000011101000101010101010101001000000111000010101010101010100010000001101100010101010101010100100000011010001010101010101010001000000110010001010101010101010010000001100000 .
b1010101010101010001000000101110001010101010101010010000001011000101010101010101000100000010101000101010101010101001000000101000010101010101010100010000001001100010101010101010100100000010010001010101010101010001000000100010001010101010101010010000001000000 0
b10000000000000111100001000000000000000001010000000000001111000110000000000000000001000000000000011110010000000000000000000101000000000000111100110 X
#341
1Q
b101000000000000 ?
b11 [
b101000000000000 A
1^
b11 S
b1010101010101010001000000111110001010101010101010010000001111000101010101010101000100000011101000101010101010101001000000111000010101010101010100010000001101100010101010101010100100000011010001010101010101010001000000110010001010101010101010010000001100000 0
1C
b11 H
b1010101010101010001000001001110001010101010101010010000010011000101010101010101000100000100101000101010101010101001000001001000010101010101010100010000010001100010101010101010100100000100010001010101010101010001000001000010001010101010101010010000010000000 .
0-
b0 ]
b101000000000000 Y
#342
0^
b1010101010101010001000001011110001010101010101010010000010111000101010101010101000100000101101000101010101010101001000001011000010101010101010100010000010101100010101010101010100100000101010001010101010101010001000001010010001010101010101010010000010100000 M
b101000000000000 G
01
1-
b1010101010101010001000001011110001010101010101010010000010111000101010101010101000100000101101000101010101010101001000001011000010101010101010100010000010101100010101010101010100100000101010001010101010101010001000001010010001010101010101010010000010100000 /
0C
1L
#343
0L
b1010101010101010001000001101110001010101010101010010000011011000101010101010101000100000110101000101010101010101001000001101000010101010101010100010000011001100010101010101010100100000110010001010101010101010001000001100010001010101010101010010000011000000 M
b11 (
0Q
b1010101010101010001000001001110001010101010101010010000010011000101010101010101000100000100101000101010101010101001000001001000010101010101010100010000010001100010101010101010100100000100010001010101010101010001000001000010001010101010101010010000010000000 0
b1010101010101010001000001101110001010101010101010010000011011000101010101010101000100000110101000101010101010101001000001101000010101010101010100010000011001100010101010101010100100000110010001010101010101010001000001100010001010101010101010010000011000000 /
11
b1010101010101010001000001011110001010101010101010010000010111000101010101010101000100000101101000101010101010101001000001011000010101010101010100010000010101100010101010101010100100000101010001010101010101010001000001010010001010101010101010010000010100000 .
#344
b1010101010101010001000001101110001010101010101010010000011011000101010101010101000100000110101000101010101010101001000001101000010101010101010100010000011001100010101010101010100100000110010001010101010101010001000001100010001010101010101010010000011000000 .
1Q
b1010101010101010001000001011110001010101010101010010000010111000101010101010101000100000101101000101010101010101001000001011000010101010101010100010000010101100010101010101010100100000101010001010101010101010001000001010010001010101010101010010000010100000 0
0-
#345
1-
b1010101010101010001000001111110001010101010101010010000011111000101010101010101000100000111101000101010101010101001000001111000010101010101010100010000011101100010101010101010100100000111010001010101010101010001000001110010001010101010101010010000011100000 M
b1010101010101010001000001111110001010101010101010010000011111000101010101010101000100000111101000101010101010101001000001111000010101010101010100010000011101100010101010101010100100000111010001010101010101010001000001110010001010101010101010010000011100000 /
01
#346
11
b1010101010101010001000010001110001010101010101010010000100011000101010101010101000100001000101000101010101010101001000010001000010101010101010100010000100001100010101010101010100100001000010001010101010101010001000010000010001010101010101010010000100000000 /
b1010101010101010001000010001110001010101010101010010000100011000101010101010101000100001000101000101010101010101001000010001000010101010101010100010000100001100010101010101010100100001000010001010101010101010001000010000010001010101010101010010000100000000 M
0Q
b1010101010101010001000001101110001010101010101010010000011011000101010101010101000100000110101000101010101010101001000001101000010101010101010100010000011001100010101010101010100100000110010001010101010101010001000001100010001010101010101010010000011000000 0
b1010101010101010001000001111110001010101010101010010000011111000101010101010101000100000111101000101010101010101001000001111000010101010101010100010000011101100010101010101010100100000111010001010101010101010001000001110010001010101010101010010000011100000 .
#347
b1010101010101010001000010001110001010101010101010010000100011000101010101010101000100001000101000101010101010101001000010001000010101010101010100010000100001100010101010101010100100001000010001010101010101010001000010000010001010101010101010010000100000000 .
0-
b1010101010101010001000001111110001010101010101010010000011111000101010101010101000100000111101000101010101010101001000001111000010101010101010100010000011101100010101010101010100100000111010001010101010101010001000001110010001010101010101010010000011100000 0
1Q
#348
1-
01
b1010101010101010001000010011110001010101010101010010000100111000101010101010101000100001001101000101010101010101001000010011000010101010101010100010000100101100010101010101010100100001001010001010101010101010001000010010010001010101010101010010000100100000 M
b1010101010101010001000010011110001010101010101010010000100111000101010101010101000100001001101000101010101010101001000010011000010101010101010100010000100101100010101010101010100100001001010001010101010101010001000010010010001010101010101010010000100100000 /
#349
b1010101010101010001000010101110001010101010101010010000101011000101010101010101000100001010101000101010101010101001000010101000010101010101010100010000101001100010101010101010100100001010010001010101010101010001000010100010001010101010101010010000101000000 /
b1010101010101010001000010011110001010101010101010010000100111000101010101010101000100001001101000101010101010101001000010011000010101010101010100010000100101100010101010101010100100001001010001010101010101010001000010010010001010101010101010010000100100000 .
b1010101010101010001000010101110001010101010101010010000101011000101010101010101000100001010101000101010101010101001000010101000010101010101010100010000101001100010101010101010100100001010010001010101010101010001000010100010001010101010101010010000101000000 M
11
b1010101010101010001000010001110001010101010101010010000100011000101010101010101000100001000101000101010101010101001000010001000010101010101010100010000100001100010101010101010100100001000010001010101010101010001000010000010001010101010101010010000100000000 0
0Q
#350
1Q
b1010101010101010001000010011110001010101010101010010000100111000101010101010101000100001001101000101010101010101001000010011000010101010101010100010000100101100010101010101010100100001001010001010101010101010001000010010010001010101010101010010000100100000 0
b1010101010101010001000010101110001010101010101010010000101011000101010101010101000100001010101000101010101010101001000010101000010101010101010100010000101001100010101010101010100100001010010001010101010101010001000010100010001010101010101010010000101000000 .
0-
#351
1-
b1010101010101010001000010111110001010101010101010010000101111000101010101010101000100001011101000101010101010101001000010111000010101010101010100010000101101100010101010101010100100001011010001010101010101010001000010110010001010101010101010010000101100000 /
01
b1010101010101010001000010111110001010101010101010010000101111000101010101010101000100001011101000101010101010101001000010111000010101010101010100010000101101100010101010101010100100001011010001010101010101010001000010110010001010101010101010010000101100000 M
#352
b1010101010101010001000011001110001010101010101010010000110011000101010101010101000100001100101000101010101010101001000011001000010101010101010100010000110001100010101010101010100100001100010001010101010101010001000011000010001010101010101010010000110000000 M
11
b1010101010101010001000011001110001010101010101010010000110011000101010101010101000100001100101000101010101010101001000011001000010101010101010100010000110001100010101010101010100100001100010001010101010101010001000011000010001010101010101010010000110000000 /
b1010101010101010001000010101110001010101010101010010000101011000101010101010101000100001010101000101010101010101001000010101000010101010101010100010000101001100010101010101010100100001010010001010101010101010001000010100010001010101010101010010000101000000 0
b1010101010101010001000010111110001010101010101010010000101111000101010101010101000100001011101000101010101010101001000010111000010101010101010100010000101101100010101010101010100100001011010001010101010101010001000010110010001010101010101010010000101100000 .
0Q
#353
1Q
0-
b1010101010101010001000011001110001010101010101010010000110011000101010101010101000100001100101000101010101010101001000011001000010101010101010100010000110001100010101010101010100100001100010001010101010101010001000011000010001010101010101010010000110000000 .
b1010101010101010001000010111110001010101010101010010000101111000101010101010101000100001011101000101010101010101001000010111000010101010101010100010000101101100010101010101010100100001011010001010101010101010001000010110010001010101010101010010000101100000 0
#354
1-
b1010101010101010001000011011110001010101010101010010000110111000101010101010101000100001101101000101010101010101001000011011000010101010101010100010000110101100010101010101010100100001101010001010101010101010001000011010010001010101010101010010000110100000 M
b1010101010101010001000011011110001010101010101010010000110111000101010101010101000100001101101000101010101010101001000011011000010101010101010100010000110101100010101010101010100100001101010001010101010101010001000011010010001010101010101010010000110100000 /
01
#355
11
0Q
b1010101010101010001000011101110001010101010101010010000111011000101010101010101000100001110101000101010101010101001000011101000010101010101010100010000111001100010101010101010100100001110010001010101010101010001000011100010001010101010101010010000111000000 /
b1010101010101010001000011101110001010101010101010010000111011000101010101010101000100001110101000101010101010101001000011101000010101010101010100010000111001100010101010101010100100001110010001010101010101010001000011100010001010101010101010010000111000000 M
b1010101010101010001000011011110001010101010101010010000110111000101010101010101000100001101101000101010101010101001000011011000010101010101010100010000110101100010101010101010100100001101010001010101010101010001000011010010001010101010101010010000110100000 .
b1010101010101010001000011001110001010101010101010010000110011000101010101010101000100001100101000101010101010101001000011001000010101010101010100010000110001100010101010101010100100001100010001010101010101010001000011000010001010101010101010010000110000000 0
#356
b1010101010101010001000011011110001010101010101010010000110111000101010101010101000100001101101000101010101010101001000011011000010101010101010100010000110101100010101010101010100100001101010001010101010101010001000011010010001010101010101010010000110100000 0
b1010101010101010001000011101110001010101010101010010000111011000101010101010101000100001110101000101010101010101001000011101000010101010101010100010000111001100010101010101010100100001110010001010101010101010001000011100010001010101010101010010000111000000 .
1Q
0-
#357
1-
01
b1010101010101010001000011111110001010101010101010010000111111000101010101010101000100001111101000101010101010101001000011111000010101010101010100010000111101100010101010101010100100001111010001010101010101010001000011110010001010101010101010010000111100000 M
b1010101010101010001000011111110001010101010101010010000111111000101010101010101000100001111101000101010101010101001000011111000010101010101010100010000111101100010101010101010100100001111010001010101010101010001000011110010001010101010101010010000111100000 /
