src/rtl/mipi_stuff/test/la0_waveform.vcd
#0 $dumpon
$date today $end
$timescale 1 ns $end
$scope module top $end
$var wire 1 0 rstn $end
$var wire 32 1 dut6/mipi_fifo/wdata $end
$var wire 8 2 ddr_addr $end
$var wire 1 3 ren $end
$var wire 1 4 cpu_last $end
$var wire 1 5 fifo_status $end
$var wire 256 6 dram_in $end
$var wire 4 7 ddr_blen $end
$var wire 1 8 dispatch_cpu $end
$var wire 1 9 mipi_req $end
$var wire 1 a mipi_ready $end
$var wire 62 b fifo_in $end
$var wire 20 c mipi_data_size $end
$var wire 1 d o_mipi_ready $end
$var wire 10 e mipi_id $end
$var wire 1 f cpu_valid $end
$var wire 1 10 emptyflag $end
$var wire 1 11 ddr_valid $end
$var wire 1 12 ddr_last $end
$var wire 62 13 fifo_out $end
$var wire 1 14 wen $end
$var wire 10 15 w_id $end
$var wire 1 16 sel $end
$var wire 32 17 w_addr $end
$var wire 20 18 w_data_size $end
$var wire 1 19 valid_done $end
$var wire 1 1a start $end
$var wire 1 1b w_data_last $end
$var wire 20 1c dut6/dut2/data_size_count $end
$var wire 4 1d dut6/dut2/packet_count $end
$var wire 4 1e dut6/dut2/state $end
$var wire 32 1f dut6/dut2/data_out $end
$var wire 8 20 dut5/addr $end
$var wire 4 21 dut5/blen $end
$var wire 5 22 dut5/blen_counter $end
$var wire 4 23 dut5/count $end
$var wire 1 24 dut5/o_valid $end
$var wire 1 25 dut5/i_valid $end
$var wire 1 26 dut5/last $end
$var wire 1 27 dut5/data_last $end
$var wire 1 28 dut5/select $end
$var wire 4 29 dut5/state $end
$var wire 3 2a dut4/dut4/addr_counter $end
$var wire 8 2b dut4/dut4/addr $end
$var wire 4 2c dut4/dut4/blen $end
$var wire 1 2d dut4/dut4/last $end
$var wire 20 2e dut4/dut4/r_data_size $end
$var wire 4 2f dut4/dut4/state $end
$var wire 256 30 dut6/dut2/r_data_in $end
$var wire 1 31 dut6/dram_fifo/rd_en_i $end
$var wire 1 32 dut6/dram_fifo/wr_en_i $end
$var wire 256 33 dut6/dram_fifo/rdata $end
$var wire 256 34 dut6/dram_fifo/wdata $end
$var wire 1 35 dut6/dram_fifo/o_valid $end
$var wire 1 36 config_done $end
$var wire 1 37 dut6/fullflag $end
$upscope $end
$enddefinitions $end
#0
$dumpvars
00
b00000000000000000000000000000000 1
b00000000 2
03
04
05
b0000000000000000000000000000000000000000000000000000000000000000000000000000000000000000000000000000000000000000000000000000000000000000000000000000000000000000000000000000000000000000000000000000000000000000000000000000000000000000000000000000000000000000 6
b0000 7
18
09
0a
b00000000000000000000000000000000000000000000000000000000000000 b
b00000000000000000000 c
0d
b0000000000 e
0f
110
011
012
b00000000000000000101000000000000000000000010000000000000000010 13
014
b0000000000 15
016
b00000000000000000000000000000000 17
b00000000000000000000 18
019
01a
01b
b00000000000000000000 1c
b0000 1d
b0000 1e
b00000000000000000000000000000000 1f
b00000000 20
b0000 21
b00000 22
b0000 23
024
025
026
027
028
b0000 29
b000 2a
b00000000 2b
b0000 2c
02d
b00000000000000000000 2e
b0000 2f
b0000000000000000000000000000000000000000000000000000000000000000000000000000000000000000000000000000000000000000000000000000000000000000000000000000000000000000000000000000000000000000000000000000000000000000000000000000000000000000000000000000000000000000 30
031
032
b1110001011110010110101001010101001100001110000010110101101110001011110111000110000100000011100110110111100001001101010010110110000110011110100010111010010001110110111111001110110000010011011101000100111010000110001110010110011110000101011100010100000101010 33
b0000000000000000000000000000000000000000000000000000000000000000000000000000000000000000000000000000000000000000000000000000000000000000000000000000000000000000000000000000000000000000000000000000000000000000000000000000000000000000000000000000000000000000 34
035
036
037
$end
#512
10
#513
1a
b00000000000000000010000000000000000000000011111010000000000001 b
1d
114
#514
b00000000000000000101000000000000000000000010000000000000000010 b
010
#515
13
b00000000000000001000000000000000000000000001000000000000000011 b
#516
03
b00000000000000000010000000000000000000000011111010000000000001 13
014
119
11a
#517
b0000000001 15
b00000000000000000010000000000000 17
b00000000001111101000 18
01a
#518
13
019
#519
03
b00000000000000000101000000000000000000000010000000000000000010 13
119
11a
#520
b0000000010 15
b00000000000000000101000000000000 17
b00000000001000000000 18
01a
#521
13
019
#522
03
110
b00000000000000001000000000000000000000000001000000000000000011 13
119
11a
#523
b0000000011 15
b00000000000000001000000000000000 17
b00000000000100000000 18
01a
#524
019
#525
19
b00000000001000000000 c
b0000000010 e
#526
09
b00000000001000000000 1c
b0001 1e
b00000000001000000000 2e
b0001 2f
#527
0a
0d
b0010 2f
#528
b1111 7
111
b1111 21
125
b001 2a
b1111 2c
#529
b010 2a
#530
b01010000 2
b01010000 20
b011 2a
b01010000 2b
#531
b00000000 2
112
b00000000 20
126
b100 2a
b00000000 2b
12d
b00000000000000000000 2e
#532
011
012
025
026
b0001 29
b000 2a
02d
b0011 2f
#533
b0001 23
#534
b0010 23
#535
b0011 23
#536
b0100 23
#537
b0101 23
#538
b0110 23
#539
b0111 23
#540
b0000 23
b0010 29
#541
b1110010111011101011000011111001010011001101011110100000011100110100100111110101000100100010001011110111011010010101000100101111001111110100111010011000011001000110100011000001111010010011011011011101111111000100100111011100100101100100000000101000010101010 6
1f
116
b00001 22
124
128
#542
b0000000010001010000101100111000111100011110010011011000111100100100110110111010110000000100111101111101111010000011010110000010101101000111010111001111110001001011011101101000100100000101011010001001101101001111101000110001110101011110101001111010111100001 6
b00010 22
132
b1110010111011101011000011111001010011001101011110100000011100110100100111110101000100100010001011110111011010010101000100101111001111110100111010011000011001000110100011000001111010010011011011011101111111000100100111011100100101100100000000101000010101010 34
#543
b1110001011110010110101001010101001100001110000010110101101110001011110111000110000100000011100110110111100001001101010010110110000110011110100010111010010001110110111111001110110000010011011101000100111010000110001110010110011110000101011100010100000101010 6
b00011 22
b0000000010001010000101100111000111100011110010011011000111100100100110110111010110000000100111101111101111010000011010110000010101101000111010111001111110001001011011101101000100100000101011010001001101101001111101000110001110101011110101001111010111100001 34
#544
b11111111111111111111111111111111 1
b1100011001111010011010111101110110111100111100110011000001110100010000100110011011000110111001011011100001010110110110010001100101110001101000001100010000110000000000101111010111100011110001101111000010001110110101111011101011010011110111100110111100010010 6
b0010 1e
b11111111111111111111111111111111 1f
b00100 22
b1110001011110010110101001010101001100001110000010110101101110001011110111000110000100000011100110110111100001001101010010110110000110011110100010111010010001110110111111001110110000010011011101000100111010000110001110010110011110000101011100010100000101010 34
#545
b00000000000000000000001000000000 1
b1110000010000111111000110011100110101111001010101000111110011100111001111110111010010101101101010000111010011000111110101100001101000011100110000110001001010001000110001110010101010010001011100000010001111010101000001111110001001001100111100011000111101001 6
b0011 1e
b00000000000000000000001000000000 1f
b00101 22
b1100011001111010011010111101110110111100111100110011000001110100010000100110011011000110111001011011100001010110110110010001100101110001101000001100010000110000000000101111010111100011110001101111000010001110110101111011101011010011110111100110111100010010 34
#546
b00000000000000000000000000000010 1
b1111110101010101111101111110101001100001001101010111100110101001010100111010111101011010010100000000000111011000001011110110111101011101101011111011001111111010001111001101010101100110111100010111100001110000000001001110110000010010110001110101000010001010 6
b0100 1e
b00000000000000000000000000000010 1f
b00110 22
131
b1110000010000111111000110011100110101111001010101000111110011100111001111110111010010101101101010000111010011000111110101100001101000011100110000110001001010001000110001110010101010010001011100000010001111010101000001111110001001001100111100011000111101001 34
#547
b1000001011010000101010000010111010001111111100000001001111101100111000011010101111100001010110111101011111010100011001001111101111011110101010001110000100101101111010101111010101010101100011011101010010100000010011100000001000001000000100101111110101101111 6
b00111 22
031
b1110010111011101011000011111001010011001101011110100000011100110100100111110101000100100010001011110111011010010101000100101111001111110100111010011000011001000110100011000001111010010011011011011101111111000100100111011100100101100100000000101000010101010 33
b1111110101010101111101111110101001100001001101010111100110101001010100111010111101011010010100000000000111011000001011110110111101011101101011111011001111111010001111001101010101100110111100010111100001110000000001001110110000010010110001110101000010001010 34
135
#548
b1101110110000100011001000001111000111000111000011100111111001010001100010000110111100011010011111111001000110101010011000010100001001110111010110001110001010010111111010010101111101110010100111011010111100000101000011001100001111011110100001100001010100001 6
b0101 1e
b01000 22
b1110010111011101011000011111001010011001101011110100000011100110100100111110101000100100010001011110111011010010101000100101111001111110100111010011000011001000110100011000001111010010011011011011101111111000100100111011100100101100100000000101000010101010 30
b1000001011010000101010000010111010001111111100000001001111101100111000011010101111100001010110111101011111010100011001001111101111011110101010001110000100101101111010101111010101010101100011011101010010100000010011100000001000001000000100101111110101101111 34
035
#549
b11100101110111010110000111110010 1
b0010010011101111110001010110111101111001000001110011111011010010001110001101011011011100110100111110011011111110100011010001000000000000011100011000100110001110111100111100100110000010111010010100111111000110100010110101011011111111101000111111111100010100 6
b0001 1d
b11100101110111010110000111110010 1f
b01001 22
b1101110110000100011001000001111000111000111000011100111111001010001100010000110111100011010011111111001000110101010011000010100001001110111010110001110001010010111111010010101111101110010100111011010111100000101000011001100001111011110100001100001010100001 34
#550
b10011001101011110100000011100110 1
b1010110001111100011110100100101001011011101001111110110011000001101110000010001100010001001110100110010110011011011010001011101101001100101111000000110011101001110101011010101001000000111001001010011010011011011000010001110100010101101100010101100000001100 6
b0010 1d
b10011001101011110100000011100110 1f
b01010 22
b0010010011101111110001010110111101111001000001110011111011010010001110001101011011011100110100111110011011111110100011010001000000000000011100011000100110001110111100111100100110000010111010010100111111000110100010110101011011111111101000111111111100010100 34
#551
b10010011111010100010010001000101 1
b1011000101001101101010111010101100010010001011100010101110100000100011001011010001101000010001111111000000111001110011000001000110110010001010101100000001101101011100101001010101011101000000101010101110011001101000101111100001101101100100010101000010110001 6
b0011 1d
b10010011111010100010010001000101 1f
b01011 22
b1010110001111100011110100100101001011011101001111110110011000001101110000010001100010001001110100110010110011011011010001011101101001100101111000000110011101001110101011010101001000000111001001010011010011011011000010001110100010101101100010101100000001100 34
#552
b11101110110100101010001001011110 1
b1100110011100101110001110010100010011101100100101001100010111010111100101111001010001101001001011110100000010111011010101101010111110110111011001000110100111001000010110000111011010011010101100000000000011101110111001010000011100000101101101111000000111001 6
b0100 1d
b11101110110100101010001001011110 1f
b01100 22
b1011000101001101101010111010101100010010001011100010101110100000100011001011010001101000010001111111000000111001110011000001000110110010001010101100000001101101011100101001010101011101000000101010101110011001101000101111100001101101100100010101000010110001 34
#553
b01111110100111010011000011001000 1
b0010010010110110001100100011111111000110101000001001001001111100110111011100111001100101111100010111101111101001100010001110111000110001010111110001100000101011110001110111111100000110110111001011100010001111011101011110010001101110011000010011000011010011 6
b0101 1d
b01111110100111010011000011001000 1f
b01101 22
b1100110011100101110001110010100010011101100100101001100010111010111100101111001010001101001001011110100000010111011010101101010111110110111011001000110100111001000010110000111011010011010101100000000000011101110111001010000011100000101101101111000000111001 34
#554
b11010001100000111101001001101101 1
b1101100111010011000011000101000100101000001001111011100010010110001011011111010101100110110010101011000010011111001000110110110010110110000011000001010100011101101111010110111111110010000111111000011111100100011000111110001110110011101000111011000010011110 6
b0110 1d
b11010001100000111101001001101101 1f
b01110 22
b0010010010110110001100100011111111000110101000001001001001111100110111011100111001100101111100010111101111101001100010001110111000110001010111110001100000101011110001110111111100000110110111001011100010001111011101011110010001101110011000010011000011010011 34
#555
b10111011111110001001001110111001 1
b1011001011011101100110110001101111110000000110100010101000101110010100010010101101111001001001110101100101101010011100100110101110001100000000100110000100011101100100101001110100101100001100110110000110100110010010011010000101111011001101001111101001011101 6
b0111 1d
b10111011111110001001001110111001 1f
b01111 22
b1101100111010011000011000101000100101000001001111011100010010110001011011111010101100110110010101011000010011111001000110110110010110110000011000001010100011101101111010110111111110010000111111000011111100100011000111110001110110011101000111011000010011110 34
#556
b00101100100000000101000010101010 1
b0000100100000110100101011011101100000011111110010000010100111011011101001010010001100011110011111001001001011001001010100001100001011011111010110110101100110100101010111000011100001010100101011010010110111011001011011011101010000000100110100110011010110000 6
b00000000000111100000 1c
b1000 1d
b00101100100000000101000010101010 1f
b10000 22
b1011001011011101100110110001101111110000000110100010101000101110010100010010101101111001001001110101100101101010011100100110101110001100000000100110000100011101100100101001110100101100001100110110000110100110010010011010000101111011001101001111101001011101 34
#557
14
b0010100011000101011101110100100010001110111100100100010110001000111100010001110111100000010101110111011110010101100011100010101011110000010001010010011111100100101100110110000100010101111011100101110111000001101100000010000010100110010110000111100011010011 6
b0000 1d
b0110 1e
b10001 22
127
b0000100100000110100101011011101100000011111110010000010100111011011101001010010001100011110011111001001001011001001010100001100001011011111010110110101100110100101010111000011100001010100101011010010110111011001011011011101010000000100110100110011010110000 34
#558
04
0f
016
11b
b0100 1e
b00000 22
024
027
028
b0000 29
131
b0010100011000101011101110100100010001110111100100100010110001000111100010001110111100000010101110111011110010101100011100010101011110000010001010010011111100100101100110110000100010101111011100101110111000001101100000010000010100110010110000111100011010011 34
#559
01b
b0000 2f
031
032
b0000000010001010000101100111000111100011110010011011000111100100100110110111010110000000100111101111101111010000011010110000010101101000111010111001111110001001011011101101000100100000101011010001001101101001111101000110001110101011110101001111010111100001 33
135
#560
b0101 1e
b0000000010001010000101100111000111100011110010011011000111100100100110110111010110000000100111101111101111010000011010110000010101101000111010111001111110001001011011101101000100100000101011010001001101101001111101000110001110101011110101001111010111100001 30
035
#561
b00000000100010100001011001110001 1
b0001 1d
b00000000100010100001011001110001 1f
#562
b11100011110010011011000111100100 1
b0010 1d
b11100011110010011011000111100100 1f
#563
b10011011011101011000000010011110 1
b0011 1d
b10011011011101011000000010011110 1f
#564
b11111011110100000110101100000101 1
b0100 1d
b11111011110100000110101100000101 1f
#565
b01101000111010111001111110001001 1
b0101 1d
b01101000111010111001111110001001 1f
#566
b01101110110100010010000010101101 1
b0110 1d
b01101110110100010010000010101101 1f
#567
b00010011011010011111010001100011 1
b0111 1d
b00010011011010011111010001100011 1f
#568
b10101011110101001111010111100001 1
b00000000000111000000 1c
b1000 1d
b10101011110101001111010111100001 1f
#569
b0000 1d
b0110 1e
#570
b0100 1e
131
#571
031
b1110001011110010110101001010101001100001110000010110101101110001011110111000110000100000011100110110111100001001101010010110110000110011110100010111010010001110110111111001110110000010011011101000100111010000110001110010110011110000101011100010100000101010 33
135
#572
b0101 1e
b1110001011110010110101001010101001100001110000010110101101110001011110111000110000100000011100110110111100001001101010010110110000110011110100010111010010001110110111111001110110000010011011101000100111010000110001110010110011110000101011100010100000101010 30
035
#573
b11100010111100101101010010101010 1
b0001 1d
b11100010111100101101010010101010 1f
#574
b01100001110000010110101101110001 1
b0010 1d
b01100001110000010110101101110001 1f
#575
b01111011100011000010000001110011 1
b0011 1d
b01111011100011000010000001110011 1f
#576
b01101111000010011010100101101100 1
b0100 1d
b01101111000010011010100101101100 1f
#577
b00110011110100010111010010001110 1
b0101 1d
b00110011110100010111010010001110 1f
#578
b11011111100111011000001001101110 1
b0110 1d
b11011111100111011000001001101110 1f
#579
b10001001110100001100011100101100 1
b0111 1d
b10001001110100001100011100101100 1f
#580
b11110000101011100010100000101010 1
b00000000000110100000 1c
b1000 1d
b11110000101011100010100000101010 1f
#581
b0000 1d
b0110 1e
#582
b0100 1e
131
#583
031
b1100011001111010011010111101110110111100111100110011000001110100010000100110011011000110111001011011100001010110110110010001100101110001101000001100010000110000000000101111010111100011110001101111000010001110110101111011101011010011110111100110111100010010 33
135
#584
b0101 1e
b1100011001111010011010111101110110111100111100110011000001110100010000100110011011000110111001011011100001010110110110010001100101110001101000001100010000110000000000101111010111100011110001101111000010001110110101111011101011010011110111100110111100010010 30
035
#585
b11000110011110100110101111011101 1
b0001 1d
b11000110011110100110101111011101 1f
#586
b10111100111100110011000001110100 1
b0010 1d
b10111100111100110011000001110100 1f
#587
b01000010011001101100011011100101 1
b0011 1d
b01000010011001101100011011100101 1f
#588
b10111000010101101101100100011001 1
b0100 1d
b10111000010101101101100100011001 1f
#589
b01110001101000001100010000110000 1
b0101 1d
b01110001101000001100010000110000 1f
#590
b00000010111101011110001111000110 1
b0110 1d
b00000010111101011110001111000110 1f
#591
b11110000100011101101011110111010 1
b0111 1d
b11110000100011101101011110111010 1f
#592
b11010011110111100110111100010010 1
b00000000000110000000 1c
b1000 1d
b11010011110111100110111100010010 1f
#593
b0000 1d
b0110 1e
#594
b0100 1e
131
#595
031
b1110000010000111111000110011100110101111001010101000111110011100111001111110111010010101101101010000111010011000111110101100001101000011100110000110001001010001000110001110010101010010001011100000010001111010101000001111110001001001100111100011000111101001 33
135
#596
b0101 1e
b1110000010000111111000110011100110101111001010101000111110011100111001111110111010010101101101010000111010011000111110101100001101000011100110000110001001010001000110001110010101010010001011100000010001111010101000001111110001001001100111100011000111101001 30
035
#597
b11100000100001111110001100111001 1
b0001 1d
b11100000100001111110001100111001 1f
#598
b10101111001010101000111110011100 1
b0010 1d
b10101111001010101000111110011100 1f
#599
b11100111111011101001010110110101 1
b0011 1d
b11100111111011101001010110110101 1f
#600
b00001110100110001111101011000011 1
b0100 1d
b00001110100110001111101011000011 1f
#601
b01000011100110000110001001010001 1
b0101 1d
b01000011100110000110001001010001 1f
#602
b00011000111001010101001000101110 1
b0110 1d
b00011000111001010101001000101110 1f
#603
b00000100011110101010000011111100 1
b0111 1d
b00000100011110101010000011111100 1f
#604
b01001001100111100011000111101001 1
b00000000000101100000 1c
b1000 1d
b01001001100111100011000111101001 1f
#605
b0000 1d
b0110 1e
#606
b0100 1e
131
#607
031
b1111110101010101111101111110101001100001001101010111100110101001010100111010111101011010010100000000000111011000001011110110111101011101101011111011001111111010001111001101010101100110111100010111100001110000000001001110110000010010110001110101000010001010 33
135
#608
b0101 1e
b1111110101010101111101111110101001100001001101010111100110101001010100111010111101011010010100000000000111011000001011110110111101011101101011111011001111111010001111001101010101100110111100010111100001110000000001001110110000010010110001110101000010001010 30
035
#609
b11111101010101011111011111101010 1
b0001 1d
b11111101010101011111011111101010 1f
#610
b01100001001101010111100110101001 1
b0010 1d
b01100001001101010111100110101001 1f
#611
b01010011101011110101101001010000 1
b0011 1d
b01010011101011110101101001010000 1f
#612
b00000001110110000010111101101111 1
b0100 1d
b00000001110110000010111101101111 1f
#613
b01011101101011111011001111111010 1
b0101 1d
b01011101101011111011001111111010 1f
#614
b00111100110101010110011011110001 1
b0110 1d
b00111100110101010110011011110001 1f
#615
b01111000011100000000010011101100 1
b0111 1d
b01111000011100000000010011101100 1f
#616
b00010010110001110101000010001010 1
b00000000000101000000 1c
b1000 1d
b00010010110001110101000010001010 1f
#617
b0000 1d
b0110 1e
#618
b0100 1e
131
#619
031
b1000001011010000101010000010111010001111111100000001001111101100111000011010101111100001010110111101011111010100011001001111101111011110101010001110000100101101111010101111010101010101100011011101010010100000010011100000001000001000000100101111110101101111 33
135
#620
b0101 1e
b1000001011010000101010000010111010001111111100000001001111101100111000011010101111100001010110111101011111010100011001001111101111011110101010001110000100101101111010101111010101010101100011011101010010100000010011100000001000001000000100101111110101101111 30
035
#621
b10000010110100001010100000101110 1
b0001 1d
b10000010110100001010100000101110 1f
#622
b10001111111100000001001111101100 1
b0010 1d
b10001111111100000001001111101100 1f
#623
b11100001101010111110000101011011 1
b0011 1d
b11100001101010111110000101011011 1f
#624
b11010111110101000110010011111011 1
b0100 1d
b11010111110101000110010011111011 1f
#625
b11011110101010001110000100101101 1
b0101 1d
b11011110101010001110000100101101 1f
#626
b11101010111101010101010110001101 1
b0110 1d
b11101010111101010101010110001101 1f
#627
b11010100101000000100111000000010 1
b0111 1d
b11010100101000000100111000000010 1f
#628
b00001000000100101111110101101111 1
b00000000000100100000 1c
b1000 1d
b00001000000100101111110101101111 1f
#629
b0000 1d
b0110 1e
#630
b0100 1e
131
#631
031
b1101110110000100011001000001111000111000111000011100111111001010001100010000110111100011010011111111001000110101010011000010100001001110111010110001110001010010111111010010101111101110010100111011010111100000101000011001100001111011110100001100001010100001 33
135
#632
b0101 1e
b1101110110000100011001000001111000111000111000011100111111001010001100010000110111100011010011111111001000110101010011000010100001001110111010110001110001010010111111010010101111101110010100111011010111100000101000011001100001111011110100001100001010100001 30
035
#633
b11011101100001000110010000011110 1
b0001 1d
b11011101100001000110010000011110 1f
#634
b00111000111000011100111111001010 1
b0010 1d
b00111000111000011100111111001010 1f
#635
b00110001000011011110001101001111 1
b0011 1d
b00110001000011011110001101001111 1f
#636
b11110010001101010100110000101000 1
b0100 1d
b11110010001101010100110000101000 1f
#637
b01001110111010110001110001010010 1
b0101 1d
b01001110111010110001110001010010 1f
#638
b11111101001010111110111001010011 1
b0110 1d
b11111101001010111110111001010011 1f
#639
b10110101111000001010000110011000 1
b0111 1d
b10110101111000001010000110011000 1f
#640
b01111011110100001100001010100001 1
b00000000000100000000 1c
b1000 1d
b01111011110100001100001010100001 1f
#641
b0000 1d
b0110 1e
#642
b0100 1e
131
#643
031
b0010010011101111110001010110111101111001000001110011111011010010001110001101011011011100110100111110011011111110100011010001000000000000011100011000100110001110111100111100100110000010111010010100111111000110100010110101011011111111101000111111111100010100 33
135
#644
b0101 1e
b0010010011101111110001010110111101111001000001110011111011010010001110001101011011011100110100111110011011111110100011010001000000000000011100011000100110001110111100111100100110000010111010010100111111000110100010110101011011111111101000111111111100010100 30
035
#645
b00100100111011111100010101101111 1
b0001 1d
b00100100111011111100010101101111 1f
#646
b01111001000001110011111011010010 1
b0010 1d
b01111001000001110011111011010010 1f
#647
b00111000110101101101110011010011 1
b0011 1d
b00111000110101101101110011010011 1f
#648
b11100110111111101000110100010000 1
b0100 1d
b11100110111111101000110100010000 1f
#649
b00000000011100011000100110001110 1
b0101 1d
b00000000011100011000100110001110 1f
#650
b11110011110010011000001011101001 1
b0110 1d
b11110011110010011000001011101001 1f
#651
b01001111110001101000101101010110 1
b0111 1d
b01001111110001101000101101010110 1f
#652
b11111111101000111111111100010100 1
b00000000000011100000 1c
b1000 1d
b11111111101000111111111100010100 1f
#653
b0000 1d
b0110 1e
#654
b0100 1e
131
#655
031
b1010110001111100011110100100101001011011101001111110110011000001101110000010001100010001001110100110010110011011011010001011101101001100101111000000110011101001110101011010101001000000111001001010011010011011011000010001110100010101101100010101100000001100 33
135
#656
b0101 1e
b1010110001111100011110100100101001011011101001111110110011000001101110000010001100010001001110100110010110011011011010001011101101001100101111000000110011101001110101011010101001000000111001001010011010011011011000010001110100010101101100010101100000001100 30
035
#657
b10101100011111000111101001001010 1
b0001 1d
b10101100011111000111101001001010 1f
#658
b01011011101001111110110011000001 1
b0010 1d
b01011011101001111110110011000001 1f
#659
b10111000001000110001000100111010 1
b0011 1d
b10111000001000110001000100111010 1f
#660
b01100101100110110110100010111011 1
b0100 1d
b01100101100110110110100010111011 1f
#661
b01001100101111000000110011101001 1
b0101 1d
b01001100101111000000110011101001 1f
#662
b11010101101010100100000011100100 1
b0110 1d
b11010101101010100100000011100100 1f
#663
b10100110100110110110000100011101 1
b0111 1d
b10100110100110110110000100011101 1f
#664
b00010101101100010101100000001100 1
b00000000000011000000 1c
b1000 1d
b00010101101100010101100000001100 1f
#665
b0000 1d
b0110 1e
#666
b0100 1e
131
#667
031
b1011000101001101101010111010101100010010001011100010101110100000100011001011010001101000010001111111000000111001110011000001000110110010001010101100000001101101011100101001010101011101000000101010101110011001101000101111100001101101100100010101000010110001 33
135
#668
b0101 1e
b1011000101001101101010111010101100010010001011100010101110100000100011001011010001101000010001111111000000111001110011000001000110110010001010101100000001101101011100101001010101011101000000101010101110011001101000101111100001101101100100010101000010110001 30
035
#669
b10110001010011011010101110101011 1
b0001 1d
b10110001010011011010101110101011 1f
#670
b00010010001011100010101110100000 1
b0010 1d
b00010010001011100010101110100000 1f
#671
b10001100101101000110100001000111 1
b0011 1d
b10001100101101000110100001000111 1f
#672
b11110000001110011100110000010001 1
b0100 1d
b11110000001110011100110000010001 1f
#673
b10110010001010101100000001101101 1
b0101 1d
b10110010001010101100000001101101 1f
#674
b01110010100101010101110100000010 1
b0110 1d
b01110010100101010101110100000010 1f
#675
b10101011100110011010001011111000 1
b0111 1d
b10101011100110011010001011111000 1f
#676
b01101101100100010101000010110001 1
b00000000000010100000 1c
b1000 1d
b01101101100100010101000010110001 1f
#677
b0000 1d
b0110 1e
#678
b0100 1e
131
#679
031
b1100110011100101110001110010100010011101100100101001100010111010111100101111001010001101001001011110100000010111011010101101010111110110111011001000110100111001000010110000111011010011010101100000000000011101110111001010000011100000101101101111000000111001 33
135
#680
b0101 1e
b1100110011100101110001110010100010011101100100101001100010111010111100101111001010001101001001011110100000010111011010101101010111110110111011001000110100111001000010110000111011010011010101100000000000011101110111001010000011100000101101101111000000111001 30
035
#681
b11001100111001011100011100101000 1
b0001 1d
b11001100111001011100011100101000 1f
#682
b10011101100100101001100010111010 1
b0010 1d
b10011101100100101001100010111010 1f
#683
b11110010111100101000110100100101 1
b0011 1d
b11110010111100101000110100100101 1f
#684
b11101000000101110110101011010101 1
b0100 1d
b11101000000101110110101011010101 1f
#685
b11110110111011001000110100111001 1
b0101 1d
b11110110111011001000110100111001 1f
#686
b00001011000011101101001101010110 1
b0110 1d
b00001011000011101101001101010110 1f
#687
b00000000000111011101110010100000 1
b0111 1d
b00000000000111011101110010100000 1f
#688
b11100000101101101111000000111001 1
b00000000000010000000 1c
b1000 1d
b11100000101101101111000000111001 1f
#689
15
b0000 1d
b0110 1e
#690
05
b0100 1e
131
#691
031
b0010010010110110001100100011111111000110101000001001001001111100110111011100111001100101111100010111101111101001100010001110111000110001010111110001100000101011110001110111111100000110110111001011100010001111011101011110010001101110011000010011000011010011 33
135
#692
b0101 1e
b0010010010110110001100100011111111000110101000001001001001111100110111011100111001100101111100010111101111101001100010001110111000110001010111110001100000101011110001110111111100000110110111001011100010001111011101011110010001101110011000010011000011010011 30
035
#693
b00100100101101100011001000111111 1
b0001 1d
b00100100101101100011001000111111 1f
#694
b11000110101000001001001001111100 1
b0010 1d
b11000110101000001001001001111100 1f
#695
b11011101110011100110010111110001 1
b0011 1d
b11011101110011100110010111110001 1f
#696
b01111011111010011000100011101110 1
b0100 1d
b01111011111010011000100011101110 1f
#697
b00110001010111110001100000101011 1
b0101 1d
b00110001010111110001100000101011 1f
#698
b11000111011111110000011011011100 1
b0110 1d
b11000111011111110000011011011100 1f
#699
b10111000100011110111010111100100 1
b0111 1d
b10111000100011110111010111100100 1f
#700
b01101110011000010011000011010011 1
b00000000000001100000 1c
b1000 1d
b01101110011000010011000011010011 1f
#701
b0000 1d
b0110 1e
#702
b0100 1e
131
#703
031
b1101100111010011000011000101000100101000001001111011100010010110001011011111010101100110110010101011000010011111001000110110110010110110000011000001010100011101101111010110111111110010000111111000011111100100011000111110001110110011101000111011000010011110 33
135
#704
b0101 1e
b1101100111010011000011000101000100101000001001111011100010010110001011011111010101100110110010101011000010011111001000110110110010110110000011000001010100011101101111010110111111110010000111111000011111100100011000111110001110110011101000111011000010011110 30
035
#705
b11011001110100110000110001010001 1
b0001 1d
b11011001110100110000110001010001 1f
#706
b00101000001001111011100010010110 1
b0010 1d
b00101000001001111011100010010110 1f
#707
b00101101111101010110011011001010 1
b0011 1d
b00101101111101010110011011001010 1f
#708
b10110000100111110010001101101100 1
b0100 1d
b10110000100111110010001101101100 1f
#709
b10110110000011000001010100011101 1
b0101 1d
b10110110000011000001010100011101 1f
#710
b10111101011011111111001000011111 1
b0110 1d
b10111101011011111111001000011111 1f
#711
b10000111111001000110001111100011 1
b0111 1d
b10000111111001000110001111100011 1f
#712
b10110011101000111011000010011110 1
b00000000000001000000 1c
b1000 1d
b10110011101000111011000010011110 1f
#713
b0000 1d
b0110 1e
#714
b0100 1e
131
#715
031
b1011001011011101100110110001101111110000000110100010101000101110010100010010101101111001001001110101100101101010011100100110101110001100000000100110000100011101100100101001110100101100001100110110000110100110010010011010000101111011001101001111101001011101 33
135
#716
b0101 1e
b1011001011011101100110110001101111110000000110100010101000101110010100010010101101111001001001110101100101101010011100100110101110001100000000100110000100011101100100101001110100101100001100110110000110100110010010011010000101111011001101001111101001011101 30
035
#717
b10110010110111011001101100011011 1
b0001 1d
b10110010110111011001101100011011 1f
#718
b11110000000110100010101000101110 1
b0010 1d
b11110000000110100010101000101110 1f
#719
b01010001001010110111100100100111 1
b0011 1d
b01010001001010110111100100100111 1f
#720
b01011001011010100111001001101011 1
b0100 1d
b01011001011010100111001001101011 1f
#721
b10001100000000100110000100011101 1
b0101 1d
b10001100000000100110000100011101 1f
#722
b10010010100111010010110000110011 1
b0110 1d
b10010010100111010010110000110011 1f
#723
b01100001101001100100100110100001 1
b0111 1d
b01100001101001100100100110100001 1f
#724
b01111011001101001111101001011101 1
b00000000000000100000 1c
b1000 1d
b01111011001101001111101001011101 1f
#725
b0000 1d
b0110 1e
#726
b0100 1e
131
#727
031
b0000100100000110100101011011101100000011111110010000010100111011011101001010010001100011110011111001001001011001001010100001100001011011111010110110101100110100101010111000011100001010100101011010010110111011001011011011101010000000100110100110011010110000 33
135
#728
b0101 1e
b0000100100000110100101011011101100000011111110010000010100111011011101001010010001100011110011111001001001011001001010100001100001011011111010110110101100110100101010111000011100001010100101011010010110111011001011011011101010000000100110100110011010110000 30
035
#729
b00001001000001101001010110111011 1
b0001 1d
b00001001000001101001010110111011 1f
#730
b00000011111110010000010100111011 1
b0010 1d
b00000011111110010000010100111011 1f
#731
b01110100101001000110001111001111 1
b0011 1d
b01110100101001000110001111001111 1f
#732
b10010010010110010010101000011000 1
b0100 1d
b10010010010110010010101000011000 1f
#733
b01011011111010110110101100110100 1
b0101 1d
b01011011111010110110101100110100 1f
#734
b10101011100001110000101010010101 1
b0110 1d
b10101011100001110000101010010101 1f
#735
b10100101101110110010110110111010 1
b0111 1d
b10100101101110110010110110111010 1f
#736
b10000000100110100110011010110000 1
b00000000000000000000 1c
b1000 1d
b10000000100110100110011010110000 1f
#737
b0000 1d
b0110 1e
#738
b0000 1e
#739
b00000000000000000000000000000000 1
1a
1d
b00000000000000000000000000000000 1f
