src/rtl/fully connected/test/fc/la0_waveform.vcd
#0 $dumpon
$date today $end
$timescale 1 ns $end
$scope module top $end
$var wire 32 0 last_sync_ff/rdata $end
$var wire 1 1 transmitter_array/i_tx_dv $end
$var wire 8 2 transmitter_array/i_tx_byte $end
$var wire 1 3 transmitter_array/o_tx_done $end
$upscope $end
$enddefinitions $end
#0
$dumpvars
b11111111111111111001011101000101 0
11
b01000101 2
03
$end
#1
b10010111 2
#2
b11111111 2
#4
b00000000000000000010101111010110 0
b11010110 2
#5
b00101011 2
#6
b00000000 2
#8
b00000000000000000100000101010111 0
b01010111 2
#9
b01000001 2
#10
b00000000 2
#12
b00000000000000000101011101010010 0
b01010010 2
#13
b01010111 2
#14
b00000000 2
#16
b00000000000000000010010101001101 0
b01001101 2
#17
b00100101 2
#18
b00000000 2
#20
b11111111111111111100100000110111 0
b00110111 2
#21
b11001000 2
#22
b11111111 2
#24
b11111111111111111101001110010010 0
b10010010 2
#25
b11010011 2
#26
b11111111 2
#28
b11111111111111111010111001001000 0
b01001000 2
#29
b10101110 2
#30
b11111111 2
#32
b11111111111111111111011011110110 0
b11110110 2
#34
b11111111 2
#36
b11111111111111111100110111001101 0
b11001101 2
#38
b11111111 2
#40
b11111111111111111100001111010010 0
b11010010 2
#41
b11000011 2
#42
b11111111 2
#44
b00000000000000001011001000100001 0
b00100001 2
#45
b10110010 2
#46
b00000000 2
#48
b11111111111111111011001100101110 0
b00101110 2
#49
b10110011 2
#50
b11111111 2
#52
b11111111111111111101010101011011 0
b01011011 2
#53
b11010101 2
#54
b11111111 2
#56
b00000000000000000010111001101111 0
b01101111 2
#57
b00101110 2
#58
b00000000 2
#60
b00000000000000000000011001001011 0
b01001011 2
#61
b00000110 2
#62
b00000000 2
#64
b11111111111111111110000011111110 0
b11111110 2
#65
b11100000 2
#66
b11111111 2
#68
b00000000000000001000011001100000 0
b01100000 2
#69
b10000110 2
#70
b00000000 2
#72
b00000000000000000011100111100101 0
b11100101 2
#73
b00111001 2
#74
b00000000 2
#76
b11111111111111111101001111101100 0
b11101100 2
#77
b11010011 2
#78
b11111111 2
#80
b00000000000000000101010010001000 0
b10001000 2
#81
b01010100 2
#82
b00000000 2
#84
b11111111111111111000010011001101 0
b11001101 2
#85
b10000100 2
#86
b11111111 2
#88
b00000000000000000100101000110010 0
b00110010 2
#89
b01001010 2
#90
b00000000 2
#92
b11111111111111111111011101100010 0
b01100010 2
#93
b11110111 2
#94
b11111111 2
#96
b11110111111111111001100001111010 0
b01111010 2
#97
b10011000 2
#98
b11111111 2
#99
b11110111 2
#100
b11111111111111111010100010001000 0
b10001000 2
#101
b10101000 2
#102
b11111111 2
#104
b11111111111111110111111100110111 0
b00110111 2
#105
b01111111 2
#106
b11111111 2
#108
b11111111111111110001010010101000 0
b10101000 2
#109
b00010100 2
#110
b11111111 2
#112
b11111111111111111010000000000101 0
b00000101 2
#113
b10100000 2
#114
b11111111 2
#116
b11111111111111111000000011111100 0
b11111100 2
#117
b10000000 2
#118
b11111111 2
#120
b00000000000000000011101100000010 0
b00000010 2
#121
b00111011 2
#122
b00000000 2
#124
b11111111111111111111100010110001 0
b10110001 2
#125
b11111000 2
#126
b11111111 2
#128
b00000000000000000000100111100010 0
b11100010 2
#129
b00001001 2
#130
b00000000 2
#132
b00000000000000000101001011001100 0
b11001100 2
#133
b01010010 2
#134
b00000000 2
#136
b11111111111111111111011111101010 0
b11101010 2
#137
b11110111 2
#138
b11111111 2
#140
b11111111111111111010010000010100 0
b00010100 2
#141
b10100100 2
#142
b11111111 2
#144
b11111111111111111000101100010010 0
b00010010 2
#145
b10001011 2
#146
b11111111 2
#148
b00000010000000000010001100011011 0
b00011011 2
#149
b00100011 2
#150
b00000000 2
#151
b00000010 2
#152
b11111111111111111100110101010111 0
b01010111 2
#153
b11001101 2
#154
b11111111 2
#156
b00000000000000000110100100000001 0
b00000001 2
#157
b01101001 2
#158
b00000000 2
#160
b00000000000000000000101111100101 0
b11100101 2
#161
b00001011 2
#162
b00000000 2
#164
b00000000000000000101011000100000 0
b00100000 2
#165
b01010110 2
#166
b00000000 2
#168
b00000000000000000010110010100111 0
b10100111 2
#169
b00101100 2
#170
b00000000 2
#172
b00000000000000001000010001001010 0
b01001010 2
#173
b10000100 2
#174
b00000000 2
#176
b00000000000000001011101100111101 0
b00111101 2
#177
b10111011 2
#178
b00000000 2
#180
b11111111111111111111011000101111 0
b00101111 2
#181
b11110110 2
#182
b11111111 2
#184
b11111111111111111101011101001101 0
b01001101 2
#185
b11010111 2
#186
b11111111 2
#188
b00000000000000000100000101000000 0
b01000000 2
#189
b01000001 2
#190
b00000000 2
#192
b00000000000000000101111010011110 0
b10011110 2
#193
b01011110 2
#194
b00000000 2
#196
b11111111111111111010110111000111 0
b11000111 2
#197
b10101101 2
#198
b11111111 2
#200
b11111111111111110100001101111011 0
b01111011 2
#201
b01000011 2
#202
b11111111 2
#204
b00000000000000000101010101100001 0
b01100001 2
#205
b01010101 2
#206
b00000000 2
#208
b00000000000000000011000001000111 0
b01000111 2
#209
b00110000 2
#210
b00000000 2
#212
b00000000000000000100110011011101 0
b11011101 2
#213
b01001100 2
#214
b00000000 2
#216
b00000000000000001001001111101000 0
b11101000 2
#217
b10010011 2
#218
b00000000 2
#220
b11111111111111111110100100101010 0
b00101010 2
#221
b11101001 2
#222
b11111111 2
#224
b11111111111111111110000100000110 0
b00000110 2
#225
b11100001 2
#226
b11111111 2
#228
b11111111111111111000100110110001 0
b10110001 2
#229
b10001001 2
#230
b11111111 2
#232
b00000000000000000011100010011111 0
b10011111 2
#233
b00111000 2
#234
b00000000 2
#236
b00000000000000001000000001100110 0
b01100110 2
#237
b10000000 2
#238
b00000000 2
#240
b00000000000000000011001110110110 0
b10110110 2
#241
b00110011 2
#242
b00000000 2
#244
b00000000000000000000010000000110 0
b00000110 2
#245
b00000100 2
#246
b00000000 2
#248
b00000000000000000101010011100011 0
b11100011 2
#249
b01010100 2
#250
b00000000 2
#252
b00000000000000000000111101010101 0
b01010101 2
#253
b00001111 2
#254
b00000000 2
#256
b11111111111111111110011100010111 0
b00010111 2
#257
b11100111 2
#258
b11111111 2
#260
b11111111111111111010001010101001 0
b10101001 2
#261
b10100010 2
#262
b11111111 2
#264
b00000000000000000111001101001110 0
b01001110 2
#265
b01110011 2
#266
b00000000 2
#268
b00000000000000000001110100001101 0
b00001101 2
#269
b00011101 2
#270
b00000000 2
#272
b11111111111111111100001001001101 0
b01001101 2
#273
b11000010 2
#274
b11111111 2
#276
b11111111111111111011000001100101 0
b01100101 2
#277
b10110000 2
#278
b11111111 2
#280
b00000000000000000100001101010001 0
b01010001 2
#281
b01000011 2
#282
b00000000 2
#284
b00000000000000000110001010111000 0
b10111000 2
#285
b01100010 2
#286
b00000000 2
#288
b00000000000000001010111000011100 0
b00011100 2
#289
b10101110 2
#290
b00000000 2
#292
b11111111111111111011011000100110 0
b00100110 2
#293
b10110110 2
#294
b11111111 2
#296
b11111111111111111111101101000110 0
b01000110 2
#297
b11111011 2
#298
b11111111 2
#300
b11111111111111111111101010000000 0
b10000000 2
#301
b11111010 2
#302
b11111111 2
#304
b00000000000000000001010100000000 0
b00000000 2
#305
b00010101 2
#306
b00000000 2
#308
b00000000000000000001010000001010 0
b00001010 2
#309
b00010100 2
#310
b00000000 2
#312
b11111111111111111010010111011110 0
b11011110 2
#313
b10100101 2
#314
b11111111 2
#316
b00000000000000000101011110001101 0
b10001101 2
#317
b01010111 2
#318
b00000000 2
#320
b11111111111111111010000101101010 0
b01101010 2
#321
b10100001 2
#322
b11111111 2
#324
b00000000000000000101011100010100 0
b00010100 2
#325
b01010111 2
#326
b00000000 2
#328
b11111111111111111001101111101110 0
b11101110 2
#329
b10011011 2
#330
b11111111 2
#332
b11111111111111111001011101100010 0
b01100010 2
#333
b10010111 2
#334
b11111111 2
#336
b00000000000000000010011000001011 0
b00001011 2
#337
b00100110 2
#338
b00000000 2
#340
b00000000000000000100101011001010 0
b11001010 2
#341
b01001010 2
#342
b00000000 2
#344
b00000000000000000110110100000010 0
b00000010 2
#345
b01101101 2
#346
b00000000 2
#348
b11111111111111111100010011101001 0
b11101001 2
#349
b11000100 2
#350
b11111111 2
#352
b00001100000000000110101100011111 0
b00011111 2
#353
b01101011 2
#354
b00000000 2
#355
b00001100 2
#356
b11111111111111111100101111110101 0
b11110101 2
#357
b11001011 2
#358
b11111111 2
#360
b11111111111111111111100000001101 0
b00001101 2
#361
b11111000 2
#362
b11111111 2
#364
b00000000000000000110100101011101 0
b01011101 2
#365
b01101001 2
#366
b00000000 2
#368
b00000000000000000011010110010110 0
b10010110 2
#369
b00110101 2
#370
b00000000 2
#372
b11111111111111110101001101010101 0
b01010101 2
#373
b01010011 2
#374
b11111111 2
#376
b00000000000000001001110011101011 0
b11101011 2
#377
b10011100 2
#378
b00000000 2
#380
b11111111111111110100010010110001 0
b10110001 2
#381
b01000100 2
#382
b11111111 2
#384
b00000000000000000000110001011001 0
b01011001 2
#385
b00001100 2
#386
b00000000 2
#388
b00000000000000000110111110100101 0
b10100101 2
#389
b01101111 2
#390
b00000000 2
#392
b11111111111111111111111001011101 0
b01011101 2
#393
b11111110 2
#394
b11111111 2
#396
b00000000000000000111000000001011 0
b00001011 2
#397
b01110000 2
#398
b00000000 2
#400
b00000000000000000110001111111111 0
b11111111 2
#401
b01100011 2
#402
b00000000 2
#404
b00000010000000001001001111101011 0
b11101011 2
#405
b10010011 2
#406
b00000000 2
#407
b00000010 2
#408
b11111111111111111111111111010001 0
b11010001 2
#409
b11111111 2
#412
b00000000000000001001100110111110 0
b10111110 2
#413
b10011001 2
#414
b00000000 2
#416
b00000000000000000001110110001011 0
b10001011 2
#417
b00011101 2
#418
b00000000 2
#420
b00000000000000001000111111000100 0
b11000100 2
#421
b10001111 2
#422
b00000000 2
#424
b11111111111111111010000011011100 0
b11011100 2
#425
b10100000 2
#426
b11111111 2
#428
b11111111111111111101110100110011 0
b00110011 2
#429
b11011101 2
#430
b11111111 2
#432
b11111111111111111001000011100001 0
b11100001 2
#433
b10010000 2
#434
b11111111 2
#436
b00000000000000001011011010110000 0
b10110000 2
#437
b10110110 2
#438
b00000000 2
#440
b00000000000000000110000101010000 0
b01010000 2
#441
b01100001 2
#442
b00000000 2
#444
b00000000000000000001001101001011 0
b01001011 2
#445
b00010011 2
#446
b00000000 2
#448
b00000000000000000101011111111101 0
b11111101 2
#449
b01010111 2
#450
b00000000 2
#452
b11111111111111111011000111001000 0
b11001000 2
#453
b10110001 2
#454
b11111111 2
#456
b00000000000000000000001000111100 0
b00111100 2
#457
b00000010 2
#458
b00000000 2
#460
b11111111111111111111110001110101 0
b01110101 2
#461
b11111100 2
#462
b11111111 2
#464
b11111111111111111000101101110010 0
b01110010 2
#465
b10001011 2
#466
b11111111 2
#468
b00000000000000000001111100111101 0
b00111101 2
#469
b00011111 2
#470
b00000000 2
#472
b00000000000000000001000111100100 0
b11100100 2
#473
b00010001 2
#474
b00000000 2
#476
b00000000000000000010110101111101 0
b01111101 2
#477
b00101101 2
#478
b00000000 2
#480
b11110111111111111100110010000010 0
b10000010 2
#481
b11001100 2
#482
b11111111 2
#483
b11110111 2
#484
b00000000000000000001111000011111 0
b00011111 2
#485
b00011110 2
#486
b00000000 2
#488
b11111111111111111001010111111100 0
b11111100 2
#489
b10010101 2
#490
b11111111 2
#492
b11111111111111111100010101100110 0
b01100110 2
#493
b11000101 2
#494
b11111111 2
#496
b00000000000000000111111010010101 0
b10010101 2
#497
b01111110 2
#498
b00000000 2
#500
b11111111111111111101001001011010 0
b01011010 2
#501
b11010010 2
#502
b11111111 2
#504
b11111111111111111111010100001000 0
b00001000 2
#505
b11110101 2
#506
b11111111 2
#508
b11111111111111111110100100111100 0
b00111100 2
#509
b11101001 2
#510
b11111111 2
#511
b11111111111111111110100100111100 0
11
b11111111 2
03
