src/rtl/request_memory_controller/req_con_accumulator/rtl/req_con_accumulator.vcd
$date
	Wed Apr 24 14:51:01 2024
$end
$version
	Icarus Verilog
$end
$timescale
	1s
$end
$scope module request_controller_accumulator_tb $end
$var wire 1 ! wr_enable $end
$var wire 1 " valid $end
$var wire 6 # burst_length [5:0] $end
$var wire 8 $ addr_out [7:0] $end
$var reg 1 % clk $end
$var reg 1 & config_start $end
$var reg 1 ' enable $end
$var reg 1 ( fifo_status $end
$var reg 32 ) start_addr [31:0] $end
$var reg 32 * stop_addr [31:0] $end
$scope module request_controller_accumulator_inst $end
$var wire 6 + burst_length [5:0] $end
$var wire 1 % clk $end
$var wire 1 & config_start $end
$var wire 1 ' enable $end
$var wire 1 ( fifo_status $end
$var wire 32 , start_addr [31:0] $end
$var wire 32 - stop_addr [31:0] $end
$var reg 8 . addr_out [7:0] $end
$var reg 5 / count [4:0] $end
$var reg 32 0 nxt_addr [31:0] $end
$var reg 6 1 r_burst_length [5:0] $end
$var reg 3 2 state [2:0] $end
$var reg 1 " valid $end
$var reg 1 ! wr_enable $end
$upscope $end
$upscope $end
$enddefinitions $end
#0
$dumpvars
b0 2
b0 1
b0 0
b0 /
b0 .
b1111110010110 -
b0 ,
b0 +
b1111110010110 *
b0 )
1(
1'
1&
0%
b0 $
b0 #
0"
0!
$end
#5
b1111 #
b1111 +
b1111 1
b1 2
1%
#10
0%
#15
b10 2
1%
#20
0%
#25
b1 /
1"
1%
#30
0%
#35
b10 /
1%
#40
0%
#45
b11 /
1%
#50
0%
#55
b0 /
b11 2
1%
#60
0%
#65
0"
b1 2
b1000000000 0
1%
#70
0%
#75
b10 2
1%
#80
0%
#85
b1 /
1"
1%
#90
0%
#95
b10 /
1%
#100
0%
#105
b11 /
b10 $
b10 .
1%
#110
0%
#115
b0 /
b11 2
b0 $
b0 .
1%
#120
0%
#125
0"
b1 2
b10000000000 0
1%
#130
0%
#135
b10 2
1%
#140
0%
#145
b1 /
1"
1%
#150
0%
#155
b10 /
1%
#160
0%
#165
b11 /
b100 $
b100 .
1%
#170
0%
#175
b0 /
b11 2
b0 $
b0 .
1%
#180
0%
#185
0"
b1 2
b11000000000 0
1%
#190
0%
#195
b10 2
1%
#200
0%
#205
b1 /
1"
1%
#210
0%
#215
b10 /
1%
#220
0%
#225
b11 /
b110 $
b110 .
1%
#230
0%
#235
b0 /
b11 2
b0 $
b0 .
1%
#240
0%
#245
0"
b1 2
b100000000000 0
1%
#250
0%
#255
b10 2
1%
#260
0%
#265
b1 /
1"
1%
#270
0%
#275
b10 /
1%
#280
0%
#285
b11 /
b1000 $
b1000 .
1%
#290
0%
#295
b0 /
b11 2
b0 $
b0 .
1%
#300
0%
#305
0"
b1 2
b101000000000 0
1%
#310
0%
#315
b10 2
1%
#320
0%
#325
b1 /
1"
1%
#330
0%
#335
b10 /
1%
#340
0%
#345
b11 /
b1010 $
b1010 .
1%
#350
0%
#355
b0 /
b11 2
b0 $
b0 .
1%
#360
0%
#365
0"
b1 2
b110000000000 0
1%
#370
0%
#375
b10 2
1%
#380
0%
#385
b1 /
1"
1%
#390
0%
#395
b10 /
1%
#400
0%
#405
b11 /
b1100 $
b1100 .
1%
#410
0%
#415
b0 /
b11 2
b0 $
b0 .
1%
#420
0%
#425
0"
b1 2
b111000000000 0
1%
#430
0%
#435
b10 2
1%
#440
0%
#445
b1 /
1"
1%
#450
0%
#455
b10 /
1%
#460
0%
#465
b11 /
b1110 $
b1110 .
1%
#470
0%
#475
b0 /
b11 2
b0 $
b0 .
1%
#480
0%
#485
0"
b1 2
b1000000000000 0
1%
#490
0%
#495
b10 2
1%
#500
0%
#505
b1 /
1"
1%
#510
0%
#515
b10 /
1%
#520
0%
#525
b11 /
b10000 $
b10000 .
1%
#530
0%
#535
b0 /
b11 2
b0 $
b0 .
1%
#540
0%
#545
0"
b1 2
b1001000000000 0
1%
#550
0%
#555
b10 2
1%
#560
0%
#565
b1 /
1"
1%
#570
0%
#575
b10 /
1%
#580
0%
#585
b11 /
b10010 $
b10010 .
1%
#590
0%
#595
b0 /
b11 2
b0 $
b0 .
1%
#600
0%
#605
0"
b1 2
b1010000000000 0
1%
#610
0%
#615
b10 2
1%
#620
0%
#625
b1 /
1"
1%
#630
0%
#635
b10 /
1%
#640
0%
#645
b11 /
b10100 $
b10100 .
1%
#650
0%
#655
b0 /
b11 2
b0 $
b0 .
1%
#660
0%
#665
0"
b1 2
b1011000000000 0
1%
#670
0%
#675
b10 2
1%
#680
0%
#685
b1 /
1"
1%
#690
0%
#695
b10 /
1%
#700
0%
#705
b11 /
b10110 $
b10110 .
1%
#710
0%
#715
b0 /
b11 2
b0 $
b0 .
1%
#720
0%
#725
0"
b1 2
b1100000000000 0
1%
#730
0%
#735
b10 2
1%
#740
0%
#745
b1 /
1"
1%
#750
0%
#755
b10 /
1%
#760
0%
#765
b11 /
b11000 $
b11000 .
1%
#770
0%
#775
b0 /
b11 2
b0 $
b0 .
1%
#780
0%
#785
0"
b1 2
b1101000000000 0
1%
#790
0%
#795
b10 2
1%
#800
0%
#805
b1 /
1"
1%
#810
0%
#815
b10 /
1%
#820
0%
#825
b11 /
b11010 $
b11010 .
1%
#830
0%
#835
b0 /
b11 2
b0 $
b0 .
1%
#840
0%
#845
0"
b1 2
b1110000000000 0
1%
#850
0%
#855
b10 2
1%
#860
0%
#865
b1 /
1"
1%
#870
0%
#875
b10 /
1%
#880
0%
#885
b11 /
b11100 $
b11100 .
1%
#890
0%
#895
b0 /
b11 2
b0 $
b0 .
1%
#900
0%
#905
0"
b1 2
b1111000000000 0
1%
#910
0%
#915
b10 2
1%
#920
0%
#925
b1 /
1"
1%
#930
0%
#935
b10 /
1%
#940
0%
#945
b11 /
b11110 $
b11110 .
1%
#950
0%
#955
b0 /
b11 2
b0 $
b0 .
1%
#960
0%
#965
0"
b1 2
b10000000000000 0
1%
#970
0%
#975
b10 2
1%
#980
0%
#985
b1 /
1"
1%
#990
0%
#995
b10 /
1%
