src/rtl/dram_ctrl/test/la0_waveform.vcd
#0 $dumpon
$date today $end
$timescale 1 ns $end
$scope module top $end
$var wire 1 0 address_out/o_valid $end
$var wire 8 1 address_out/o_burst_len $end
$var wire 8 2 address_out/o_address $end
$var wire 1 3 one_pulse/pulse_signal $end
$upscope $end
$enddefinitions $end
#0
$dumpvars
00
b00000000 1
b00000000 2
13
$end
#1
03
#6
b00001111 1
#7
10
#9
b00010000 2
#10
b00000000 2
#11
00
#35
b00001011 1
#36
10
#38
b00010010 2
#39
b00000000 2
#40
00
#60
b00001111 1
#61
10
#63
b00010000 2
#64
b00000000 2
#65
00
#89
b00001011 1
#90
10
#92
b00010010 2
#93
b00000000 2
#94
00
#113
b00000000 1
#114
10
#115
b11110000 2
#116
b00010000 2
#117
b00000000 2
#118
00
#127
b00001111 1
#128
10
#130
b00010000 2
#131
b00000000 2
#132
00
#156
b00001011 1
#157
10
#159
b00010010 2
#160
b00000000 2
#161
00
#168
13
#169
03
#181
b00001111 1
#182
10
#184
b00010000 2
#185
b00000000 2
#186
00
#210
b00001011 1
#211
10
#213
b00010010 2
#214
b00000000 2
#215
00
#234
b00000000 1
#235
10
#236
b11110000 2
#237
b00010000 2
#238
b00100000 2
#239
00
b00000000 2
#248
b00001111 1
#249
10
#251
b00010000 2
#252
b00000000 2
#253
00
#277
b00001011 1
#278
10
#280
b00010010 2
#281
b00000000 2
#282
00
#302
b00001111 1
#303
10
#305
b00010000 2
#306
b00000000 2
#307
00
#331
b00001011 1
#332
10
#334
b00010010 2
#335
b00000000 2
#336
00
#355
b00000000 1
#356
10
#357
b11110000 2
#358
b00010000 2
#359
b01000000 2
#360
00
b00000000 2
#369
b00001111 1
#370
10
#372
b00010000 2
#373
b00000000 2
#374
00
#398
b00001011 1
#399
10
#401
b00010010 2
#402
b00000000 2
#403
00
#423
b00001111 1
#424
10
#426
b00010000 2
#427
b00000000 2
#428
00
#452
b00001011 1
#453
10
#455
b00010010 2
#456
b00000000 2
#457
00
#476
b00000000 1
#477
10
#478
b11110000 2
#479
b00010000 2
#480
b01100000 2
#481
00
b00000000 2
#3259
13
#3260
03
#3265
b00001111 1
#3266
10
#3268
b00010000 2
#3269
b00000000 2
#3270
00
#3294
b00001011 1
#3295
10
#3297
b00010010 2
#3298
b00000000 2
#3299
00
#3319
b00001111 1
#3320
10
#3322
b00010000 2
#3323
b00000000 2
#3324
00
#3348
b00001011 1
#3349
10
#3351
b00010010 2
#3352
b00000000 2
#3353
00
#3372
b00000000 1
#3373
10
#3374
b11110000 2
#3375
b00010000 2
#3376
b00000000 2
#3377
00
#3386
b00001111 1
#3387
10
#3389
b00010000 2
#3390
b00000000 2
#3391
00
#3415
b00001011 1
#3416
10
#3418
b00010010 2
#3419
b00000000 2
#3420
00
#3440
b00001111 1
#3441
10
#3443
b00010000 2
#3444
b00000000 2
#3445
00
#3469
b00001011 1
#3470
10
#3472
b00010010 2
#3473
b00000000 2
#3474
00
#3493
b00000000 1
#3494
10
#3495
b11110000 2
#3496
b00010000 2
#3497
b00100000 2
#3498
00
b00000000 2
#3507
b00001111 1
#3508
10
#3510
b00010000 2
#3511
b00000000 2
#3512
00
#3536
b00001011 1
#3537
10
#3539
b00010010 2
#3540
b00000000 2
#3541
00
#3561
b00001111 1
#3562
10
#3564
b00010000 2
#3565
b00000000 2
#3566
00
#3590
b00001011 1
#3591
10
#3593
b00010010 2
#3594
b00000000 2
#3595
00
#3614
b00000000 1
#3615
10
#3616
b11110000 2
#3617
b00010000 2
#3618
b01000000 2
#3619
00
b00000000 2
#3628
b00001111 1
#3629
10
#3631
b00010000 2
#3632
b00000000 2
#3633
00
#3651
13
#3652
03
#3657
b00001011 1
#3658
10
#3660
b00010010 2
#3661
b00000000 2
#3662
00
#3682
b00001111 1
#3683
10
#3685
b00010000 2
#3686
b00000000 2
#3687
00
#3711
b00001011 1
#3712
10
#3714
b00010010 2
#3715
b00000000 2
#3716
00
#3735
b00000000 1
#3736
10
#3737
b11110000 2
#3738
b00010000 2
#3739
b01100000 2
#3740
00
b00000000 2
#4095
00
b00000000 1
b00000000 2
03
